Orderid,OrderNo,Name,Email,price,status,internalNote,CityName,BillingAddress,DeliveryAddress,Products,Paymentstatus,Ordertype,Date,DeliveryPhoneNum,PhoneNum,Brand
184410001cr61b,2020001250,Mohammad UMAR,umarmohammad5771@gmail.com,7990,Waiting for approval,waiting for update,BHIMAVARAM,NEAR RH ROAD BHIMAVARAM 534201,Near CHAMBER OF COMMERCE BHIMAVARAM 534201,Vivo Y91i Black 2GB|32GB X 1 - ,cod,none,8-6-2020,9381172511,9381172511, Vivo
184417001gn61b,2020001251,Mohammad UMAR,umarmohammad5771@gmail.com,7990,Waiting for approval,waiting for update,BHIMAVARAM,RH ROAD NEAR CHAMBER OF COMMERCE BHIMAVARAM 534201,RH ROAD NEAR CHAMBER OF COMMERCE BHIMAVARAM 534201,Oppo A1K Black 2GB|32GB X 1 - ,cod,none,8-6-2020,9381172511,9381172511, Oppo
184434001hc61b,2020001252,Madavapuri Chinnarao,chinnaraomadhavapuri08@gmail.com,7990,Waiting for approval,waiting for update,Vishakapatnam,Arilova old dairy farm Durgabazar Vishakapatnam 530040,Arilova old dairy farm Durgabazar Vishakapatnam 530040,Vivo Y91i Black 2GB|32GB X 1 - ,none,none,8-6-2020,9666370729,9666370729, Vivo
184447001yc61b,2020001253,Chinthalapati Anand,ch.anandnaidu@gmail.com,7990,Waiting for approval,waiting for update,N/A,Old club road Khammam 507001,N/A N/A N/A,Vivo Y91i Black 2GB|32GB X 1 - ,none,pickup,8-6-2020,9912882255,9912882255, Vivo
184450001or61b,2020001254,Chinthalapati Anand,ch.anandnaidu@gmail.com,8499,Waiting for approval,waiting for update,N/A,Old club road Khammam 507001,N/A N/A N/A,Realme C2 Black 3GB|32GB X 1 - ,cod,pickup,8-6-2020,9912882255,9912882255, Realme
184500001ue61b,2020001255,Illuri Mallareddy,mallareddy0107@gmail.com,12999,Waiting for approval,waiting for update,Vinukonda,Vinikonda Vinukonda 522647,Vinikonda Vinukonda 522647,Realme 5 Pro - 4GB|64GB X 1 - ,cod,none,8-6-2020,9491502802,9491502802, Realme
184530001rg61b,2020001256,Kumar Chukka Syam,13945.wgl@gmail.com,15980,Hold,gt vendor,Rajamundry,Main road Rajamundry 533002,Main road Rajamundry 533002,Vivo Y91i Black 2GB|32GB X 2 - ,cod,none,8-6-2020,9912004420,9912004420, Vivo
184535001lx61b,2020001257,Syam Kumar Chukka,13945.wgl@gmail.com,17980,Hold,gt vendor,Vararamachandrapuram,Main road Vararamachandrapuram 507135,Main road Vararamachandrapuram 507135,Vivo Y91i Black 3GB|32GB X 2 - ,cod,none,8-6-2020,7337299147,7337299147, Vivo
184535002lx60b,2020001259,Syam Kumar Chukka,13945.wgl@gmail.com,17980,Waiting for approval,waiting for update,Vararamachandrapuram,Main road Vararamachandrapuram 507135,Main road Vararamachandrapuram 507135,Vivo Y91i Black 3GB|32GB X 2 - ,cod,none,8-6-2020,7337299147,7337299147, Vivo
184535001ob61b,2020001258,Syam Kumar Chukka,13945.wgl@gmail.com,17980,Waiting for approval,waiting for update,Vararamachandrapuram,Main road Vararamachandrapuram 507135,Main road Vararamachandrapuram 507135,Vivo Y91i Black 3GB|32GB X 2 - ,cod,none,8-6-2020,7337299147,7337299147, Vivo
184535001il61b,2020001260,Syam Kumar Chukka,13945.wgl@gmail.com,17980,Waiting for approval,waiting for update,Vararamachandrapuram,Main road Vararamachandrapuram 507135,Main road Vararamachandrapuram 507135,Vivo Y91i Black 3GB|32GB X 2 - ,none,none,8-6-2020,7337299147,7337299147, Vivo
184535003lx61b,2020001261,Syam Kumar Chukka,13945.wgl@gmail.com,17980,Waiting for approval,waiting for update,Vararamachandrapuram,Main road Vararamachandrapuram 507135,Main road Vararamachandrapuram 507135,Vivo Y91i Black 3GB|32GB X 2 - ,none,none,8-6-2020,7337299147,7337299147, Vivo
184535002ob60b,2020001262,Syam Kumar Chukka,13945.wgl@gmail.com,17980,Waiting for approval,waiting for update,Vararamachandrapuram,Main road Vararamachandrapuram 507135,Main road Vararamachandrapuram 507135,Vivo Y91i Black 3GB|32GB X 2 - ,none,none,8-6-2020,7337299147,7337299147, Vivo
184535001en61b,2020001263,Syam Kumar Chukka,13945.wgl@gmail.com,17980,Waiting for approval,waiting for update,Vararamachandrapuram,Main road Vararamachandrapuram 507135,Main road Vararamachandrapuram 507135,Vivo Y91i Black 3GB|32GB X 2 - ,none,none,8-6-2020,7337299147,7337299147, Vivo
184535003ob61b,2020001264,Syam Kumar Chukka,13945.wgl@gmail.com,17980,Waiting for approval,waiting for update,Vararamachandrapuram,Main road Vararamachandrapuram 507135,Main road Vararamachandrapuram 507135,Vivo Y91i Black 3GB|32GB X 2 - ,none,none,8-6-2020,7337299147,7337299147, Vivo
184535002en60b,2020001265,Syam Kumar Chukka,13945.wgl@gmail.com,17980,Waiting for approval,waiting for update,Vararamachandrapuram,Main road Vararamachandrapuram 507135,Main road Vararamachandrapuram 507135,Vivo Y91i Black 3GB|32GB X 2 - ,none,none,8-6-2020,7337299147,7337299147, Vivo
184555001dk61b,2020001266,Mukala Maneendra,maneendra.manu@gmail.com,59999,Hold,no stock,Ramabhadrapuram,sriram nagar colony near viswawani church Ramabhadrapuram 535579,sriram nagar colony near viswawani church Ramabhadrapuram 535579,OnePlus 8 Pro Onyx Black 12GB|256GB X 1 - ,cod,none,8-6-2020,7670868991,7670868991, Oneplus
184558001is61b,2020001267,Krishna Nari,murali9493545555@gmail.com,23970,Hold,gt vendor,Vijayawada,27-14-90 opp sarover apsara theater road vijayawada 520002,27-14-88 apsara theater road Vijayawada 520002,Vivo Y91i Blue 2GB|32GB X 1 - Vivo Y91i Blue 2GB|32GB X 2 - ,cod,none,8-6-2020,9493545555,9493545555, Vivo
184576001nm61b,2020001268,Uppada Venkatesh,venkatesh8669@gmail.com,17999,Waiting for approval,waiting for update,Vishakapatnam,53-25-8/2 Chaitanya Nagar madddilapalem Vishakapatnam 530013,53-25-8/2 Chaitanya Nagar krm colony Vishakapatnam 530013,Realme XT White 6GB|64GB X 1 - ,none,none,8-6-2020,8341053053,8341053053, Realme
184582001lc61b,2020001269,Uppada Venkatesh,venkatesh8669@gmail.com,17999,Waiting for approval,waiting for update,Vishakapatnam,53-25-8/2 Chaitanya Nagar krm colony Vishakapatnam 530013,53-25-8/2 Chaitanya Nagar krm colony Vishakapatnam 530013,Realme XT White 6GB|64GB X 1 - ,none,none,8-6-2020,8341053053,9581587907, Realme
184599001rt61b,2020001270,Karupothula Naveen,vinish52@gmail.com,21498,Hold,no stock,N/A,Near bustand Kalleda village Parvathagiri mandal 506365,N/A N/A N/A,Realme 5 Pro - 4GB|64GB X 1 - Realme C2 Black 3GB|32GB X 1 - ,paid #PINE-660809,pickup,8-6-2020,8985787848,8985787848, Realme
184599001ec61b,2020001271,Karupothula Naveen,vinish52@gmail.com,21498,Waiting for approval,waiting for update,N/A,Near bustand Kalleda village Parvathagiri mandal 506365,N/A N/A N/A,Realme 5 Pro - 4GB|64GB X 1 - Realme C2 Black 3GB|32GB X 1 - ,none,pickup,8-6-2020,8985787848,8985787848, Realme
184610001tl61b,2020001272,Uppada Venkatesh,venkatesh8669@gmail.com,33998,Waiting for approval,waiting for update,VISAKHAPATNAM,53-25-8/2 Chaitanya Nagar madddilapalem Vishakapatnam 530013,53-25-8/2 Chaitanya Nagar madddilapalem VISAKHAPATNAM 530013,Realme XT White 6GB|64GB X 1 - Samsung Galaxy A30s White 4GB|64GB X 1 - ,none,none,8-6-2020,8341053053,9581587907, Realme Samsung
184647001rw61b,2020001273,Vennampalli Manojkumar,manojv3218@gmail.com,8990,Waiting for approval,waiting for update,Kamalapur mandal warangal urban district,C/o shankaraiah Vennampally kannur village kamalapur mandal Kamalapur mandal warangal urban district 505101,C/o shankaraiah Vennampally kannur village kamalapur mandal Kamalapur mandal warangal urban district 505101,Samsung Galaxy A10s Blue 2GB|32GB X 1 - ,cod,none,8-6-2020,9951467896,9951467896, Samsung
184698001ru61b,2020001274,P Tirupathirao,tirupathiraop57@gmail.com,17999,Waiting for approval,waiting for update,N/A,Peddakoneru Mangalagiri D.no 6-23,N/A N/A N/A,Realme XT Blue 6GB|64GB X 1 - ,cod,pickup,8-6-2020,8555097978,8555097978, Realme
184699001wk61b,2020001275,Lal Mokthan Padmalal,santoshlama767@gemail.com,44999,Waiting for approval,waiting for update,N/A,Gopalapatnam Visakhapatnam 530027,N/A N/A N/A,OnePlus 8 Onyx Black 8GB|128GB X 1 - ,none,pickup,8-6-2020,7794099441,7794099441, Oneplus
184699001jx61b,2020001276,Lal Mokthan Padmalal,santoshlama767@gemail.com,44999,Waiting for approval,waiting for update,N/A,Gopalapatnam Visakhapatnam 530027,N/A N/A N/A,OnePlus 8 Onyx Black 8GB|128GB X 1 - ,none,pickup,8-6-2020,7794099441,7794099441, Oneplus
184699001uh61b,2020001277,Lal Mokthan Padmalal,santoshlama767@gemail.com,44999,onhold,waiting for update,N/A,Gopalapatnam Visakhapatnam 530027,N/A N/A N/A,OnePlus 8 Onyx Black 8GB|128GB X 1 - ,none,pickup,8-6-2020,7794099441,7794099441, Oneplus
184699001pi61b,2020001278,Lal Mokthan Padmalal,santoshlama767@gemail.com,44999,Waiting for approval,waiting for update,N/A,Gopalapatnam Visakhapatnam 530027,N/A N/A N/A,OnePlus 8 Onyx Black 8GB|128GB X 1 - ,cod,pickup,8-6-2020,7794099441,7794099441, Oneplus
184699002wk60b,2020001279,Lal Mokthan Padmalal,santoshlama767@gemail.com,44999,Waiting for approval,waiting for update,N/A,Gopalapatnam Visakhapatnam 530027,N/A N/A N/A,OnePlus 8 Onyx Black 8GB|128GB X 1 - ,none,pickup,8-6-2020,7794099441,7794099441, Oneplus
184702001ln61b,2020001280,Bhatia Mukesh,jaincargoddn5@gmail.com,12999,Waiting for approval,waiting for update,dehradun,23 narda dehradun 248001,23 narda dehradun 248001,Realme 5 Pro - 4GB|64GB X 1 - ,cod,none,8-6-2020,8218614619,8218614619, Realme
184732001fg61b,2020001282,Khalandhar Dada,dadakhalandhar786@gmail.com,12999,Waiting for approval,waiting for update,Anantapur,Sai Nagar Anantapur 515001,Sai Nagar Anantapur 515001,Redmi Note 7 Pro – 6GB/64GB X 1 - ,none,none,8-6-2020,9502505660,9502505660, Xiaomi
184744001ut61b,2020001283,KARUNAKAR KESAVA,jfm@happimobiles.com,70499,Waiting for approval,waiting for update,N/A,Ayyappa Socity Hyderabad 500081,N/A N/A N/A,Samsung Galaxy S20 Blue 8GB|128GB X 1 - ,none,pickup,8-6-2020,7702465675,7702465675, Samsung
184753001np61b,2020001284,Arja Manideep,manideeparja124@gmail.com,17999,Waiting for approval,waiting for update,N/A,41-2- 45 old Post office road  Near apple dental care Vijayawada 520013,N/A N/A N/A,Realme XT White 6GB|64GB X 1 - ,none,pickup,8-6-2020,9700126778,9700126778, Realme
184753001it61b,2020001285,Arja Manideep,manideeparja124@gmail.com,17999,Waiting for approval,waiting for update,N/A,41-2- 45 old Post office road  Near apple dental care Vijayawada 520013,N/A N/A N/A,Realme XT White 6GB|64GB X 1 - ,cod,pickup,8-6-2020,9700126778,9700126778, Realme
184753002np60b,2020001286,Arja Manideep,manideeparja124@gmail.com,17999,Waiting for approval,waiting for update,N/A,41-2- 45 old Post office road  Near apple dental care Vijayawada 520013,N/A N/A N/A,Realme XT White 6GB|64GB X 1 - ,none,pickup,8-6-2020,9700126778,9700126778, Realme
184761001wf61b,2020001287,Kumar Basanth,basanthk001@gmail.com,9990,Waiting for approval,waiting for update,Warangal,Mamnoor Warangal 40-1-101,Mamnoor Warangal 40-1-101,Vivo Y11 Red 3GB|32GB - 2019 X 1 - ,cod,none,8-6-2020,9905186414,9905186414, Vivo
184763001ak61b,2020001288,Basha Mohammad Vali,mohammadvali630@gmail.com,19980,Accepted,warehouse delivery,Kadapa,Agadi Kadapa 516002,Agadi Kadapa 516002,Vivo Y12 Blue 3GB|64GB X 1 - Vivo Y91i Black 3GB|32GB X 1 - ,paid #PAYTM-20200608111212800110168014630623067,none,8-6-2020,9885539529,9885539529, Vivo
184791001kd61b,2020001289,Nadipelli Sumukha,nikhil.nadipelli@gmail.com,11499,Accepted,warehouse delivery,Mancherial,Old Garmilla Mancherial 504208,20-600/3  Old Garmilla    Godavari Road  Mancherial Mancherial 504208,Nokia 7.1 - 4GB|64GB X 1 - ,paid #PAYTM-20200608111212800110168131930854518,none,8-6-2020,9619070745,9619070745, Nokia
184820001sy61b,2020001290,Kumar Naveen,naveenmekala7@gmail.com,44999,Waiting for approval,waiting for update,PALAMANERU,26/70   M C PALYAM STREET   NEW PET PALAMANERU 517408,26/70   M C PALYAM STREET   NEW PET PALAMANERU 517408,OnePlus 8 Onyx Black 8GB|128GB X 1 - ,none,none,8-6-2020,9666388451,9666388451, Oneplus
184824001xn61b,2020001291,Chinthalapati Anand,ch.anandnaidu@gmail.com,8499,Waiting for approval,waiting for update,Khammam,9-23 Khammam 507001,9-23 Khammam 507001,Realme C2 Black 3GB|32GB X 1 - ,none,none,8-6-2020,9912882255,9912882255, Realme
184835001db61b,2020001292,Kumar Naveen,naveenmekala7@gmail.com,44999,Canceled,waiting for update,PALAMANERU,26/70  M C PALYAM STREET   NEWPET PALAMANERU 517408,26/70  M C PALYAM STREET   NEWPET PALAMANERU 517408,OnePlus 8 Onyx Black 8GB|128GB X 1 - ,cod,none,8-6-2020,9666388451,9666388451, Oneplus
184837001jo61b,2020001293,Tippani Amar,orders@happimobiles.com,47800,Waiting for approval,waiting for update,hyderabad,1303 ayyapa society  1303  2nd Floor hyderabad 500081,1303 ayyapa society  1303  2nd Floor hyderabad 500081,iPhone SE 2020 128GB Black X 1 - ,none,none,8-6-2020,9652483334,9652483334, Apple
184840001kh61b,2020001294,Tippani Amar,orders@happimobiles.com,84100,Waiting for approval,waiting for update,hyderabad,1303 ayyapa society  1303  2nd Floor hyderabad 500081,1303 ayyapa society  1303  2nd Floor hyderabad 500081,iPhone 11 White 256GB X 1 - ,none,none,8-6-2020,9652483334,9652483334, Apple
184847001nr61b,2020001295,Varaprasad Narendra,gantaca09@gmail.com,12999,Accepted,warehouse delivery,Hyderabad,H.No.4-1313 Martand Nagar  New Hafizpet Hyderabad 500049,H.No.4-1313 Martand Nagar  New Hafizpet Hyderabad 500049,Realme 5 Pro - 4GB|64GB X 1 - ,paid #PAYTM-20200608111212800110168009730439430,none,8-6-2020,9705800097,9491009697, Realme
184859001rk61b,2020001296,Vennampalli Manojkumar,manojv3218@gmail.com,8990,Accepted,warehouse delivery,Kamalapur mandal warangal urban district,C/o shankaraiah Vennampally kannur village Kamalapur mandal warangal urban district 505101,C/o shankaraiah Vennampally kannur village Kamalapur mandal warangal urban district 505101,Samsung Galaxy A10s Blue 2GB|32GB X 1 - ,paid #PAYTM-20200608111212800110168120630708597,none,8-6-2020,9951467896,9951467896, Samsung
184869001bu61b,2020001297,Tippani Amar,orders@happimobiles.com,40990,Waiting for approval,waiting for update,hyderabad,1303 ayyapa society  1303  2nd Floor hyderabad 500081,1303 ayyapa society  1303  2nd Floor hyderabad 500081,Apple iPad (10.2-inch) X 1 - ,none,none,8-6-2020,9652483334,9652483334,
184879001bi61b,2020001298,C Nikhil,chnikhil73@gmail.com,44999,Waiting for approval,waiting for update,Vijayawada,Tikkle road  Shyam nagar Vijayawada 520010,Tikkle road  Shyam nagar Vijayawada 520010,OnePlus 8 Onyx Black 8GB|128GB X 1 - ,none,none,8-6-2020,9108567976,9108567976, Oneplus
184947002fj60b,2020001299,Ponigeti Venkata Reddy,pvr.289@gmail.com,15999,Waiting for approval,waiting for update,N/A,Tamma ranga reddy nagar Guntur 522001,N/A N/A N/A,Redmi Note 8 Pro – 6GB|64GB X 1 - ,none,pickup,8-6-2020,8885358358,8885358358, Xiaomi
184948001ft61b,2020001300,NARAYANA AMRUTH,narayana.ngopro@gmail.com,15499,Waiting for approval,waiting for update,Hyderabad,Manjeera Pipe Line road Hyderabad 500049,G-02  Raycon Residency 2 Manjeera Pipe Line road Hyderabad 500049,"Samsung Galaxy M21 Raven Black, 6GB | 128 GB X 1 - ",none,none,8-6-2020,9502969924,9502969924, Samsung
184961001jj61b,2020001301,BOLLA MANIKANTA,bmani33@gmail.com,8990,Waiting for approval,waiting for update,N/A,Krishna Nagar Hyderabad 500040,N/A N/A N/A,Samsung Galaxy A10s Black 2GB|32GB X 1 - ,none,pickup,8-6-2020,8500734583,8500734583, Samsung
184964001cy61b,2020001302,BOLLA MANIKANTA,bmani33@gmail.com,8990,Waiting for approval,waiting for update,Hyderabad,plot no : 99  Sathyavathi Nilayam  Krishna Nagar Colony  Road No.2  Moulali Hyderabad 500040,plot no : 99  Sathyavathi Nilayam  Krishna Nagar Colony  Road No.2  Moulali Hyderabad 500040,Samsung Galaxy A10s Black 2GB|32GB X 1 - ,none,none,8-6-2020,8500734583,8500734583, Samsung
184985001xn61b,2020001303,Rashid Snober,dr.amirsheriff@gmail.com,49999,Canceled,waiting for update,N/A,12-2-831/52/1  F-402  Nafees Residency Apartments  Mehdipatnam Hyderabad 500028,N/A N/A N/A,"OnePlus 8 Onyx Black, 12GB|256GB X 1 - ",cod,pickup,8-6-2020,9700550166,9700550166, Oneplus
184997001ji61b,2020001304,Kiran Sai,saikirangeela@gmail.com,28998,Waiting for approval,waiting for update,Hyderabad,12-2-717/1/19/2   sapthagiri colony  rethibowli Hyderabad 500028,12-2-717/1/19/2   sapthagiri colony  rethibowli Hyderabad 500028,Redmi Note 8 – 6GB/128GB X 1 - Redmi Note 8 – 6GB/128GB X 1 - ,none,none,8-6-2020,8978407626,8978407626, Xiaomi
185000001xh61b,2020001305,Kiran Sai,saikirangeela@gmail.com,14499,Cancel,not interested,Hyderabad,12-2-717/1/19/2   sapthagiri colony  rethibowli  Mehdipatnam Hyderabad 500028,12-2-717/1/19/2   sapthagiri colony  rethibowli  Mehdipatnam Hyderabad 500028,Redmi Note 8 – 6GB/128GB X 1 - ,cod,none,8-6-2020,8978407626,8978407626, Xiaomi
185003001te61b,2020001306,War Umamahesh,mahesh.becol@gmail.com,44999,Waiting for approval,waiting for update,N/A,Yadava Bazar Guntur 522034,N/A N/A N/A,OnePlus 8 Glacial Green 8GB|128GB X 1 - ,none,pickup,8-6-2020,9640980946,9640980946, Oneplus
185008001ic61b,2020001307,G Satya,satyagorjana96@gmail.com,21980,onhold,waiting for update,Vizayanagaram,Kurupam main street Vizayanagaram Jio office,Kurupam main street Vizayanagaram Jio office,Vivo Y12 Blue 3GB|64GB X 1 - Vivo Y12 Red 3GB|64GB X 1 - ,cod,none,8-6-2020,7730099924,7730099924, Vivo
185012001nh61b,2020001308,Kumar Jeevan,jeevanjack1516@gmail.com,9990,Accepted,warehouse delivery,Hyderabad,Swathi enclave  falt no -202  hanumanpeta  malkajgiri Hyderabad 500047,Swathi enclave  falt no -202  hanumanpeta  malkajgiri Hyderabad 500047,Oppo A5s Blue 3GB|32GB X 1 - ,paid #PINE-662409,none,8-6-2020,9704441500,9704441500, Oppo
185023001wf61b,2020001309,G Satya,satedagandhi1234@gmail.com,16999,onhold,waiting for update,Vizayanagaram,Kurupam main street Vizayanagaram Jio office,Kurupam main street Vizayanagaram Jio office,Realme X Blue 4GB|128GB X 1 - ,cod,none,8-6-2020,9347849221,9347849221, Realme
185059001yo61b,2020001310,Devishetti Sreenivas,seens9@gmail.com,16999,Waiting for approval,waiting for update,Hyderabad,Hno 2-125/2/1B ground floor Hyderabad 500050,Hno 2-125/2/1B ground floor  Gangaram chandanagar near arohana school Hyderabad 500050,Redmi Note 8 Pro – 6GB|128GB X 1 - ,none,none,8-6-2020,9700043922,9700043922, Xiaomi
185089001lt61b,2020001311,Narender Rathod,rathodnarender1234@gmail.com,63998,Canceled,waiting for update,Jainoor,Adithya jwellers Jainoor 504313,Adithya jwellers Jainoor 504313,Realme X2 Pro White 8GB|128GB X 2 - ,none,none,8-6-2020,9010547231,9010547231, Realme
185106001rt61b,2020001312,Parvthi Bommi,bparvathiroopa@gmail.com,10999,Accepted,warehouse delivery,Vijayawada,Pcwa4-124 1st line pasuputhota 4thcross road madhura nagar Vijayawada 520011,Pcwa4-124 1st line pasuputhota 4thcross road madhura nagar Vijayawada 520011,SAMSUNG GALAXY Voilet M11 3GB|32GB X 1 - ,paid #PINE-662733,none,8-6-2020,9908528044,9908528044, Samsung
185113001om61b,2020001313,Craven Nita,march.nita@gmail.com,47800,Waiting for approval,waiting for update,ADILABAD,DOOR NO-4-2-198/13/1/13  VP COMPLEX  MOCHIGALLI  NETAJI CHOWK  ADILABAD  OPP CENTRAL DISTRICT LIBRARY  504001  T.G. ADILABAD 504001,DOOR NO-4-2-198/13/1/13  VP COMPLEX  MOCHIGALLI  NETAJI CHOWK  ADILABAD  OPP CENTRAL DISTRICT LIBRARY  504001  T.G. ADILABAD 504001,iPhone SE 2020 Red 128GB X 1 - ,none,none,8-6-2020,9819190652,9819190652, Apple
185123001oc61b,2020001314,Kumar Manoj,patturi31@gmail.com,11499,Waiting for approval,waiting for update,Madhapur,1-98/3 JBR Recidency Vikram Hospital Lane Madhapur Hyderabad Madhapur 500081,1-98/3 JBR Recidency Vikram Hospital Lane Madhapur Hyderabad  Ioc Petrol Pump Madhapur 500081,Nokia 7.1 - 4GB|64GB X 1 - ,cod,none,8-6-2020,7287876566,7287876566, Nokia
185157001bf61b,2020001315,S Narmadha,cool.narmadha@gmail.com,12999,Waiting for approval,waiting for update,Hyderabad,Flat306  block 1  smr Vinay Harmony County  Bandlaguda jagir Hyderabad 500086,Flat306  block 1  smr Vinay Harmony County  Bandlaguda jagir Hyderabad 500086,Redmi Note 7 Pro – 6GB/64GB X 1 - ,none,none,8-6-2020,9176680020,9176680020, Xiaomi
185163001dk61b,2020001316,S Narmadha,cool.narmadha@gmail.com,8499,Waiting for approval,waiting for update,Hyderabad,Flat 306 block 1  smr Vinay Harmony County  Kismatpur bandlaguda jagir Hyderabad 500086,Flat 306 block 1  smr Vinay Harmony County  Kismatpur bandlaguda jagir Hyderabad 500086,Realme C2 Black 3GB|32GB X 1 - ,paid #PAYTM-20200608111212800110168532631060998,none,8-6-2020,9176680020,9176680020, Realme
185163002dk60b,2020001317,S Narmadha,cool.narmadha@gmail.com,8499,Waiting for approval,waiting for update,Hyderabad,Flat 306 block 1  smr Vinay Harmony County  Kismatpur bandlaguda jagir Hyderabad 500086,Flat 306 block 1  smr Vinay Harmony County  Kismatpur bandlaguda jagir Hyderabad 500086,Realme C2 Black 3GB|32GB X 1 - ,none,none,8-6-2020,9176680020,9176680020, Realme
185170001ef61b,2020001318,Duda Veerandrareddy,srisampathelectronics@gmail.com,7990,Hold,cod issue,N/A,Korrajulagutta Bhadrachalam 507111,N/A N/A N/A,Vivo Y91i Black 2GB|32GB X 1 - ,cod,pickup,8-6-2020,9963775858,9963775858, Vivo
185259001jp61b,2020001319,Shaik Rabbani,rabbaniamp@gmail.com,12999,Waiting for approval,waiting for update,N/A,Keshavareddy schooĺ Rajahmundry 533107,N/A N/A N/A,REDMI A3 Grey 4GB/64GB X 1 - ,cod,pickup,8-6-2020,9948723331,9948723331, Xiaomi
185259001ld61b,2020001320,Shaik Rabbani,rabbaniamp@gmail.com,12999,Waiting for approval,waiting for update,N/A,Keshavareddy schooĺ Rajahmundry 533107,N/A N/A N/A,REDMI A3 Grey 4GB/64GB X 1 - ,none,pickup,8-6-2020,9948723331,9948723331, Xiaomi
185358001cs61b,2020001321,Fayaz S,fayazshaikfayaz13@gmail.com,13999,Waiting for approval,waiting for update,Kurnool,Hno 69 /601/1 dargah street joharapuram kurnool Kurnool Joharapuram kurnool,Hno 69 /601/1 dargah street joharapuram kurnool Kurnool Joharapuram kurnool,Redmi Note 7 Pro – 6GB/128GB X 1 - ,none,none,8-6-2020,9502010238,9502010238, Xiaomi
185365001ya61b,2020001322,Harshavardhan Reddy Karne,harshar437@gmail.com,7399,Waiting for approval,waiting for update,N/A,Chandanagar Hyderabad Rangareddy,N/A N/A N/A,Gionee M7 Power - 4 GB RAM | 64 GB ROM X 1 - ,none,pickup,8-6-2020,9701404717,9701404717,
185366001lr61b,2020001323,Emi Test,srk@iipl.work,40990,Waiting for approval,waiting for update,N/A,Shan ;scvdlfm klcmdsw,N/A N/A N/A,Apple iPad (10.2-inch) X 1 - ,none,pickup,8-6-2020,8686836269,8686836269,
185378001cu61b,2020001324,Kumar Arun,cheetha.arun@gmail.com,42500,Waiting for approval,waiting for update,N/A,dharga street dharmavaram 515671,N/A N/A N/A,iPhone SE 2020 Red 64GB X 1 - ,none,pickup,8-6-2020,8008245984,8008245984, Apple
185416001en61b,2020001325,Hari Puli,pulihari43@gmail.com,55999,Waiting for approval,waiting for update,N/A,Mainroad Kadiri Full,N/A N/A N/A,Xiaomi Mi 10 5G Coral Green 8GB RAM | 256GB ROM X 1 - ,none,pickup,8-6-2020,9885265464,9885265464, Xiaomi
185416001kx61b,2020001326,Hari Puli,pulihari43@gmail.com,55999,Waiting for approval,waiting for update,N/A,Mainroad Kadiri Full,N/A N/A N/A,Xiaomi Mi 10 5G Coral Green 8GB RAM | 256GB ROM X 1 - ,none,pickup,8-6-2020,9885265464,9885265464, Xiaomi
185429001gm61b,2020001327,Bodla Sravan,sravan.bodla@gmail.com,20980,Hold,gt vendor,Karimnagar,Near geetha bhavan Karimnagar 505001,Mukarampura Karimnagar 505001,Vivo Y12 Red 3GB|64GB X 1 - Vivo Y11 Red 3GB|32GB - 2019 X 1 - ,cod,none,8-6-2020,9949950953,9949950953, Vivo
185429001tb61b,2020001328,Bodla Sravan,sravan.bodla@gmail.com,20980,Waiting for approval,waiting for update,Karimnagar,Near geetha bhavan Karimnagar 505001,Mukarampura Karimnagar 505001,Vivo Y12 Red 3GB|64GB X 1 - Vivo Y11 Red 3GB|32GB - 2019 X 1 - ,cod,none,8-6-2020,9949950953,9949950953, Vivo
185457001wh61b,2020001329,Johnson Paul,rogerp54@gmail.com,16856,Waiting for approval,waiting for update,Hyderabad,Malakpet Govt Quarters Hyderabad 500036,Malakpet Govt Quarters  Flat No 220 Malakpet B Block Government Residential Flats Hyderabad 500036,Samsung Galaxy A30s Black 4GB|128GB X 1 - ,none,none,8-6-2020,8919542306,, Samsung
185457001kf61b,2020001330,Johnson Paul,rogerp54@gmail.com,16856,Waiting for approval,waiting for update,Hyderabad,Malakpet Govt Quarters Hyderabad 500036,Malakpet Govt Quarters  Flat No 220 Malakpet B Block Government Residential Flats Hyderabad 500036,Samsung Galaxy A30s Black 4GB|128GB X 1 - ,none,none,8-6-2020,8919542306,, Samsung
185457002wh60b,2020001331,Johnson Paul,rogerp54@gmail.com,16856,Waiting for approval,waiting for update,Hyderabad,Malakpet Govt Quarters Hyderabad 500036,Malakpet Govt Quarters  Flat No 220 Malakpet B Block Government Residential Flats Hyderabad 500036,Samsung Galaxy A30s Black 4GB|128GB X 1 - ,none,none,8-6-2020,8919542306,, Samsung
185458001nb61b,2020001332,Johnson Paul,rogerp54@gmail.com,16856,Waiting for approval,waiting for update,Hyderabad,Malakpet Govt Quarters Hyderabad 500036,Malakpet Govt Quarters  Flat No 220 Malakpet B Block Government Residential Flats Hyderabad 500036,Samsung Galaxy A30s Black 4GB|128GB X 1 - ,none,none,8-6-2020,8919542306,, Samsung
185458001ux61b,2020001333,Johnson Paul,rogerp54@gmail.com,16856,Waiting for approval,waiting for update,Hyderabad,Malakpet Govt Quarters Hyderabad 500036,Malakpet Govt Quarters  Flat No 220 Malakpet B Block Government Residential Flats Hyderabad 500036,Samsung Galaxy A30s Black 4GB|128GB X 1 - ,none,none,8-6-2020,8919542306,, Samsung
185458002nb60b,2020001334,Johnson Paul,rogerp54@gmail.com,16856,Waiting for approval,waiting for update,Hyderabad,Malakpet Govt Quarters Hyderabad 500036,Malakpet Govt Quarters  Flat No 220 Malakpet B Block Government Residential Flats Hyderabad 500036,Samsung Galaxy A30s Black 4GB|128GB X 1 - ,none,none,8-6-2020,8919542306,, Samsung
185458003nb61b,2020001335,Johnson Paul,rogerp54@gmail.com,16856,Waiting for approval,waiting for update,Hyderabad,Malakpet Govt Quarters Hyderabad 500036,Malakpet Govt Quarters  Flat No 220 Malakpet B Block Government Residential Flats Hyderabad 500036,Samsung Galaxy A30s Black 4GB|128GB X 1 - ,none,none,8-6-2020,8919542306,, Samsung
185458001ba61b,2020001336,Johnson Paul,rogerp54@gmail.com,16856,Waiting for approval,waiting for update,Hyderabad,Malakpet Govt Quarters Hyderabad 500036,Malakpet Govt Quarters  Flat No 220 Malakpet B Block Government Residential Flats Hyderabad 500036,Samsung Galaxy A30s Black 4GB|128GB X 1 - ,none,none,8-6-2020,8919542306,, Samsung
185458004nb60b,2020001337,Johnson Paul,rogerp54@gmail.com,16856,Waiting for approval,waiting for update,Hyderabad,Malakpet Govt Quarters Hyderabad 500036,Malakpet Govt Quarters Hyderabad 500036,Samsung Galaxy A30s Black 4GB|128GB X 1 - ,none,none,8-6-2020,8919542306,8919542306, Samsung
185458002ba60b,2020001338,Johnson Paul,rogerp54@gmail.com,16856,Waiting for approval,waiting for update,Hyderabad,Malakpet Govt Quarters Hyderabad 500036,Malakpet Govt Quarters Hyderabad 500036,Samsung Galaxy A30s Black 4GB|128GB X 1 - ,none,none,8-6-2020,8919542306,8919542306, Samsung
185497001ly61b,2020001339,Ramesh Potharavena,potharaveniramesh@gmail.com,7428,Waiting for approval,waiting for update,Mandamarri,44-D Pranahitha colany Mandamarri 504231,44-D Pranahitha colany Mandamarri 504231,Nokia 3.2 Black 2GB|16GB X 1 - ,cod,none,8-6-2020,9652226628,9652226628, Nokia
185506001xd61b,2020001340,Mohiuddin Syed,mohiuddinfahad@gmail.com,18999,Waiting for approval,waiting for update,N/A,Hno 16-2-838 Al raheem Apt  Flat 105 Hyderabad 500059,N/A N/A N/A,Redmi Note 8 Pro Green 8GB|128GB X 1 - ,none,pickup,8-6-2020,7989915744,7989915744, Xiaomi
185510001yu61b,2020001341,Beesanna Perapogu,perapogubheesanna510@email.com,18999,Waiting for approval,waiting for update,N/A,sc colony jogulamba gadwal narayana puram,N/A N/A N/A,Redmi Note 8 Pro Black 8GB|128GB X 1 - ,none,pickup,8-6-2020,8106621410,8106621410, Xiaomi
185510001bb61b,2020001342,Beesanna Perapogu,perapogubheesanna510@email.com,18999,Waiting for approval,waiting for update,N/A,sc colony jogulamba gadwal narayana puram,N/A N/A N/A,Redmi Note 8 Pro Black 8GB|128GB X 1 - ,none,pickup,8-6-2020,8106621410,8106621410, Xiaomi
185570001ba61b,2020001343,Rajesh Nandavaram,dhawanrajesh5@gmail.com,13199,Hold,no stock,Giddalur,Pandu ranga reddy nagar Giddalur 523357,Pandu ranga reddy nagar Giddalur 523357,"Samsung Galaxy M21 Raven Black, 4GB | 64 GB X 1 - ",cod,none,8-6-2020,7989226212,7989226212, Samsung
185590001ow61b,2020001344,Rajesh Nandavaram,dhawanrajesh5@gmail.com,13199,Hold,no stock,Giddalur,Pandu ranga reddy na gar 7th ward Giddalur 523357,Pandu ranga reddy na gar 7th ward Giddalur 523357,"Samsung Galaxy M21 Raven Black, 4GB | 64 GB X 1 - ",cod,none,8-6-2020,7989226212,7989226212, Samsung
185595001mi61b,2020001345,Kolluru Naga Mallikarjuna Rao,kolluru.mallikarjuna@gmail.com,12999,Waiting for approval,waiting for update,N/A,near dhaulur trool plaza vijayawada 521165,N/A N/A N/A,REDMI A3 Grey 4GB/64GB X 1 - ,none,pickup,8-6-2020,9700094881,9700094881, Xiaomi
185603001hh61b,2020001346,K Naga,kolluru.mallikarjuna@gmail.com,12999,Cancel,refund immediately,Vuyyuru,Near Toll plaza Davuluru 521151,Near Toll plaza Vuyyuru 521151,REDMI A3 Grey 4GB/64GB X 1 - ,paid #PAYTM-20200609111212800110168158130587038,none,8-6-2020,9700094881,9700094881, Xiaomi
185635001cf61b,2020001347,TIWARI PRABHASH,sonut7516@gmail.com,47800,Waiting for approval,waiting for update,N/A,BLOCK-1 Vishakhapatnam 530027,N/A N/A N/A,iPhone SE 2020 Red 128GB X 1 - ,none,pickup,8-6-2020,9652638534,9652638534, Apple
185639001xc61b,2020001348,TIWARI PRABHASH,sonut7516@gmail.com,47800,Waiting for approval,waiting for update,Vishakhapatnam,BLOCK-1 Vishakhapatnam 530027,SRIRAMNAGAR Vishakhapatnam 530027,iPhone SE 2020 Red 128GB X 1 - ,none,none,8-6-2020,9652638534,9652638534, Apple
185654001jb61b,2020001349,TIWARI PRABHASH,sonut7516@gmail.com,42500,Waiting for approval,waiting for update,Vishakhapatnam,BLOCK-1 Vishakhapatnam 530027,BLOCK-1 Vishakhapatnam 530027,iPhone SE 2020 Red 64GB X 1 - ,none,none,8-6-2020,9652638534,9652638534, Apple
185989001bg61b,2020001350,Koushik Koushik,koushikkannamudhiraj@gmail.com,27490,Waiting for approval,waiting for update,N/A,Girmajipet Warangal Subhash circle,N/A N/A N/A,Oppo Reno 2Z Black 8GB|256GB X 1 - ,none,pickup,9-6-2020,7330002878,7330002878, Oppo
186095001fr61b,2020001351,Vijay Vijay,vijayclassic143@gmail.com,10999,Hold,no stock,N/A,Vegivaripalem Razole 533248,N/A N/A N/A,SAMSUNG GALAXY Voilet M11 3GB|32GB X 1 - ,cod,pickup,9-6-2020,9515727719,9515727719, Samsung
186170001nw61b,2020001352,Veeramachaneni Sowjanya,vrk1624@gmail.com,9990,Accepted,vij 4 delivery,Vijayawada,Dr no.42-56-17;Block no.3;plot no.65.Ajithsinghnagar Vijayawada 520015,Dr no.42-56-17;Block no.3;plot no.65.Ajithsingh nagar Vijayawada 520015,Vivo Y11 Red 3GB|32GB - 2019 X 1 - ,cod,none,9-6-2020,8328668595,8328668595, Vivo
186237001jl61b,2020001353,Vijay Vijay,vijayclassic143@gmail.com,10999,Waiting for approval,waiting for update,N/A,Vegivaripalem Razole 533248,N/A N/A N/A,SAMSUNG GALAXY Voilet M11 3GB|32GB X 1 - ,none,pickup,9-6-2020,9515727719,9515727719, Samsung
186247001fu61b,2020001354,Srikanth Manda,srikanth8361@gmail.com,15999,Waiting for approval,waiting for update,Hyderabad,Kothapet sbi colony Hyderabad 500035,Kothapet sbi colony Hyderabad 500035,Redmi Note 8 Pro – 6GB|64GB X 1 - ,none,none,9-6-2020,9849264624,9849264624, Xiaomi
186259001kb61b,2020001355,Anilkumar Gaddam,akhilanil000@gmail.com,27490,Canceled,waiting for update,Huzurabad,Main road Huzurabad Hzb,Mainroad Huzurabad Hzb,Oppo Reno 2Z White 8GB|256GB X 1 - ,cod,none,9-6-2020,8466021789,8466021789, Oppo
186262001ic61b,2020001356,War Umamahesh,mahesh.becol@gmail.com,44999,Waiting for approval,waiting for update,N/A,society road Vijayawada 522034,N/A N/A N/A,OnePlus 8 Glacial Green 8GB|128GB X 1 - ,none,pickup,9-6-2020,9640980946,9640980946, Oneplus
186262001uh61b,2020001357,War Umamahesh,mahesh.becol@gmail.com,44999,Waiting for approval,waiting for update,N/A,society road Vijayawada 522034,N/A N/A N/A,OnePlus 8 Glacial Green 8GB|128GB X 1 - ,none,pickup,9-6-2020,9640980946,9640980946, Oneplus
186264001lm61b,2020001358,Tippani Amar,orders@happimobiles.com,40990,Waiting for approval,waiting for update,hyderabad,1303 ayyapa society  1303  2nd Floor hyderabad 500081,1303 ayyapa society  1303  2nd Floor hyderabad 500081,Apple iPad (10.2-inch) X 1 - ,none,none,9-6-2020,9652483334,9652483334,
186267001jp61b,2020001359,Tippani Amar,happimobilesdigital@gmail.com,150800,Waiting for approval,waiting for update,Hyderabad,1303 ayyappa society Hyderabad 500081,1303 ayyappa society Hyderabad 500081,iPhone 11 Pro Max Space Grey 512GB X 1 - ,none,none,9-6-2020,7993151666,7993151666, Apple
186313001iu61b,2020001360,Kokala Keerthi,keerthikokala@gmail.com,20560,Hold,no stock,N/A,Ram nagar Anantapur 515005,N/A N/A N/A,Samsung Galaxy A50s White 6GB|128GB X 1 - ,cod,pickup,9-6-2020,9246148968,9246148968, Samsung
186350001ho61b,2020001361,P SURYA VENKATA SUBBA RAJU,accounts@horizonmolecules.com,44999,Waiting for approval,waiting for update,HYDERABAD,Horizon Molecules LLP   G2 Srikrishna Satyaki Apt Srinagar Colony Hyderabad 500073 HYDERABAD 500073,Horizon Molecules LLP   G2 Srikrishna Satyaki Apt Srinagar Colony Hyderabad 500073 HYDERABAD 500073,OnePlus 8 Onyx Black 8GB|128GB X 1 - ,none,none,9-6-2020,8985499665,8985499665, Oneplus
186362001br61b,2020001362,Srenik Koora,srenikpriya@gmail.com,16999,Waiting for approval,waiting for update,Hyderabad,neradmet madhuranagar Hyderabad 500096,neradmet madhuranagar Hyderabad 500096,Redmi Note 8 Pro – 6GB|128GB X 1 - ,none,none,9-6-2020,9848234101,9848234101, Xiaomi
186389001ec61b,2020001363,Kokala Keerthi,keerthikokala@gmail.com,20560,Hold,no stock,N/A,Ram nagar Anantapur 515005,N/A N/A N/A,Samsung Galaxy A50s White 6GB|128GB X 1 - ,cod,pickup,9-6-2020,9246148968,9246148968, Samsung
186395001dx61b,2020001364,RASHID SNOBER,dr.amirsheriff@gmail.com,49999,Hold,no stock,Hyderabad,C/O. Amir Sheriff 12-2-831/52/1  F-402  Nafees Residency Apts.  Mehdipatnam  Near Narayanamma High School Hyderabad 500028,C/O. Amir Sheriff 12-2-831/52/1  F-402  Nafees Residency Apts.  Mehdipatnam  Near Narayanamma High School Hyderabad 500028,"OnePlus 8 Onyx Black, 12GB|256GB X 1 - ",cod,none,9-6-2020,9700550166,9700550166, Oneplus
186402001sn61b,2020001366,Manne Harsha,harshamanne9999@gmail.com,44999,Waiting for approval,waiting for update,N/A,Nalandha nagar 2nd line  3-30-11/9 GUNTUR 522007,N/A N/A N/A,OnePlus 8 Onyx Black 8GB|128GB X 1 - ,cod,pickup,9-6-2020,9885885607,9885885607, Oneplus
186412001xd61b,2020001367,K Keerthi,keerthikokala@gmail.com,20560,Hold,no stock,N/A,Ram nagar Anantapur 515005,N/A N/A N/A,Samsung Galaxy A50s White 6GB|128GB X 1 - ,cod,pickup,9-6-2020,9246148968,9246148968, Samsung
186412001ob61b,2020001368,K Keerthi,keerthikokala@gmail.com,20560,Hold,no stock,N/A,Ram nagar Anantapur 515005,N/A N/A N/A,Samsung Galaxy A50s White 6GB|128GB X 1 - ,cod,pickup,9-6-2020,9246148968,9246148968, Samsung
186428001ws61b,2020001369,P SRI RAM,accounts@happimobiles.com,15999,Finished,payment check,HYDERABAD,MADHAPUR HYDERABAD 500081,MADHAPUR HYDERABAD 500081,Redmi Note 8 Pro – 6GB|64GB X 1 - ,paid #PINE-666834,none,9-6-2020,9100882666,9100882666, Xiaomi
186472001nj61b,2020001370,BOLLISETTY PRABHAKAR,bollisettyprabhakar@gmail.com,10990,Waiting for approval,waiting for update,ANAKAPALLI.VISAKHAPATNAM,DR NO.13-2-32;MUSZID STREET. ANAKAPALLI.VISAKHAPATNAM 531001,DR NO.13-2-32;MUSZID STREET. ANAKAPALLI.VISAKHAPATNAM 531001,Vivo Y12 Red 3GB|64GB X 1 - ,none,none,9-6-2020,8919882260,8919882260, Vivo
186472001ce61b,2020001371,BOLLISETTY PRABHAKAR,bollisettyprabhakar@gmail.com,10990,Waiting for approval,waiting for update,ANAKAPALLI.VISAKHAPATNAM,DR NO.13-2-32;MUSZID STREET. ANAKAPALLI.VISAKHAPATNAM 531001,DR NO.13-2-32;MUSZID STREET. ANAKAPALLI.VISAKHAPATNAM 531001,Vivo Y12 Red 3GB|64GB X 1 - ,none,none,9-6-2020,8919882260,8919882260, Vivo
186472002ce60b,2020001372,BOLLISETTY PRABHAKAR,bollisettyprabhakar@gmail.com,10990,Waiting for approval,waiting for update,ANAKAPALLI.VISAKHAPATNAM,DR NO.13-2-32;MUSZID STREET. ANAKAPALLI.VISAKHAPATNAM 531001,DR NO.13-2-32;MUSZID STREET. ANAKAPALLI.VISAKHAPATNAM 531001,Vivo Y12 Red 3GB|64GB X 1 - ,none,none,9-6-2020,8919882260,8919882260, Vivo
186472001wc61b,2020001372,BOLLISETTY PRABHAKAR,bollisettyprabhakar@gmail.com,10990,Waiting for approval,waiting for update,ANAKAPALLI.VISAKHAPATNAM,DR NO.13-2-32;MUSZID STREET. ANAKAPALLI.VISAKHAPATNAM 531001,DR NO.13-2-32;MUSZID STREET. ANAKAPALLI.VISAKHAPATNAM 531001,Vivo Y12 Red 3GB|64GB X 1 - ,none,none,9-6-2020,8919882260,8919882260, Vivo
186472002nj60b,2020001373,BOLLISETTY PRABHAKAR,bollisettyprabhakar@gmail.com,10990,Waiting for approval,waiting for update,ANAKAPALLI.VISAKHAPATNAM,DR NO.13-2-32;MUSZID STREET. ANAKAPALLI.VISAKHAPATNAM 531001,DR NO.13-2-32;MUSZID STREET. ANAKAPALLI.VISAKHAPATNAM 531001,Vivo Y12 Red 3GB|64GB X 1 - ,none,none,9-6-2020,8919882260,8919882260, Vivo
186472001fj61b,2020001374,BOLLISETTY PRABHAKAR,bollisettyprabhakar@gmail.com,10990,Waiting for approval,waiting for update,ANAKAPALLI.VISAKHAPATNAM,DR NO.13-2-32;MUSZID STREET. ANAKAPALLI.VISAKHAPATNAM 531001,DR NO.13-2-32;MUSZID STREET. ANAKAPALLI.VISAKHAPATNAM 531001,Vivo Y12 Red 3GB|64GB X 1 - ,none,none,9-6-2020,8919882260,8919882260, Vivo
186472001fn61b,2020001375,BOLLISETTY PRABHAKAR,bollisettyprabhakar@gmail.com,10990,Waiting for approval,waiting for update,ANAKAPALLI.VISAKHAPATNAM,DR NO.13-2-32;MUSZID STREET. ANAKAPALLI.VISAKHAPATNAM 531001,DR NO.13-2-32;MUSZID STREET. ANAKAPALLI.VISAKHAPATNAM 531001,Vivo Y12 Red 3GB|64GB X 1 - ,none,none,9-6-2020,8919882260,8919882260, Vivo
186472003ce61b,2020001376,BOLLISETTY PRABHAKAR,bollisettyprabhakar@gmail.com,10990,Waiting for approval,waiting for update,ANAKAPALLI.VISAKHAPATNAM,DR NO.13-2-32;MUSZID STREET. ANAKAPALLI.VISAKHAPATNAM 531001,DR NO.13-2-32;MUSZID STREET. ANAKAPALLI.VISAKHAPATNAM 531001,Vivo Y12 Red 3GB|64GB X 1 - ,none,none,9-6-2020,8919882260,8919882260, Vivo
186472003nj61b,2020001377,BOLLISETTY PRABHAKAR,bollisettyprabhakar@gmail.com,10990,Waiting for approval,waiting for update,ANAKAPALLI.VISAKHAPATNAM,DR NO.13-2-32;MUSZID STREET. ANAKAPALLI.VISAKHAPATNAM 531001,DR NO.13-2-32;MUSZID STREET. ANAKAPALLI.VISAKHAPATNAM 531001,Vivo Y12 Red 3GB|64GB X 1 - ,none,none,9-6-2020,8919882260,8919882260, Vivo
186472004ce60b,2020001378,BOLLISETTY PRABHAKAR,bollisettyprabhakar@gmail.com,10990,Waiting for approval,waiting for update,ANAKAPALLI.VISAKHAPATNAM,DR NO.13-2-32;MUSZID STREET. ANAKAPALLI.VISAKHAPATNAM 531001,DR NO.13-2-32;MUSZID STREET. ANAKAPALLI.VISAKHAPATNAM 531001,Vivo Y12 Red 3GB|64GB X 1 - ,none,none,9-6-2020,8919882260,8919882260, Vivo
186472002wc60b,2020001379,BOLLISETTY PRABHAKAR,bollisettyprabhakar@gmail.com,10990,Waiting for approval,waiting for update,ANAKAPALLI.VISAKHAPATNAM,DR NO.13-2-32;MUSZID STREET. ANAKAPALLI.VISAKHAPATNAM 531001,DR NO.13-2-32;MUSZID STREET. ANAKAPALLI.VISAKHAPATNAM 531001,Vivo Y12 Red 3GB|64GB X 1 - ,none,none,9-6-2020,8919882260,8919882260, Vivo
186472002fn60b,2020001380,BOLLISETTY PRABHAKAR,bollisettyprabhakar@gmail.com,10990,Waiting for approval,waiting for update,ANAKAPALLI.VISAKHAPATNAM,DR NO.13-2-32;MUSZID STREET. ANAKAPALLI.VISAKHAPATNAM 531001,DR NO.13-2-32;MUSZID STREET. ANAKAPALLI.VISAKHAPATNAM 531001,Vivo Y12 Red 3GB|64GB X 1 - ,none,none,9-6-2020,8919882260,8919882260, Vivo
186472002fj60b,2020001381,BOLLISETTY PRABHAKAR,bollisettyprabhakar@gmail.com,10990,Waiting for approval,waiting for update,ANAKAPALLI.VISAKHAPATNAM,DR NO.13-2-32;MUSZID STREET. ANAKAPALLI.VISAKHAPATNAM 531001,DR NO.13-2-32;MUSZID STREET. ANAKAPALLI.VISAKHAPATNAM 531001,Vivo Y12 Red 3GB|64GB X 1 - ,none,none,9-6-2020,8919882260,8919882260, Vivo
186472005ce61b,2020001382,BOLLISETTY PRABHAKAR,bollisettyprabhakar@gmail.com,10990,Waiting for approval,waiting for update,ANAKAPALLI.VISAKHAPATNAM,DR NO.13-2-32;MUSZID STREET. ANAKAPALLI.VISAKHAPATNAM 531001,DR NO.13-2-32;MUSZID STREET. ANAKAPALLI.VISAKHAPATNAM 531001,Vivo Y12 Red 3GB|64GB X 1 - ,none,none,9-6-2020,8919882260,8919882260, Vivo
186472003fn61b,2020001383,BOLLISETTY PRABHAKAR,bollisettyprabhakar@gmail.com,10990,Waiting for approval,waiting for update,ANAKAPALLI.VISAKHAPATNAM,DR NO.13-2-32;MUSZID STREET. ANAKAPALLI.VISAKHAPATNAM 531001,DR NO.13-2-32;MUSZID STREET. ANAKAPALLI.VISAKHAPATNAM 531001,Vivo Y12 Red 3GB|64GB X 1 - ,none,none,9-6-2020,8919882260,8919882260, Vivo
186472006ce60b,2020001384,BOLLISETTY PRABHAKAR,bollisettyprabhakar@gmail.com,10990,Waiting for approval,waiting for update,ANAKAPALLI.VISAKHAPATNAM,DR NO.13-2-32;MUSZID STREET. ANAKAPALLI.VISAKHAPATNAM 531001,DR NO.13-2-32;MUSZID STREET. ANAKAPALLI.VISAKHAPATNAM 531001,Vivo Y12 Red 3GB|64GB X 1 - ,none,none,9-6-2020,8919882260,8919882260, Vivo
186472003wc61b,2020001385,BOLLISETTY PRABHAKAR,bollisettyprabhakar@gmail.com,10990,Waiting for approval,waiting for update,ANAKAPALLI.VISAKHAPATNAM,DR NO.13-2-32;MUSZID STREET. ANAKAPALLI.VISAKHAPATNAM 531001,DR NO.13-2-32;MUSZID STREET. ANAKAPALLI.VISAKHAPATNAM 531001,Vivo Y12 Red 3GB|64GB X 1 - ,none,none,9-6-2020,8919882260,8919882260, Vivo
186493001fi61b,2020001386,KARUNAKAR KESAVA,jfm@happimobiles.com,15999,Waiting for approval,waiting for update,N/A,Ayyappa Socity Hyderabad 500081,N/A N/A N/A,Samsung Galaxy A30s Black 4GB|64GB X 1 - ,none,pickup,9-6-2020,9112190666,9112190666, Samsung
186520001jl61b,2020001387,Paul Joseph,josephsinka@gmail.com,7499,Hold,no stock,N/A,Nh-5 Road Visakhapatnam 530026,N/A N/A N/A,Redmi 8A Red 3GB/32GB X 1 - ,cod,pickup,9-6-2020,8885183338,8885183338, Xiaomi
186520001wx61b,2020001388,Paul Joseph,josephsinka@gmail.com,7499,Waiting for approval,waiting for update,N/A,Nh-5 Road Visakhapatnam 530026,N/A N/A N/A,Redmi 8A Red 3GB/32GB X 1 - ,none,pickup,9-6-2020,8885183338,8885183338, Xiaomi
186577001pc61b,2020001389,Sai Sahith,sahithsai0825@gmail.com,8999,Cancel,waiting for update,Vidyanagar,Kothapalem road Vidyanagar 524413,Kothapalem road Vidyanagar 524413,Samsung Galaxy Red M01 3GB | 32GB X 1 - ,cod,none,9-6-2020,8500755920,8500755920, Samsung
186597001ri61b,2020001390,Fatima Syeda,syedafatima3.sf@gmail.com,73600,Waiting for approval,waiting for update,Hyderabad,22-3-886  #301 Mohammed Residency Hyderabad 500024,22-3-886  #301 Mohammed Residency Hyderabad 500024,iPhone 11 Green 128GB X 1 - ,cod,none,9-6-2020,7674844633,7674844633, Apple
186617001ya61b,2020001391,Sinka Joseph Paul,josephsinka@gmail.com,16999,Waiting for approval,waiting for update,N/A,Sriharipuram Visakhapatnam 530011,N/A N/A N/A,Redmi Note 8 Pro – 6GB|128GB X 1 - ,none,pickup,9-6-2020,9059045254,9059045254, Xiaomi
186622001uo61b,2020001392,Sai Sahith,sahithsai0825@gmail.com,8990,Hold,cod issue,Vidyanagar,Kothapalem road Vidyanagar 524413,Kothapalem road Vidyanagar 524413,Samsung Galaxy A10s Black 2GB|32GB X 1 - ,cod,none,9-6-2020,8500755920,8500755920, Samsung
186698001ua61b,2020001393,UMA A,kprasannakumar99@gmail.com,7990,Waiting for approval,waiting for update,N/A,Kailashnagar  gajuwaka Visakhapatnam 530026,N/A N/A N/A,Vivo Y91i Black 2GB|32GB X 1 - ,cod,pickup,9-6-2020,8790661050,8790661050, Vivo
186698001uu61b,2020001394,UMA A,kprasannakumar99@gmail.com,7990,Waiting for approval,waiting for update,N/A,Kailashnagar  gajuwaka Visakhapatnam 530026,N/A N/A N/A,Vivo Y91i Black 2GB|32GB X 1 - ,cod,pickup,9-6-2020,8790661050,8790661050, Vivo
186731001gn61b,2020001395,Naik Suresh,kk2981780@gmail.com,58300,Waiting for approval,waiting for update,N/A,Srinivas colony Mahabubnagar 509001,N/A N/A N/A,iPhone SE 2020 Red 256GB X 1 - ,none,pickup,9-6-2020,8008568730,8008568730, Apple
186735001kk61b,2020001396,Pradhan Pranaya Kumar,pranaya2007@gmail.com,16999,Waiting for approval,waiting for update,Bargarh,College Road Padampur Bargarh 768036,College Road Padampur Bargarh 768036,Realme X White 4GB|128GB X 1 - ,none,none,9-6-2020,9178103664,9178103664, Realme
186773001ua61b,2020001397,Kokala Keerthi,keerthikokala@gmail.com,25250,Waiting for approval,waiting for update,N/A,Ram nagar Anantapur 515005,N/A N/A N/A,Samsung Galaxy A51 Blue 6GB|128GB X 1 - ,none,pickup,9-6-2020,9246148968,9246148968, Samsung
186819001xm61b,2020001398,Kasthuri Mukesh,mukeshkasthuri999@gmail.com,49999,Waiting for approval,waiting for update,N/A,Thorrur postoffice Thorrur 506163,N/A N/A N/A,OnePlus 8 Glacial Green 12GB|256GB X 1 - ,none,pickup,9-6-2020,9440060929,9440060929, Oneplus
186864001li61b,2020001399,Hgh Ghgh,lokesh.t125@gmail.com,73600,Canceled,waiting for update,N/A,Old town Anantapur 515001,N/A N/A N/A,iPhone 11 Green 128GB X 1 - ,none,pickup,9-6-2020,8919146846,8919146846, Apple
186874001ds61b,2020001400,Majid Shaikh,chargersforce@gmail.com,16999,Waiting for approval,waiting for update,Hydrabad,18-11-254 barkas Hydrabad Chandrayaan guttha bandagudda,18-11-254 barkas chandrayaan guttha Hydrabad 500005,Redmi Note 8 Pro – 6GB|128GB X 1 - ,none,none,9-6-2020,7207860008,7207860008, Xiaomi
186888001bm61b,2020001401,Beesanna Perapogu,perapogubheesanna510@gmail.com,10990,Waiting for approval,waiting for update,N/A,sc colony jogulamba gadwal narayanapuram,N/A N/A N/A,Vivo Y12 Red 3GB|64GB X 1 - ,none,pickup,9-6-2020,8106621410,8106621410, Vivo
186889001pe61b,2020001402,Beesanna Perapogu,perapogubheesanna510@gmail.com,10990,Waiting for approval,waiting for update,N/A,sc colony jogulamba gadwal narayanapuram,N/A N/A N/A,Vivo Y12 Red 3GB|64GB X 1 - ,none,pickup,9-6-2020,8106621410,8106621410, Vivo
186894001je61b,2020001403,Beesanna Perapogu,perapogubheesanna510@gmail.com,10990,Waiting for approval,waiting for update,N/A,sc colony jogulamba gadwal narayanapuram,N/A N/A N/A,Vivo Y12 Red 3GB|64GB X 1 - ,none,pickup,9-6-2020,8106621410,8106621410, Vivo
186894002je60b,2020001404,Beesanna Perapogu,perapogubheesanna510@gmail.com,10990,Waiting for approval,waiting for update,N/A,sc colony jogulamba gadwal narayanapuram,N/A N/A N/A,Vivo Y12 Red 3GB|64GB X 1 - ,none,pickup,9-6-2020,8106621410,8106621410, Vivo
186903001ht61b,2020001405,Ahmed Mohammed Riaz,emareace@gmail.com,47800,Hold,no stock,Hyderabad,Behind Olive Hospital Telengana 500008,Behind Olive hospital Hyderabad 500008,iPhone SE 2020 Red 128GB X 1 - ,cod,none,9-6-2020,8686677120,8686677120, Apple
186912001sr61b,2020001406,Fakruddin Shaik,shaikfakruddin3857@gmail.com,31990,Waiting for approval,waiting for update,Nandyal,SBI COLONY Nandyal 518501,SBI COLONY Nandyal 518501,Oppo Reno 3 Pro Black 8GB|128GB X 1 - ,none,none,9-6-2020,9573301856,9573301856, Oppo
186919001ti61b,2020001407,K Kiran,kommurik99@gmail.com,10990,Waiting for approval,waiting for update,N/A,Tilak street Kakinada 533001,N/A N/A N/A,Vivo Y12 Red 3GB|64GB X 1 - ,cod,pickup,9-6-2020,9059867789,9059867789, Vivo
186923001ne61b,2020001408,K Kiran,kommurik99@gmail.com,9990,Waiting for approval,waiting for update,N/A,Tilak street Kakinada 533001,N/A N/A N/A,Vivo Y11 Red 3GB|32GB - 2019 X 1 - ,cod,pickup,9-6-2020,9059867789,9059867789, Vivo
187082001ay61b,2020001409,Dasari Rajavardhan,dasari.rajavardhan1627@gmail.com,68300,Waiting for approval,waiting for update,N/A,Pai electrons  2 rd floor Collabarate solution Hyderabad Ramantapur,N/A N/A N/A,iPhone 11 Purple 64GB X 1 - ,none,pickup,9-6-2020,7207501627,7207501627, Apple