Orderid,OrderNo,Name,Email,CityName,BillingAddress,DeliveryAddress,Products,Paymentstatus,Ordertype,Date,DeliveryPhoneNum,PhoneNum,Brand
151290001dn61b,2020002456,S Dakshyani,dakshyani.s@gmail.com,Khammam,H. No 10-3-197 Mamilagudem khammam Khammam 507001,Mamilagudem Khammam 507001,[Blue] Realme C3 - 4GB|64GB X 10 - ,2hrs,none,16-5-2020,7287997393,7287997393, Realme
151320001kg61b,2020002457,Reddy Siva,siva.reddy338@gmail.com,Guntur,Kondavari street  namburu Guntur 522508,Kondavari street Guntur 522508,[Blue] Realme C3 - 4GB|64GB X 1 - ,2hrs,none,16-5-2020,9908218418,9908218418, Realme
151320001jh61b,2020002458,Reddy Siva,siva.reddy338@gmail.com,Guntur,Kondavari street  namburu Guntur 522508,Kondavari street Guntur 522508,[Blue] Realme C3 - 4GB|64GB X 1 - ,2hrs,none,16-5-2020,9908218418,9908218418, Realme
151366001ln61b,2020002460,N Sourab,sourab081@gmail.com,N/A,87-1356/21 Saraswati nagar near Nandyal check post Kurnool S18002,N/A N/A N/A,Nokia 6.2 Black 4GB|64GB X 1 - ,cod,pickup,16-5-2020,9494009923,9494009923, Nokia
151413001xw61b,2020002461,Adusumilli Krishna Chowdary,sonuadusumilli@gmail.com,Guntur,A-3 Harsha elite appartment 3rd floor kunchanapalli road Tadepalli mandal. Guntur 522501,14999 Guntur 522501,[Grey] REDMI A3 - 6GB|128GB X 1 - ,2hrs,none,16-5-2020,9640058686,9640058686, Xiaomi
151456001to61b,2020002462,Vali Baji,bajibangaram001@gmail.com,N/A,Foundary street DURGAPURAM 520001,N/A N/A N/A,[Red] Realme C3 - 4GB|64GB X 1 - ,cod,pickup,16-5-2020,8374714451,8374714451, Realme
151493001jh61b,2020002465,Ganesh Sai,ganeshgany44@gmail.com,Vijayawada,Koti Nagar Vijayawada 520013,Koti Nagar Vijayawada 520013,[Green] Redmi Note 8 Pro – 6GB|128GB X 1 - ,2hrs,none,16-5-2020,9100234826,9100234826, Xiaomi
151538001py61b,2020002466,Gadupudi Karthik,karthikgadupudi@gmail.com,Hyderabad,Plot no 144  Sri sai nilayam  vokshith enclave. Hyderabad 500055,Plot no 144  Sri sai nilayam  vokshith enclave. balaji layout  gajularamaram Hyderabad 500055,Samsung Galaxy A50s Black 4GB|128GB X 1 - ,cod,none,16-5-2020,9704567050,9704567050, Samsung
151555001yl61b,2020002467,Kotagiri Sathish,sathish.akhil007@gmail.com,Hyderabad,Mohan nagar kothapet Hyderabad 500074,Mohan nagar kothapet Hyderabad 500074,[Blue] Realme C2 - 3GB|32GB X 2 - ,2hrs,none,16-5-2020,6302567479,6302567479, Realme
151566001cb61b,2020002468,Gonapu Ramakrishna,venueee9@gmail.com,Hyderabad,H.no 7-14/7 Ferozguda Hyderabad 500011,H.no 7-14/7 Ferozguda Hyderabad 500011,[Blue] Realme X2 - 6GB|128GB X 1 - ,2hrs,none,16-5-2020,9494202609,9494202609, Realme
151573001tl61b,2020002469,Kumar Ripendra,durgamripendra@gmail.com,hyderabad,Srinivasa Nagar Hno 1-2-48/1/9  first floor  Nandiswa Nilayam  hyderabad 500090,Srinivasa Nagar Hno 1-2-48/1/9  first floor  Nandiswa Nilayam   Opposite to Sangamitra High School Srinivas Reddy House Line  Hyderabad  Telangana - 500090 hyderabad 500090,Samsung Galaxy A20s Black 4GB|64GB X 1 - ,paid #589581,none,16-5-2020,9642610210,9642610210, Samsung
151583001wp61b,2020002470,Kumar Satish,satish.raj.858@gmail.com,Visakhapatnam,4-16-10/01 talarivanipalem   aganampudi  visakhapatnam Visakhapatnam 530046,4-16-10/01 talarivanipalem   aganampudi  visakhapatnam Visakhapatnam 530046,[Silver] OnePlus 7T – 8GB|128GB X 1 - ,2hrs,none,16-5-2020,8106504678,8106504678, Oneplus
151623002pi60b,2020002471,Kusumbha Shivaji,sharath.mote@gmail.com,Warangal,Sthambampalli Warangal 506004,Sthambampalli Warangal 506004,[Comet White] Realme 6 - 6GB|128GB X 1 - ,cod,none,16-5-2020,9381076575,9381076575, Realme
151624001xj61b,2020002472,Saggu Jyothi,saggu.aasreethaa@gmail.com,hyderabad,hno : 12 -14-278  vinobhanagar street no 8 near vinobhanagar community hall lalapet secunderabad. hyderabad 500017,hno : 12 -14-278  vinobhanagar street no 8 near vinobhanagar community hall lalapet secunderabad. hyderabad 500017,[Lightning Blue] Realme 6 Pro - 6GB|128GB X 1 - ,2hrs,none,16-5-2020,8885732031,8885732031, Realme
151627001jo61b,2020002473,PARVATHAM BALABHARGAV,balabhargav.p@gmail.com,GUNTUR,7-6-252  FLAT NO 401  SRI VATSA NILAYAM  VASANTHARIPURAM 1ST LANE  GUNTUR-2 GUNTUR 522002,7-6-252  FLAT NO 401  SRI VATSA NILAYAM  VASANTHARIPURAM 1ST LANE  GUNTUR-2 GUNTUR 522002,Xiaomi MI Tv 4X - 55 Inch X 1 - ,2hrs,none,16-5-2020,8801227672,8801227672, Xiaomi
151637001sa61b,2020002474,Gandepalli Nageswara Rao,g.n.rao9441@gmail.com,Visakhapatnam,Krishna bazar Visakhapatnam Dr no 50-1,Krishna bazar Visakhapatnam Dr no 50-1,[Lightning Orange] Realme 6 Pro - 6GB|128GB X 1 - ,cod,none,16-5-2020,9441265162,9441265162, Realme
151650001dd61b,2020002475,Jakka Vamsi Krishna,jakkavamsikrishna@gmail.com,GUNTUR,D.NO:39-12-1338 3RD LANE NEHRU NAGAR GUNTUR 522001,D.NO:39-12-1338 3RD LANE NEHRU NAGAR GUNTUR 522001,[Black] Redmi Note 8 Pro – 6GB|64GB X 1 - ,2hrs,none,16-5-2020,8074728630,8074728630, Xiaomi
151657001by61b,2020002476,Gadagoni Saiganesh,saiganeshgadagoni900@gmail.com,N/A,House no 7-54 near main road  Thadkapally Siddipet 502114,N/A N/A N/A,[Blue] Redmi Y3 - 4GB/64GB X 1 - ,cod,pickup,16-5-2020,9550645483,9550645483, Xiaomi
151664001at61b,2020002477,Vasu Vasu,luckyvasu831@gmail.com,Vijayawada,Payakapuram radha nagar Vijayawada Krishna,Payakapuram radha nagar Vijayawada Krishna,Sony MDR-XB450AP On-Ear EXTRA BASS Headphones X 1 - ,2hrs,none,16-5-2020,9705037720,9705037720,
151665001dy61b,2020002478,Gadagoni Saiganesh,saiganeshgadagoni900@gmail.com,N/A,House no 7-54 near main road  Thadkapally Siddipet 502114,N/A N/A N/A,[Blue] Redmi Y3 - 4GB/64GB X 1 - ,cod,pickup,16-5-2020,9550645483,9550645483, Xiaomi
151682001cn61b,2020002479,Sahu Samvram,samvram.iist@gmail.com,Hyderabad,Flat 401  Saba Apartments  Road No 2 Sukhender reddy colony  near Sri Mahalakshmi Enclave  Janachaitanya Colony Hyderabad 500030,Flat 401  Saba Apartments  Road no 2  Sukhender Reddy Colony  Janachaitanya Colony Hyderabad 500030,Xiaomi Mi Tv 4A Pro - 43 Inch X 1 - ,paid #589869,none,16-5-2020,9497300461,9497300461, Xiaomi
151690001yr61b,2020002482,MESHRAM CHHANNA,chhannameshram75@gmail.com,NEW DELHI,FLAT NO C-4  2ND FLOOR  LUCKY APT  P.NO 705-C/9A  WARD NO 3  MEHERAULI   NEW DELHI-110030 NEW DELHI 110030,FLAT NO C-4  2ND FLOOR  LUCKY APT  P.NO 705-C/9A  WARD NO 3  MEHERAULI   NEW DELHI-110030 NEW DELHI 110030,[Blue] Realme C3 - 4GB|64GB X 1 - ,none,none,16-5-2020,9958247317,9958247317, Realme
151693001cg61b,2020002483,Reddy Rajasekar,rajshekhar72076@gmail.com,KURNOOL,H. No 614-019  RAMANA RESIDENCY  BR REDDY COLONY  KALLUR ESTATE  KURNOOL KURNOOL 518003,H. No 614-019  RAMANA RESIDENCY  BR REDDY COLONY  KALLUR ESTATE  KURNOOL KURNOOL 518003,[black] 10000mAH MI POWER BANK X 1 - ,cod,none,16-5-2020,7207608209,7207608209, Xiaomi
151696001nx61b,2020002484,Tirupathirao Chitteneni,bhavanachowdary248@gmail.com,Ongole,Ramnagar 4th line Ongole 523001,Ramnagar 4th line Ongole 523001,[Blue] Realme C3 - 4GB|64GB X 1 - ,cod,none,16-5-2020,7672080465,7672080465, Realme
151700001wx61b,2020002487,Nagmalla Prabanjan,prabha88143@gmail.com,HYDERABAD,12-11-755  flat 402  4th floor  shree bajrang arcade  kausar masjid road  warasiguda HYDERABAD 500061,12-11-755  flat 402  4th floor  shree bajrang arcade  kausar masjid road  warasiguda HYDERABAD 500061,[Blue] Realme C3 - 4GB|64GB X 2 - ,cod,none,16-5-2020,9908838406,7013054623, Realme
151709001li61b,2020002488,DHARAMA RAO T,dharmatamminana552@gmail.com,VISAKHAPATNAM,PM PALEM LAST BUSSTOP VISAKHAPATNAM 530041,PM PALEM LAST BUSSTOP VISAKHAPATNAM 530041,[Blue] Realme C3 - 4GB|64GB X 1 - ,paid #589988,none,16-5-2020,8466858814,8466858814, Realme
151710001xl61b,2020002489,Palle Harish,harish.palle163@gmail.com,N/A,Ppl Huzurabad 505498,N/A N/A N/A,Realme 5i Green 4GB|64GB X 1 - ,none,pickup,16-5-2020,9700051153,9700051153, Realme
151711001ut61b,2020002490,AVINASH PRINCE,avinash02016@gmail.com,naidupeta,near airtel office naidupeta naidupeta 524126,a.p.s.r.t.c bustand  near airtel office naidupeta 520001,[OnyxBlack] OnePlus 8 Pro - 12GB|256GB X 1 - ,cod,none,16-5-2020,7330648770,7330648770, Oneplus
151717001cx61b,2020002492,Gonapu Ramakrishna,venueee9@gmail.com,hyderabad,H.no7-14/7 hyderabad 500011,H.no7-14/7 hyderabad 500011,[Lightning Blue] Realme 6 Pro - 6GB|128GB X 1 - ,none,none,16-5-2020,9494202609,9494202609, Realme
151723001mu61b,2020002493,Motani Tarun Varma,tarunvarmamotani666@gmail.com,N/A,Panchalavaram TENALI 522325,N/A N/A N/A,[Sea Blue] Redmi 8A Dual – 3GB|32GB X 1 - ,cod,pickup,16-5-2020,9550910537,9550910537, Xiaomi
151724001kr61b,2020002494,BUDIDHI JEEVAN REDDY,jeevanreddy240@gmail.com,BN REDDY NAGAR HYDERABAD,PLOT NO 09 ROAD NO 06 SRINIVASAPURAM COLONY  GURRAMGUA 501510,PLOT NO-17 CHAITANYA NAGAR NEAR BD REDDY GARDENS BN REDDY NAGAR HYDERABAD 500070,Nokia 3.1 Plus Black 3GB|32GB X 1 - ,none,none,16-5-2020,9963801157,9963801157, Nokia
151735001la61b,2020002495,Ravikanti Raju,nagaru.ravikanti689@gmail.com,Hyderabad,Vansthali hills Hyderabad 500074,Vansthali hills Hyderabad 500074,[Blue] Realme C3 - 4GB|64GB X 1 - ,none,none,16-5-2020,9000980540,9000980540, Realme
151736001gn61b,2020002496,N Madhuri,kumar.madhuri@gmail.com,hyderabad,f-block flat 508 satyanarayana enclave behind LIC of india hyderabad 500049,f-block flat 508 satyanarayana enclave behind LIC of india hyderabad 500049,[Blue] Realme C3 - 4GB|64GB X 2 - ,cod,none,16-5-2020,9000221492,9000221492, Realme
151737001ax61b,2020002497,Ravikani Raju,raju.ravikanti436@gmail.com,Hyderabad,Vansthalihills Hyderabad 500074,Vansthalihills Hyderabad 500074,[Blue] Realme C3 - 4GB|64GB X 1 - ,cod,none,16-5-2020,9000980540,9000980540, Realme
151741002km60b,2020002499,Racharla Priyanka,priyankarajulife@gmail.com,Hyderabad,Vanasthali hills Hyderabad 500074,Vanasthali hills Hyderabad 500074,[Blue] Realme C3 - 4GB|64GB X 1 - ,none,none,16-5-2020,6301828098,6301828098, Realme
151744001os61b,2020002500,Basha Shaik Khadar Basha,sk.khadarbasha1976@gmail.com,N/A,Jojinagar Vijayawada 520012,N/A N/A N/A,[Twilight Grey] Xiaomi Mi 10 5G  8GB RAM|128GB ROM (Twilight Grey) - PRE BOOK X 1 - ,cod,pickup,16-5-2020,8885645373,8885645373, Xiaomi
151757001sl61b,2020002501,GIRI ASIT,asitri2013@gmail.com,HYDERABAD,EAGLE CHOWK  BOLLARAM HYDERABAD 500087,EAGLE CHOWK  BOLLARAM HYDERABAD 500087,[Green] iPhone 11 - 128GB X 1 - ,none,none,16-5-2020,6005093219,6005093219, Apple
151783001eu61b,2020002502,S Ram Reddy,ramreddy2005@gmail.com,"Boduppal, Hyderabad","10-94  Mallaiahnagar colony  Street no.3 Boduppal, Hyderabad 500092","10-94  Mallaiahnagar colony  Street no.3 Boduppal, Hyderabad 500092",[GreenInter] OnePlus 8 - 8GB|128GB X 1 - ,cod,none,16-5-2020,9848256100,9848256100, Oneplus
151788001jm61b,2020002503,Janake Subbarao,directorvsr@gmail.com,Hyderabad,Yadagiri Nagar   near hanumanthrao function hall Hyderabad 500045,Yadagiri Nagar   near hanumanthrao function hall Hyderabad 500045,Realme 5i Green 4GB|64GB X 1 - ,paid #590224,none,16-5-2020,9550851414,9550851414, Realme
151789001cb61b,2020002504,S Satheeshkumar,sathishkumarsairi@gmail.com,Hyderabad,4-6-137/e/49plotno49 allwincolony Kukatpally Hyderabad 500072,4-6-137/e/49plotno49 allwincolony Kukatpally Hyderabad 500072,[BlueOnyx] OnePlus 8 Pro - 12GB|256GB X 1 - ,cod,none,16-5-2020,9063881133,9063881133, Oneplus
151795001wo61b,2020002505,Sundar Syam,syamchinna9492@gmail.com,N/A,tadepalligudem tadepalligudem 534102,N/A N/A N/A,[GreenInter] OnePlus 8 Pro - 12GB|256GB X 1 - ,cod,pickup,16-5-2020,9492200866,9492200866, Oneplus
151797001kw61b,2020002506,Ravulkar Sairam,sairam.ravulkar89@gmail.com,Karimmagar,Maruthi nagar Karimmagar 505001,Maruthi nagar Karimmagar 505001,[Red] Realme C3 - 4GB|64GB X 1 - ,none,none,16-5-2020,8309401492,8309401492, Realme
151806001xp61b,2020002508,Grandhi Raj Kumar,grandhiraja@yahoo.co.in,Hyderabad,3-4-756/1  Flat No.102  Sai Raghavendra Residency  Barkatpura  Hyderabad Hyderabad 500027,3-4-756/1  Flat No.102  Sai Raghavendra Residency  Barkatpura  Hyderabad Hyderabad 500027,Realme 5i Green 4GB|64GB X 1 - ,cod,none,16-5-2020,9885684260,9885684260, Realme
151807001po61b,2020002509,Soni Manish,varmam780@gmail.com,Hyderabad,1-5-611 road no 6 new marutinagar kothapet Hyderabad Hyderabad 500060,1-5-611 road no 6 new marutinagar kothapet Hyderabad Hyderabad 500060,Realme 5i Green 4GB|64GB X 1 - ,cod,none,16-5-2020,9247773366,9247773366, Realme
151808001on61b,2020002510,Swetha Bangaru,bangaruswetha225@gmail.com,Ananthapur,satyadev street Ananthapur 515001,K L D road near SBI Bank 6-149-6 satyadev nagar ananthapur Ananthapur 515001,[Blue] Realme C3 - 4GB|64GB X 1 - ,none,none,16-5-2020,8247089132,8247089132, Realme
151810002bj60b,2020002511,Soni Manish,varmam780@gmail.com,Hyderabad,1-5-611 road no 6 new marutinagar kothapet Hyderabad Hyderabad 500060,1-5-611 road no 6 new marutinagar kothapet Hyderabad Hyderabad 500060,[Blue] Redmi Y3 - 4GB/64GB X 1 - ,cod,none,16-5-2020,9247773366,9247773366, Xiaomi
151812001gy61b,2020002512,Anil Korra,anilkorra97@gmail.com,N/A,Nanuthanda village Kusumanchi mandal Khammam 507159,N/A N/A N/A,Realme 5i Green 4GB|64GB X 1 - ,cod,pickup,16-5-2020,9705553131,9705553131, Realme
151821001bk61b,2020002513,Anil Anil,anilanil10435@gmail.com,N/A,Malkapur Nizamabad 503206,N/A N/A N/A,Realme 5i Aqua Blue 4GB|64GB X 1 - ,cod,pickup,16-5-2020,9391402503,9391402503, Realme
151822001ls61b,2020002514,SRINIVASA RAO KARUTURI,srinivasarao.karuturi@mylan.in,Hyderabad,Pl. No: 145  H.No: 01-072/145  Rd. No: 02  Vokshith Enclave  Gajularamaram  Hyderabad 500055,Pl. No: 145  H.No: 01-072/145  Rd. No: 02  Vokshith Enclave  Gajularamaram  Hyderabad 500055,[Blue] Realme C3 - 4GB|64GB X 1 - ,paid #590300,none,16-5-2020,7337348191,7337348191, Realme
151823001om61b,2020002515,Telukuntla Santhosh,santhoshteluluntla22@gmail.com,Hyderabad,Mega function hallKharmhanghat Hyderabad 500074,Mega function hallKharmhanghat Hyderabad 500074,Realme 5i Green 4GB|64GB X 1 - ,cod,none,16-5-2020,9652223272,9652223272, Realme
151827001wa61b,2020002516,Jav Sindhu,sindhujav3@gmail.com,Hyderabad,Kalyan motors kharmanghat Hyderabad 500079,Kalyan motors kharmanghat Hyderabad 500079,Realme 5i Aqua Blue 4GB|64GB X 1 - ,cod,none,16-5-2020,9398182141,9398182141, Realme
151828001ua61b,2020002517,Anil Korra,anilkorra97@gmail.com,N/A,Nanuthanda village  Kusumanchi mandal Khammam 507159,N/A N/A N/A,Realme 5i Aqua Blue 4GB|64GB X 1 - ,cod,pickup,16-5-2020,9705553131,9705553131, Realme
151847001su61b,2020002518,Kumar Akshay,almpallyakshay@gmail.com,Hyderabad,"Wipro Hyderabad 203, 115/1, ISB Rd, Financial District, Nanakramguda, Hyderabad, Telangana 500032 650.0 m",203  115/1  ISB Rd  Financial District  Nanakramguda  Hyderabad  Telangana 500032 650.0 m Hyderabad 500032,[Blue] Realme XT - 8GB|128GB X 1 - ,cod,none,16-5-2020,9701182691,7989659437, Realme
151864001hb61b,2020002519,Akash Gautam,bnirmala715@gmail.com,Visakhapatnam,Allipuram  main road Visakhapatnam Main road,Allipuram main road Visakhapatnam Allipuram,[Blue] Realme C3 - 4GB|64GB X 1 - ,none,none,16-5-2020,7794947412,7794947412, Realme
151872001wo61b,2020002521,Sachin Mydam,sachinmydam035@gmail.com,Ratnapur,1-89 adivarampet Ramagiri/peddapalli 505212,1-89 adivarampet Ratnapur 505212,[Twilight Grey] Xiaomi Mi 10 5G  8GB RAM|128GB ROM (Twilight Grey) - PRE BOOK X 1 - ,none,none,16-5-2020,7995672533,7995672533, Xiaomi
151872002yx60b,2020002522,Ravulkar Sairam,sairam.ravulkar89@gmail.com,Karimnagar,5-6-449/2 Maruthi nagar Karimnagar 505001,5-6-449/2 Maruthi nagar Karimnagar 505001,[Red] Realme C3 - 4GB|64GB X 1 - ,cod,none,16-5-2020,8309401492,8309401492, Realme
151887001hc61b,2020002523,Reddy Chandrasekhar,bc9493345@gmail.com,Tech Jr college,Gvp colony Tech Jr college 515411,Gvp colony Tech Jr college 515411,[Blue] Realme C3 - 4GB|64GB X 4 - ,cod,none,16-5-2020,9493345987,9493345987, Realme
151887001dx61b,2020002524,Reddy Chandrasekhar,bc9493345@gmail.com,Tech Jr college,Gvp colony Tech Jr college 515411,Gvp colony Tech Jr college 515411,[Blue] Realme C3 - 4GB|64GB X 4 - ,cod,none,16-5-2020,9493345987,9493345987, Realme
151887001fc61b,2020002525,Sree Sadhana,sadhanasree786om@gmail.com,Rajahmundry,State bank of india Rajahmundry 533106,Lalacheruvu state bank Rajahmundry 533106,Realme 6 Blue 4GB|64GB X 1 - ,cod,none,16-5-2020,6304457153,6304457153, Realme
151891001lk61b,2020002526,Reddy Chandrasekhar,bc9493345@gmail.com,TADIPATRI,Gvp colony Tech Jr college 515411,Gvp colony TADIPATRI 515411,Realme 5i Aqua Blue 4GB|64GB X 4 - ,cod,none,16-5-2020,9493345987,9493345987, Realme
151892001ni61b,2020002527,Jav Sindhu,sindhu.jav3@gmail.com,Hyderabad,Kalyan Motors kharmanghat Hyderabad 500079,Kalyan Motors kharmanghat Hyderabad 500079,Realme 5i Aqua Blue 4GB|64GB X 1 - ,cod,none,16-5-2020,9949086727,9949086727, Realme
151901001th61b,2020002528,SONAWANE RAJENDRA,pooja_ek_aastha@gmail.com,HYDERABAD,House No. B2-7   NEAR WATER TANK HYDERABAD 500050,HUDA Colony  Chandanagar HYDERABAD 500050,[Blue] REDMI A3 - 6GB|128GB X 1 - ,cod,none,16-5-2020,7093603313,7093603313, Xiaomi
151902001wa61b,2020002529,Sree Sadhana,sadhanasree786om@gmail.com,N/A,Lalacheruvu Rajahmundry 533106,N/A N/A N/A,Realme 6 Blue 4GB|64GB X 1 - ,cod,pickup,16-5-2020,6304457153,6304457153, Realme
151902001of61b,2020002530,Chalisgaonkar Ramya,ramya.h@gmail.com,Hyderabad,Rajapushpa Atria  Flat I-1305  Golden Mile Road  Kokapet Hyderabad 500075,Rajapushpa Atria  Flat I-1305  Golden Mile Road  Kokapet Hyderabad 500075,[White] Vivo S1 Pro - 8GB|128GB X 1 - ,paid #590535,none,16-5-2020,9550056821,9550056821, Vivo
151905001cm61b,2020002531,KIRAN VYAS MUKESH,chinnasunny736@gmail.com,ANANTAPUR,1-1329-A-1 ADCC BANK COLONY RAMNAGAR ANANTAPUR 515001,1-1329-A-1 ADCC BANK COLONY RAMNAGAR ANANTAPUR 515001,[Grey] OnePlus 7 - 8GB|256GB X 1 - ,cod,none,16-5-2020,9164032532,9164032532, Oneplus
151925001rc61b,2020002532,Soni Sumit,sumithsoni1234@gmail.com,Hyderabad,1-5-611/a new Maruthi nagar road no 5 kothapet Hyderabad 5000036,1-5-/611/ a new Maruthinagar road no 5 Hyderabad 5000036,[Blue] Realme C3 - 4GB|64GB X 2 - ,cod,none,16-5-2020,9032583310,9032583310, Realme
151928001xc61b,2020002533,Bharadwaj Ashwin,ashwin.bharadwaj125@gmail.com,Hyderabad,2-4-29  Road no 8   Snehapuri colony   nagole  RK Puram Hyderabad 500035,2-4-29  Road no 8   Snehapuri colony   nagole  RK Puram Hyderabad 500035,[White] Realme X2 Pro - 8GB|128GB X 1 - ,cod,none,16-5-2020,7337466367,7337466367, Realme
151932001ll61b,2020002534,MARPALLY PRAVEEN KUMAR,marpallypraveen@gmail.com,SANGAREDDY,H.NO.4-7-8-24/p/7 PRAGATHI NAGAR  ODF COLONY SANGAREDDY 502001,H.NO.4-7-8-24/p/7 PRAGATHI NAGAR  ODF COLONY SANGAREDDY 502001,Realme 6 Blue 4GB|64GB X 1 - ,cod,none,16-5-2020,8009213035,8009213035, Realme
151937001rm61b,2020002535,Rahman Saqlain,saqlainrahman732@gmail.com,N/A,Netaji chowk Adilabad 504001,N/A N/A N/A,[White] iPhone 11 - 128GB X 1 - ,cod,pickup,16-5-2020,9515163527,9515163527, Apple
151937001ua61b,2020002536,Rahman Saqlain,saqlainrahman732@gmail.com,N/A,Netaji chowk Adilabad 504001,N/A N/A N/A,[White] iPhone 11 - 128GB X 1 - ,cod,pickup,16-5-2020,9515163527,9515163527, Apple
151944001nx61b,2020002537,Sinha Swati,swati.sinha7886@gmail.com,Hyderabad,B207  Whistling Woods  lane before ICICI Bank  Kokapet Hyderabad 500075,B207  Whistling Woods  lane before ICICI Bank  Kokapet Hyderabad 500075,[White] iPhone XR – 64GB X 1 - ,cod,none,16-5-2020,9885234719,9885234719, Apple