Orderid,OrderNo,Name,Email,price,status,internalNote,CityName,BillingAddress,DeliveryAddress,Products,Paymentstatus,Ordertype,Date,DeliveryPhoneNum,PhoneNum,Brand
135565001uw61b,2020001511,Reddy Shiva,arjulashivasaireddy@gmail.com,18999,waiting for approval,waiting for update,warangal,#2-10-726  teacher's colony phase 1  subedari  hanamkonda warangal 506316,#2-10-726  teacher's colony phase 1  subedari  hanamkonda warangal 506316,[Lightning Orange] Realme 6 Pro - 6GB|128GB X 1 - ,cod,none,5-5-2020,7013650949,7013650949, Realme
135739001ws61b,2020001513,Harijana Manjunatha,manjun111222@gmail.com,17999,waiting for approval,waiting for update,N/A,Kambadur mandal  Cherlopalli Anantapur 515765,N/A N/A N/A,[Lightning Blue] Realme 6 Pro - 6GB|64GB X 1 - ,none,pickup,5-5-2020,9014867195,9014867195, Realme
135738001je61b,2020001512,Harijana Manjunatha,manjun111222@gmail.com,17999,waiting for approval,waiting for update,N/A,Kambadur mandal  Cherlopalli Anantapur 515765,N/A N/A N/A,[Lightning Blue] Realme 6 Pro - 6GB|64GB X 1 - ,cod,pickup,5-5-2020,9014867195,9014867195, Realme
135763001yf61b,2020001514,Syed Shameema,sultanasyed479@gmail.com,19999,waiting for approval,waiting for update,Guntur,vuravari street Guntur 522003,vuravari street Guntur 522003,[Green] Realme X2 - 6GB|128GB X 1 - ,2hrs,none,5-5-2020,9394166162,9394166162, Realme
135764001ui61b,2020001515,Syed Shameema,sultanasyed479@gmail.com,19999,waiting for approval,waiting for update,Guntur,vuravari street Guntur 522003,vuravari street Guntur 522003,[Green] Realme X2 - 6GB|128GB X 1 - ,2hrs,none,5-5-2020,9394166162,9394166162, Realme
135764001rw61b,2020001516,Syed Shameema,sultanasyed479@gmail.com,19999,waiting for approval,waiting for update,Guntur,vuravari street Guntur 522003,vuravari street Guntur 522003,[Green] Realme X2 - 6GB|128GB X 1 - ,2hrs,none,5-5-2020,9394166162,9394166162, Realme
135764002ui60b,2020001517,Syed Shameema,sultanasyed479@gmail.com,19999,waiting for approval,waiting for update,Guntur,vuravari street Guntur 522003,vuravari street Guntur 522003,[Green] Realme X2 - 6GB|128GB X 1 - ,2hrs,none,5-5-2020,9394166162,9394166162, Realme
135764002fl60b,2020001517,Syed Shameema,sultanasyed479@gmail.com,19999,waiting for approval,waiting for update,Guntur,vuravari street Guntur 522003,vuravari street Guntur 522003,[Green] Realme X2 - 6GB|128GB X 1 - ,2hrs,none,5-5-2020,9394166162,9394166162, Realme
135764002dp60b,2020001518,Syed Shameema,sultanasyed479@gmail.com,19999,waiting for approval,waiting for update,Guntur,vuravari street Guntur 522003,vuravari street Guntur 522003,[Green] Realme X2 - 6GB|128GB X 1 - ,2hrs,none,5-5-2020,9394166162,9394166162, Realme
135764003dp61b,2020001519,Syed Shameema,sultanasyed479@gmail.com,19999,waiting for approval,waiting for update,Guntur,vuravari street Guntur 522003,vuravari street Guntur 522003,[Green] Realme X2 - 6GB|128GB X 1 - ,2hrs,none,5-5-2020,9394166162,9394166162, Realme
135764001fy61b,2020001518,Syed Shameema,sultanasyed479@gmail.com,19999,waiting for approval,waiting for update,Guntur,vuravari street Guntur 522003,vuravari street Guntur 522003,[Green] Realme X2 - 6GB|128GB X 1 - ,2hrs,none,5-5-2020,9394166162,9394166162, Realme
135764002rw60b,2020001520,Syed Shameema,sultanasyed479@gmail.com,19999,waiting for approval,waiting for update,Guntur,vuravari street Guntur 522003,vuravari street Guntur 522003,[Green] Realme X2 - 6GB|128GB X 1 - ,2hrs,none,5-5-2020,9394166162,9394166162, Realme
135768001sg61b,2020001521,Syed Shameema,sultanasyed479@gmail.com,19999,waiting for approval,waiting for update,Guntur,Vuravari street Guntur 522003,Vuravari street Guntur 522003,[Green] Realme X2 - 6GB|128GB X 1 - ,2hrs,none,5-5-2020,9394166162,9394166162, Realme
135768001cm61b,2020001522,Syed Shameema,sultanasyed479@gmail.com,19999,waiting for approval,waiting for update,Guntur,Vuravari street Guntur 522003,Vuravari street Guntur 522003,[Green] Realme X2 - 6GB|128GB X 1 - ,2hrs,none,5-5-2020,9394166162,9394166162, Realme
135771001bm61b,2020001523,Syed Shameema,sultanasyed479@gmail.com,19999,waiting for approval,waiting for update,Guntur,Vuravari street Guntur 522003,Vuravari street Guntur 522003,[Green] Realme X2 - 6GB|128GB X 1 - ,2hrs,none,5-5-2020,9394166162,9394166162, Realme
135771001uu61b,2020001524,Syed Shameema,sultanasyed479@gmail.com,19999,waiting for approval,waiting for update,Guntur,Vuravari street Guntur 522003,Vuravari street Guntur 522003,[Green] Realme X2 - 6GB|128GB X 1 - ,2hrs,none,5-5-2020,9394166162,9394166162, Realme
135771001ur61b,2020001525,Syed Shameema,sultanasyed479@gmail.com,19999,waiting for approval,waiting for update,Guntur,Vuravari street Guntur 522003,Vuravari street Guntur 522003,[Green] Realme X2 - 6GB|128GB X 1 - ,2hrs,none,5-5-2020,9394166162,9394166162, Realme
135771002bm60b,2020001526,Syed Shameema,sultanasyed479@gmail.com,19999,waiting for approval,waiting for update,Guntur,Vuravari street Guntur 522003,Vuravari street Guntur 522003,[Green] Realme X2 - 6GB|128GB X 1 - ,2hrs,none,5-5-2020,9394166162,9394166162, Realme
135771002uu60b,2020001527,Syed Shameema,sultanasyed479@gmail.com,19999,waiting for approval,waiting for update,Guntur,Vuravari street Guntur 522003,Vuravari street Guntur 522003,[Green] Realme X2 - 6GB|128GB X 1 - ,2hrs,none,5-5-2020,9394166162,9394166162, Realme
135771001ga61b,2020001528,Syed Shameema,sultanasyed479@gmail.com,19999,waiting for approval,waiting for update,Guntur,Vuravari street Guntur 522003,Vuravari street Guntur 522003,[Green] Realme X2 - 6GB|128GB X 1 - ,2hrs,none,5-5-2020,9394166162,9394166162, Realme
135771002ur60b,2020001529,Syed Shameema,sultanasyed479@gmail.com,19999,waiting for approval,waiting for update,Guntur,Vuravari street Guntur 522003,Vuravari street Guntur 522003,[Green] Realme X2 - 6GB|128GB X 1 - ,2hrs,none,5-5-2020,9394166162,9394166162, Realme
135771002ga60b,2020001530,Syed Shameema,sultanasyed479@gmail.com,19999,waiting for approval,waiting for update,Guntur,Vuravari street Guntur 522003,Vuravari street Guntur 522003,[Green] Realme X2 - 6GB|128GB X 1 - ,2hrs,none,5-5-2020,9394166162,9394166162, Realme
135771001po61b,2020001531,Syed Shameema,sultanasyed479@gmail.com,19999,waiting for approval,waiting for update,Guntur,Vuravari street Guntur 522003,Vuravari street Guntur 522003,[Green] Realme X2 - 6GB|128GB X 1 - ,2hrs,none,5-5-2020,9394166162,9394166162, Realme
135771003bm61b,2020001532,Syed Shameema,sultanasyed479@gmail.com,19999,waiting for approval,waiting for update,Guntur,Vuravari street Guntur 522003,Vuravari street Guntur 522003,[Green] Realme X2 - 6GB|128GB X 1 - ,2hrs,none,5-5-2020,9394166162,9394166162, Realme
135771003ga61b,2020001533,Syed Shameema,sultanasyed479@gmail.com,19999,waiting for approval,waiting for update,Guntur,Vuravari street Guntur 522003,Vuravari street Guntur 522003,[Green] Realme X2 - 6GB|128GB X 1 - ,2hrs,none,5-5-2020,9394166162,9394166162, Realme
135771003uu61b,2020001534,Syed Shameema,sultanasyed479@gmail.com,19999,waiting for approval,waiting for update,Guntur,Vuravari street Guntur 522003,Vuravari street Guntur 522003,[Green] Realme X2 - 6GB|128GB X 1 - ,2hrs,none,5-5-2020,9394166162,9394166162, Realme
135771004uu60b,2020001535,Syed Shameema,sultanasyed479@gmail.com,19999,waiting for approval,waiting for update,Guntur,Vuravari street Guntur 522003,Vuravari street Guntur 522003,[Green] Realme X2 - 6GB|128GB X 1 - ,2hrs,none,5-5-2020,9394166162,9394166162, Realme
135771005uu61b,2020001536,Syed Shameema,sultanasyed479@gmail.com,19999,waiting for approval,waiting for update,Guntur,Vuravari street Guntur 522003,Vuravari street Guntur 522003,[Green] Realme X2 - 6GB|128GB X 1 - ,2hrs,none,5-5-2020,9394166162,9394166162, Realme
135771003ur61b,2020001537,Syed Shameema,sultanasyed479@gmail.com,19999,waiting for approval,waiting for update,Guntur,Vuravari street Guntur 522003,Vuravari street Guntur 522003,[Green] Realme X2 - 6GB|128GB X 1 - ,2hrs,none,5-5-2020,9394166162,9394166162, Realme
135771004ur60b,2020001538,Syed Shameema,sultanasyed479@gmail.com,19999,waiting for approval,waiting for update,Guntur,Vuravari street Guntur 522003,Vuravari street Guntur 522003,[Green] Realme X2 - 6GB|128GB X 1 - ,2hrs,none,5-5-2020,9394166162,9394166162, Realme
135771004bm60b,2020001539,Syed Shameema,sultanasyed479@gmail.com,19999,waiting for approval,waiting for update,Guntur,Vuravari street Guntur 522003,Vuravari street Guntur 522003,[Green] Realme X2 - 6GB|128GB X 1 - ,2hrs,none,5-5-2020,9394166162,9394166162, Realme
135771002po60b,2020001540,Syed Shameema,sultanasyed479@gmail.com,19999,waiting for approval,waiting for update,Guntur,Vuravari street Guntur 522003,Vuravari street Guntur 522003,[Green] Realme X2 - 6GB|128GB X 1 - ,2hrs,none,5-5-2020,9394166162,9394166162, Realme
135772001uw61b,2020001541,Syed Shameema,sultanasyed479@gmail.com,19999,waiting for approval,waiting for update,Guntur,Vuravari street Guntur 522003,Vuravari street Guntur 522003,[Green] Realme X2 - 6GB|128GB X 1 - ,none,none,5-5-2020,9394166162,9394166162, Realme
135772001ku61b,2020001542,Syed Shameema,sultanasyed479@gmail.com,19999,waiting for approval,waiting for update,Guntur,Vuravari street Guntur 522003,Vuravari street Guntur 522003,[Green] Realme X2 - 6GB|128GB X 1 - ,none,none,5-5-2020,9394166162,9394166162, Realme
135774001ap61b,2020001543,Syed Shameema,sultanasyed479@gmail.com,19999,waiting for approval,waiting for update,N/A,Vuravari street Guntur 522003,N/A N/A N/A,[Green] Realme X2 - 6GB|128GB X 1 - ,none,pickup,5-5-2020,9394166162,9394166162, Realme
135780001oc61b,2020001544,Syed Shameema,sultanasyed479@gmail.com,19999,waiting for approval,waiting for update,Guntur,Vuravari street Guntur 522003,Vuravari street Guntur 522003,[Green] Realme X2 - 6GB|128GB X 1 - ,none,none,5-5-2020,9394166162,9394166162, Realme
136135001le61b,2020001546,Reddy Chandu,sreechecha@gmail.com,77900,Cancel,waiting for update,Blr,1183 Blr 560011,1183 Blr 560011,[Cosmic Black] Samsung Galaxy S20 Plus - 8GB128GB X 1 - ,2hrs,none,5-5-2020,9900403111,9900403111, Xiaomi Samsung
135781001wj61b,2020001545,Syed Shameema,sultanasyed479@gmail.com,19999,Cancel,waiting for update,Guntur,Vuravari street Guntur 522003,Vuravari street Guntur 522003,[Green] Realme X2 - 6GB|128GB X 1 - ,2hrs,none,5-5-2020,9394166162,9394166162, Realme
136359001ay61b,2020001548,Kancharla Rajashekar,pandu9000879171@gmail.com,12990,waiting for approval,waiting for update,Velugodu,Chinnadevulapuram Velugodu 518533,Chinnadevulapuram Velugodu 518533,[Red] Vivo Y15 - 4GB|64GB X 1 - ,2hrs,none,5-5-2020,9000879171,9000879171, Vivo
136455001nr61b,2020001549,Thanubuddi Kavitha,kavithac94@gmail.com,16999,waiting for approval,waiting for update,Hyderabad,Flat no:509 Prasanka apartments Kphb 6th phase Hyderabad 500072,Flat no:509 Prasanka apartments Kphb 6th phase Hyderabad 500072,[Green] Redmi Note 8 Pro – 6GB|128GB X 1 - ,2hrs,none,5-5-2020,9963762572,9963762572, Xiaomi
136474001ys61b,2020001550,Akhil Munagala,akhilmunagala1@gmail.com,12399,waiting for approval,waiting for update,N/A,Amaravathi road Guntur 522002,N/A N/A N/A,Moto G6 - 4 GB RAM | 64 GB ROM X 1 - ,none,pickup,5-5-2020,8143046626,8143046626,
137104001xt61b,2020001557,Reddy Sivaprasadreddy,sivaprasadreddy148@gmail.com,38997,waiting for approval,waiting for update,kurnool,Sri sai vybhav Nagar board kurnool 518002,Sri sai vybhav Nagar board kurnool 518002,[Grey] Mi A3 - 4GB/64GB X 3 - ,2hrs,none,6-5-2020,9705368144,9705368144, Xiaomi
136352001rd61b,2020001547,Tejaswi Udayagiri,tejaswi1228@gmail.com,34999,waiting for approval,waiting for update,Visakhapatnam,Godavari Residency T-1 Subbalaksmi Nagar 43-11-16/17  Pincode-530016  Visakahapatnam  AndhraPradesh. Visakhapatnam 530016,Godavari Residency T-1 Subbalaksmi Nagar 43-11-16/17  Pincode-530016  Visakahapatnam  AndhraPradesh. Visakhapatnam 530016,[Blue] OnePlus 7T – 8GB|128GB X 1 - ,cod,none,5-5-2020,9493496953,9493496953, Oneplus
137119001en61b,2020001559,Thakur Abhijit,tech4youindia1@gmail.com,299,waiting for approval,waiting for update,jaipur,behind govt hospital jaipur 302007,behind govt hospital jaipur 302007,Sandisk 16GB Class 10(A1) MicroSD X 1 - ,none,none,6-5-2020,8005514798,8005514798, Xiaomi
137119001oe61b,2020001560,Thakur Abhijit,tech4youindia1@gmail.com,299,waiting for approval,waiting for update,jaipur,behind govt hospital jaipur 302007,behind govt hospital jaipur 302007,Sandisk 16GB Class 10(A1) MicroSD X 1 - ,none,none,6-5-2020,8005514798,8005514798, Xiaomi
137119001se61b,2020001562,Thakur Abhijit,tech4youindia1@gmail.com,299,waiting for approval,waiting for update,jaipur,behind govt hospital jaipur 302007,behind govt hospital jaipur 302007,Sandisk 16GB Class 10(A1) MicroSD X 1 - ,none,none,6-5-2020,8005514798,8005514798, Xiaomi
137119002oe60b,2020001563,Thakur Abhijit,tech4youindia1@gmail.com,299,waiting for approval,waiting for update,jaipur,behind govt hospital jaipur 302007,behind govt hospital jaipur 302007,Sandisk 16GB Class 10(A1) MicroSD X 1 - ,none,none,6-5-2020,8005514798,8005514798, Xiaomi
137120001hf61b,2020001564,Thakur Abhijit,tech4youindia1@gmail.com,299,waiting for approval,waiting for update,jaipur,behind govt hospital jaipur 302007,behind govt hospital jaipur 302007,Sandisk 16GB Class 10(A1) MicroSD X 1 - ,none,none,6-5-2020,8005514798,8005514798, Xiaomi
137119002en60b,2020001565,Thakur Abhijit,tech4youindia1@gmail.com,299,waiting for approval,waiting for update,jaipur,behind govt hospital jaipur 302007,behind govt hospital jaipur 302007,Sandisk 16GB Class 10(A1) MicroSD X 1 - ,none,none,6-5-2020,8005514798,8005514798, Xiaomi
137119002se60b,2020001566,Thakur Abhijit,tech4youindia1@gmail.com,299,waiting for approval,waiting for update,jaipur,behind govt hospital jaipur 302007,behind govt hospital jaipur 302007,Sandisk 16GB Class 10(A1) MicroSD X 1 - ,none,none,6-5-2020,8005514798,8005514798, Xiaomi
137120002hf60b,2020001567,Thakur Abhijit,tech4youindia1@gmail.com,299,waiting for approval,waiting for update,jaipur,behind govt hospital jaipur 302007,behind govt hospital jaipur 302007,Sandisk 16GB Class 10(A1) MicroSD X 1 - ,none,none,6-5-2020,8005514798,8005514798, Xiaomi
137119002uj60b,2020001568,Thakur Abhijit,tech4youindia1@gmail.com,299,waiting for approval,waiting for update,jaipur,behind govt hospital jaipur 302007,behind govt hospital jaipur 302007,Sandisk 16GB Class 10(A1) MicroSD X 1 - ,none,none,6-5-2020,8005514798,8005514798, Xiaomi
137119001ue61b,2020001569,Thakur Abhijit,tech4youindia1@gmail.com,299,waiting for approval,waiting for update,jaipur,behind govt hospital jaipur 302007,behind govt hospital jaipur 302007,Sandisk 16GB Class 10(A1) MicroSD X 1 - ,none,none,6-5-2020,8005514798,8005514798, Xiaomi
137119003en61b,2020001570,Thakur Abhijit,tech4youindia1@gmail.com,299,waiting for approval,waiting for update,jaipur,behind govt hospital jaipur 302007,behind govt hospital jaipur 302007,Sandisk 16GB Class 10(A1) MicroSD X 1 - ,none,none,6-5-2020,8005514798,8005514798, Xiaomi
137119003uj61b,2020001571,Thakur Abhijit,tech4youindia1@gmail.com,299,waiting for approval,waiting for update,jaipur,behind govt hospital jaipur 302007,behind govt hospital jaipur 302007,Sandisk 16GB Class 10(A1) MicroSD X 1 - ,none,none,6-5-2020,8005514798,8005514798, Xiaomi
137120001ym61b,2020001572,Thakur Abhijit,tech4youindia1@gmail.com,299,waiting for approval,waiting for update,jaipur,behind govt hospital jaipur 302007,behind govt hospital jaipur 302007,Sandisk 16GB Class 10(A1) MicroSD X 1 - ,none,none,6-5-2020,8005514798,8005514798, Xiaomi
137126001yh61b,2020001573,Singh Laxman,tech4youindia1@gmail.com,799,waiting for approval,waiting for update,jaipur,behind gobt jaipur 302007,behind gobt jaipur 302007,ZEAL PLUS 5000MAH CONEKT POWER BANK X 1 - ,none,none,6-5-2020,8005514798,8005514798,
137156001cn61b,2020001575,Rapelly Koushik,koushikrao28@gmail.com,15999,Finished,waiting for update,Godavarikhani,6-1-30/8b  Srinagar colony Godavarikhani 505209,6-1-30/8b  Srinagar colony Godavarikhani 505209,[Comet Blue] Realme 6 - 6GB|128GB X 1 - ,2hrs,none,6-5-2020,9182304038,9182304038, Realme
137168001ip61b,2020001576,Gfgfhggg Cgngjnfghn,jambamam@gmail.com,16999,waiting for approval,waiting for update,N/A,hfhfhf fhfhfh hhhhh,N/A N/A N/A,[Comet Blue] Realme 6 - 8GB|128GB X 1 - ,none,pickup,6-5-2020,9502515233,9502515233, Realme
137168001ft61b,2020001577,Gfgfhggg Cgngjnfghn,jambamam@gmail.com,16999,waiting for approval,waiting for update,N/A,hfhfhf fhfhfh hhhhh,N/A N/A N/A,[Comet Blue] Realme 6 - 8GB|128GB X 1 - ,none,pickup,6-5-2020,9502515233,9502515233, Realme
137168001hd61b,2020001578,Gfgfhggg Cgngjnfghn,jambamam@gmail.com,16999,waiting for approval,waiting for update,N/A,hfhfhf fhfhfh hhhhh,N/A N/A N/A,[Comet Blue] Realme 6 - 8GB|128GB X 1 - ,none,pickup,6-5-2020,9502515233,9502515233, Realme
137168001yw61b,2020001579,Gfgfhggg Cgngjnfghn,jambamam@gmail.com,16999,waiting for approval,waiting for update,N/A,hfhfhf fhfhfh hhhhh,N/A N/A N/A,[Comet Blue] Realme 6 - 8GB|128GB X 1 - ,none,pickup,6-5-2020,9502515233,9502515233, Realme
137168002ip60b,2020001580,Gfgfhggg Cgngjnfghn,jambamam@gmail.com,16999,waiting for approval,waiting for update,N/A,hfhfhf fhfhfh hhhhh,N/A N/A N/A,[Comet Blue] Realme 6 - 8GB|128GB X 1 - ,none,pickup,6-5-2020,9502515233,9502515233, Realme
137269001on61b,2020001582,Shaw Rahul,xpykerxnoob@gmail.com,21999,Cancel,waiting for update,Kolkata,aayakar abasan type 1 2 3 Kolkata 700107,aayakar abasan type 1 2 3 Kolkata 700107,[Blue] Redmi K20 – 6GB/64GB X 1 - ,2hrs,none,6-5-2020,9348825173,9348825173, Xiaomi
137303001hy61b,2020001583,SHAW RAHUL,jarvisnoob@gmail.com,15990,waiting for approval,waiting for update,kOLKATA,MUKUNDAPUR DASPARA AUTOSTAND kOLKATA 700152,MUKUNDAPUR DASPARA AUTOSTAND kOLKATA 700152,[White] Oppo A5 2020 - 6GB|128GB X 1 - ,2hrs,none,6-5-2020,9348825173,9348825173, Oppo
137303001or61b,2020001584,SHAW RAHUL,jarvisnoob@gmail.com,15990,waiting for approval,waiting for update,kOLKATA,MUKUNDAPUR DASPARA AUTOSTAND kOLKATA 700152,MUKUNDAPUR DASPARA AUTOSTAND kOLKATA 700152,[White] Oppo A5 2020 - 6GB|128GB X 1 - ,2hrs,none,6-5-2020,9348825173,9348825173, Oppo
137303002or60b,2020001585,SHAW RAHUL,jarvisnoob@gmail.com,15990,waiting for approval,waiting for update,kOLKATA,MUKUNDAPUR DASPARA AUTOSTAND kOLKATA 700152,MUKUNDAPUR DASPARA AUTOSTAND kOLKATA 700152,[White] Oppo A5 2020 - 6GB|128GB X 1 - ,none,none,6-5-2020,9348825173,9348825173, Oppo
137303002hy60b,2020001586,SHAW RAHUL,jarvisnoob@gmail.com,15990,waiting for approval,waiting for update,kOLKATA,MUKUNDAPUR DASPARA AUTOSTAND kOLKATA 700152,MUKUNDAPUR DASPARA AUTOSTAND kOLKATA 700152,[White] Oppo A5 2020 - 6GB|128GB X 1 - ,none,none,6-5-2020,9348825173,9348825173, Oppo
137303001sm61b,2020001587,SHAW RAHUL,jarvisnoob@gmail.com,15990,waiting for approval,waiting for update,kOLKATA,MUKUNDAPUR DASPARA AUTOSTAND kOLKATA 700152,MUKUNDAPUR DASPARA AUTOSTAND kOLKATA 700152,[White] Oppo A5 2020 - 6GB|128GB X 1 - ,none,none,6-5-2020,9348825173,9348825173, Oppo
137303001bc61b,2020001588,SHAW RAHUL,jarvisnoob@gmail.com,15990,waiting for approval,waiting for update,kOLKATA,MUKUNDAPUR DASPARA AUTOSTAND kOLKATA 700152,MUKUNDAPUR DASPARA AUTOSTAND kOLKATA 700152,[White] Oppo A5 2020 - 6GB|128GB X 1 - ,none,none,6-5-2020,9348825173,9348825173, Oppo
137305001pa61b,2020001589,SHAW RAHUL,jarvisnoob@gmail.com,15990,waiting for approval,waiting for update,kOLKATA,MUKUNDAPUR DASPARA kOLKATA 700152,MUKUNDAPUR DASPARA kOLKATA 700152,[White] Oppo A5 2020 - 6GB|128GB X 1 - ,none,none,6-5-2020,9348825173,9348825173, Oppo
137305002pa60b,2020001591,SHAW RAHUL,jarvisnoob@gmail.com,15990,waiting for approval,waiting for update,kOLKATA,MUKUNDAPUR DASPARA kOLKATA 700152,MUKUNDAPUR DASPARA kOLKATA 700152,[White] Oppo A5 2020 - 6GB|128GB X 1 - ,none,none,6-5-2020,9348825173,9348825173, Oppo
137305001xw61b,2020001593,SHAW RAHUL,jarvisnoob@gmail.com,15990,waiting for approval,waiting for update,kOLKATA,MUKUNDAPUR DASPARA kOLKATA 700152,MUKUNDAPUR DASPARA kOLKATA 700152,[White] Oppo A5 2020 - 6GB|128GB X 1 - ,none,none,6-5-2020,9348825173,9348825173, Oppo
137305001as61b,2020001592,SHAW RAHUL,jarvisnoob@gmail.com,15990,waiting for approval,waiting for update,kOLKATA,MUKUNDAPUR DASPARA kOLKATA 700152,MUKUNDAPUR DASPARA kOLKATA 700152,[White] Oppo A5 2020 - 6GB|128GB X 1 - ,none,none,6-5-2020,9348825173,9348825173, Oppo
137305001nj61b,2020001594,SHAW RAHUL,jarvisnoob@gmail.com,15990,waiting for approval,waiting for update,kOLKATA,MUKUNDAPUR DASPARA kOLKATA 700152,MUKUNDAPUR DASPARA kOLKATA 700152,[White] Oppo A5 2020 - 6GB|128GB X 1 - ,none,none,6-5-2020,9348825173,9348825173, Oppo
137305003pa61b,2020001595,SHAW RAHUL,jarvisnoob@gmail.com,15990,waiting for approval,waiting for update,kOLKATA,MUKUNDAPUR DASPARA kOLKATA 700152,MUKUNDAPUR DASPARA kOLKATA 700152,[White] Oppo A5 2020 - 6GB|128GB X 1 - ,none,none,6-5-2020,9348825173,9348825173, Oppo
137305004pa60b,2020001596,SHAW RAHUL,jarvisnoob@gmail.com,15990,waiting for approval,waiting for update,kOLKATA,MUKUNDAPUR DASPARA kOLKATA 700152,MUKUNDAPUR DASPARA kOLKATA 700152,[White] Oppo A5 2020 - 6GB|128GB X 1 - ,none,none,6-5-2020,9348825173,9348825173, Oppo
137305005pa61b,2020001597,SHAW RAHUL,jarvisnoob@gmail.com,15990,waiting for approval,waiting for update,kOLKATA,MUKUNDAPUR DASPARA kOLKATA 700152,MUKUNDAPUR DASPARA kOLKATA 700152,[White] Oppo A5 2020 - 6GB|128GB X 1 - ,none,none,6-5-2020,9348825173,9348825173, Oppo
137305002xw60b,2020001598,SHAW RAHUL,jarvisnoob@gmail.com,15990,waiting for approval,waiting for update,kOLKATA,MUKUNDAPUR DASPARA kOLKATA 700152,MUKUNDAPUR DASPARA kOLKATA 700152,[White] Oppo A5 2020 - 6GB|128GB X 1 - ,none,none,6-5-2020,9348825173,9348825173, Oppo
137305003xw61b,2020001599,SHAW RAHUL,jarvisnoob@gmail.com,15990,waiting for approval,waiting for update,kOLKATA,MUKUNDAPUR DASPARA kOLKATA 700152,MUKUNDAPUR DASPARA kOLKATA 700152,[White] Oppo A5 2020 - 6GB|128GB X 1 - ,none,none,6-5-2020,9348825173,9348825173, Oppo
137305004xw60b,2020001600,SHAW RAHUL,jarvisnoob@gmail.com,15990,waiting for approval,waiting for update,kOLKATA,MUKUNDAPUR DASPARA kOLKATA 700152,MUKUNDAPUR DASPARA kOLKATA 700152,[White] Oppo A5 2020 - 6GB|128GB X 1 - ,none,none,6-5-2020,9348825173,9348825173, Oppo
137315001dm61b,2020001601,B Ravi,ravi.44846@gmail.com,6999,waiting for approval,waiting for update,Hyderabad,1-3-144  Near Janatha High school Kawadiguda Gandhinagar Hyderabad 500080,1-3-144  Near Janatha High school Kawadiguda Gandhinagar Hyderabad 500080,[Blue] Redmi 8A – 2GB/32GB X 1 - ,2hrs,none,6-5-2020,8978555399,8978555399, Xiaomi
137402001kk61b,2020001604,DURGA PRASAD TOLUM,durgaprasadtolum143@gmail.com,8999,waiting for approval,waiting for update,N/A,Lalacheruvu center Rajahmundry 533101,N/A N/A N/A,[Blue] Redmi Y3 - 4GB/64GB X 1 - ,none,pickup,6-5-2020,8367082394,8367082394, Xiaomi
137402002kk60b,2020001605,DURGA PRASAD TOLUM,durgaprasadtolum143@gmail.com,8999,waiting for approval,waiting for update,N/A,Lalacheruvu center Rajahmundry 533101,N/A N/A N/A,[Blue] Redmi Y3 - 4GB/64GB X 1 - ,cod,pickup,6-5-2020,8367082394,8367082394, Xiaomi
137366001op61b,2020001602,Cherukuri Jhansilakshmi,ramakrishna.cherukuri@gmail.com,12999,Cancel,waiting for update,Vijayawada,New RTC colony Vijayawada 520007,New RTC colony Vijayawada 520007,[Grey] Mi A3 - 4GB/64GB X 1 - ,2hrs,none,6-5-2020,9848389352,9848389353, Xiaomi
137515001xr61b,2020001608,Goud Raman,raman.kick5408@gmail.com,20999,waiting for approval,waiting for update,N/A,Arandalpet Street Vijayawada 520002,N/A N/A N/A,[Blue] Realme X2 - 8GB|128GB X 1 - ,cod,pickup,6-5-2020,9700575556,9700575556, Realme
137525001gs61b,2020001609,Badithala Anudeep,anudeepbadithala@gmail.com,68300,waiting for approval,waiting for update,KANDUKUR,C/o Pushpanjali beauty parlour   Indian bank upstairs KANDUKUR 523105,C/o Pushpanjali beauty parlour  KANDUKUR 523105,[White] iPhone 11 - 64GB X 1 - ,2hrs,none,6-5-2020,8885884492,8885884492, Apple
137586001uh61b,2020001610,Banigallapati Nag Sai,nagasai.indian@gmail.com,12999,waiting for approval,waiting for update,N/A,Ravinagar  vepagunta visakhapatnam Visakhapatnam 530047,N/A N/A N/A,[Blue] Redmi Note 7 Pro – 6GB/64GB X 1 - ,cod,pickup,6-5-2020,9493249303,9493249303, Xiaomi
137705001ir61b,2020001613,K Benarji,benarjikumar24@gmail.com,17999,waiting for approval,waiting for update,Kovvur,Ghjgafs Kovvur 534350,Ghjgafs Kovvur 534350,[Lightning Blue] Realme 6 Pro - 6GB|64GB X 1 - ,none,none,6-5-2020,9886677888,9886677888, Realme
137396001md61b,2020001603,Prasad Hari,kumbahariprasad@gmail.com,37999,Cancel,waiting for update,Hyderabad,Flat:204 Plot:29&30 Golden Homes Apartment Prasanthi Golden Hills Pragathi Nagar Kukatpally Hyderabad 500090,Flat:204 Plot:29&30 Golden Homes Apartment Prasanthi Golden Hills Pragathi Nagar Kukatpally Hyderabad 500090,[Blue] OnePlus 7T – 8GB|256GB X 1 - ,none,none,6-5-2020,9966656601,9966656601, Oneplus
137106001st61b,2020001558,Reddy Sivaprasadreddy,sivaprasadreddy148@gmail.com,12999,Cancel,waiting for update,kurnool,Sri sai vybhav Nagar board kurnool 518002,Sri sai vybhav Nagar board kurnool 518002,[Blue] Mi A3 - 4GB/64GB X 1 - ,2hrs,none,6-5-2020,9705368144,9705368144, Xiaomi
137676001ou61b,2020001611,Cherukuri Ramakrishna Prasad,ramakrishna.cherukuri@gmail.com,12999,waiting for approval,waiting for update,Vijayawada,Flat No G001  Prajapati Elite II  Mayuri Nagar Hyderabad 500049,New RTC Colony  Vijayawada 520007,[Grey] Mi A3 - 4GB/64GB X 1 - ,2hrs,none,6-5-2020,9100738760,9848389352, Xiaomi
137776001uw61b,2020001615,Samuel Navaneeth,navaneethsamuel98@gmail.com,68300,Sent,waiting for update,N/A,Shapur Nagar Hyderabad 500055,N/A N/A N/A,[Green] iPhone 11 - 64GB X 1 - ,none,pickup,6-5-2020,8096022942,8096022942, Apple
137786001ao61b,2020001616,Pavan SRAVAN,pavan.sravn@gmail.com,29999,Sent,waiting for update,N/A,kanuru vijayawada 520007,N/A N/A N/A,[Grey] OnePlus 7 – 6GB|128GB X 1 - ,none,pickup,6-5-2020,9959960488,9959960488, Oneplus
137510001cr61b,2020001607,Police Constable Ramangoud,raman.kick5408@gmail.com,20999,Sent,waiting for update,N/A,Mahatma Gandhi Street Vijayawada 521225,N/A N/A N/A,[Blue] Realme X2 - 8GB|128GB X 1 - ,cod,pickup,6-5-2020,9700575556,9700575556, Realme
137994001rm61b,2020001620,Das Govind,govindpillai@yahoo.com,20999,Sent,waiting for update,Hyderabad,No 708  Tulips Block  RDB Coconut Grove  High Tension Road Hyderabad 500049,No 708  Tulips Block  RDB Coconut Grove  High Tension Road Hyderabad 500049,[White] Realme X2 - 8GB|128GB X 1 - ,2hrs,none,6-5-2020,9791085455,9791085455, Realme
138146001ku61b,2020001624,Sai Imran,saivenkata2000@gmail.com,18999,Sent,waiting for update,Krishna,Lotus land mark Krishna 520003,Lotus land mark Krishna 520003,[Blue] Redmi Note 8 Pro – 8GB|128GB X 1 - ,2hrs,none,6-5-2020,8919281328,8919281328, Xiaomi
137937001gp61b,2020001619,Mallipudi Purushotham,purushothammallipudi41@gmail.com,37999,Sent,waiting for update,Rajahmundry,Flat no e2 hi rise nirvana apartments koka baskaramma nagar j n road rajahmundry Rajahmundry 533103,Flat no e2 hi rise nirvana apartments koka baskaramma nagar j n road rajahmundry Rajahmundry 533103,[Blue] OnePlus 7T – 8GB|256GB X 1 - ,2hrs,none,6-5-2020,8309089035,8309089035, Oneplus
138273001xj61b,2020001630,Devada Karthik,karthikdevada51656@gmail.com,6999,Sent,waiting for update,Vijayawada,2-32/1’ Pagdala street ramavarappadu Vijayawada Vijayawada 521108,Ramavarappadu Vijayawada 521108,[Blue] Redmi 8A – 2GB/32GB X 1 - ,2hrs,none,6-5-2020,6301734037,6301734037, Xiaomi
138351001wl61b,2020001631,M HARINATH,harimanu14198@gmail.com,19999,Sent,waiting for update,N/A,SAINAGAR Anantapur 515001,N/A N/A N/A,[White] Realme XT - 8GB|128GB X 1 - ,cod,pickup,7-5-2020,6281632722,6281632722, Realme
138572002td60b,2020001641,Sonti Gopi,gopi143ntr@gmail.com,12999,Sent,waiting for update,Tenali,Gouda palem Tenali 522213,Gouda bazaar Tenali 522213,[Blue] Mi A3 - 4GB/64GB X 1 - ,2hrs,none,7-5-2020,8686315152,8686315152, Xiaomi
138455001dg61b,2020001637,Chandavolu Santosh,chandavolusaimounika@gmail.com,13999,Sent,waiting for update,Ramachandrapuram,Bradipeta Ramachandrapuram 533255,Bradipeta Ramachandrapuram 533255,[Comet Blue] Realme 6 - 4GB|64GB X 1 - ,2hrs,none,7-5-2020,8790061566,8790061566, Realme
138373001gm61b,2020001632,P Chandrayadu,harimanu14198@gmail.com,19999,Sent,waiting for update,N/A,SAINAGAR Anantapur 515001,N/A N/A N/A,[Blue] Realme XT - 8GB|128GB X 1 - ,none,pickup,7-5-2020,9542505956,9542505956, Realme
137911001mu61b,2020001617,Kasireddy Pavan,pavanvijay.1998@gmail.com,25250,Sent,waiting for update,Kesavaram,Velampeta Kesavaram 534186,Velameta Kesavaram 534186,[Silver] Samsung Galaxy A51 - 6GB|128GB X 1 - ,2hrs,none,6-5-2020,7286972338,7286972338, Samsung
137728001ag61b,2020001614,Bhuvanasi Venkatesh,venkatesh.bhuvanasi@etpgroup.com,13999,Sent,waiting for update,hyderabad,venkat sai colony hyderabad 500048,venkat sai colony  upparpally hyderabad 500048,[Comet Blue] Realme 6 - 4GB|64GB X 1 - ,2hrs,none,6-5-2020,8074353207,8074353207, Realme
138659001ak61b,2020001643,Teja Shanmukha,shanmukhateja80@gmail.com,29990,Sent,waiting for update,Visakhapatnam,Nakkavanipalam Visakhapatnam 530013,Nakkavanipalam Visakhapatnam 530013,[GlacierIce] Vivo V17 Pro – 8GB|128GB X 1 - ,2hrs,none,7-5-2020,9866242446,9866242446, Vivo
138753001to61b,2020001644,Irshad Durrani,durrani33@yahoo.com,14999,Sent,waiting for update,HYDERABAD,102 1-8-505/55/1/A HYDERABAD 500016,102 1-8-505/55/1/A HYDERABAD 500016,[Voilet] Samsung Galaxy A30s – 4GB|64GB X 1 - ,cod,none,7-5-2020,8686325426,8686325426, Samsung
138909001kf61b,2020001645,Saichand Chanda,chandasaichand1999@gmail.com,29999,Sent,waiting for update,Hyderabad,22-101 Kanukunta Ashoknagar Hyderabad 502032,22-101 Kanukunta Ashoknagar Hyderabad 502032,[Grey] OnePlus 7 – 6GB|128GB X 1 - ,2hrs,none,7-5-2020,8712316799,8712316799, Oneplus
138979002gg60b,2020001661,Sai Charan L,hvo60307@gmail.com,34999,Sent,waiting for update,Hyderabad,Lb nagar  madhura Nagar colony road no:5 Hyderabad 500074,Lb nagar  madhura Nagar colony road no:5 Hyderabad 500074,[Blue] OnePlus 7T – 8GB|128GB X 1 - ,2hrs,none,7-5-2020,9966054523,9966054523, Oneplus
138975001mf61b,2020001659,Masabathula Ganesh,ganeshnaidu8978@gmail.com,13999,Sent,waiting for update,Pedanindrakolanu,Society street Pedanindrakolanu 534195,Society street Pedanindrakolanu 534195,[Comet White] Realme 6 - 4GB|64GB X 1 - ,2hrs,none,7-5-2020,8330932223,8330932223, Realme
138958001oe61b,2020001658,Ram Mohan Reddy Kotapati.,rammohan.reddy2000@gmail.com,13999,Sent,waiting for update,Guntur,Aadarsh Nagar 6th line nallapadu road guntur Guntur 522004,Aadarsh Nagar 6th line nallapadu road guntur Guntur 522004,[Comet Blue] Realme 6 - 4GB|64GB X 1 - ,2hrs,none,7-5-2020,7993883815,7993883815, Realme
138955002ah60b,2020001647,Vacha Dilip,dilip_vacha@yahoo.com,17999,Sent,waiting for update,Vijayawada,Flat :S3  Sri Sai Sannidhi Apartments  Road No:2  Amaravati colony Kanuru Vijayawada 520007,Flat :S3  Sri Sai Sannidhi Apartments  Road No:2  Amaravati colony Kanuru Vijayawada 520007,[Lightning Blue] Realme 6 Pro - 6GB|64GB X 1 - ,2hrs,none,7-5-2020,9601558893,9601558893, Realme
139162001up61b,2020001667,Rahul Sk,skrahul7759@gmail.com,6999,Sent,waiting for update,Guntur,Sarada colony 11th line Guntur 522002,Sarada colony 11th line Guntur 522002,[Blue] Redmi 8A – 2GB/32GB X 1 - ,2hrs,none,7-5-2020,7386195704,7386195704, Xiaomi
139013001bt61b,2020001666,Prince Prince,princeprince12345@rediffmail.com,18999,Sent,waiting for update,Nadiad,Ghanshyam Nagar Society  Near Gitanjali  Pij Road  Nadiad Nadiad 387002,Ghanshyam Nagar Society  Near Gitanjali  Pij Road  Nadiad Nadiad 387002,[Green] Redmi Note 8 Pro – 8GB|128GB X 1 - ,2hrs,none,7-5-2020,7873654671,7873654671, Xiaomi
140238001pf61b,2020001680,Vacha Dilip,dilip_vacha@yahoo.com,18999,waiting for approval,waiting for update,Vijayawada,Flat :S3  Sri Sai Sannidhi apartments  Amaravati colony  Kanuru Vijayawada 520007,Flat :S3  Sri Sai Sannidhi apartments  Amaravati colony  Kanuru Vijayawada 520007,[Lightning Blue] Realme 6 Pro - 8GB|128GB X 1 - ,2hrs,none,8-5-2020,9601558893,9601558893, Realme
137688001lx61b,2020001612,Cherukuri Ramakrishna Prasad,ramakrishna.cherukuri@gmail.com,17999,waiting for approval,waiting for update,Vijayawada,Flat No G001  Prajapati Elite II  Mayuri Nagar Hyderabad 500049,New RTC Colony Vijayawada 520007,[White] Realme X2 - 4GB|64GB X 1 - ,2hrs,none,6-5-2020,9100738760,9848389352, Realme
137305001mp61b,2020001590,SHAW RAHUL,jarvisnoob@gmail.com,15990,waiting for approval,waiting for update,kOLKATA,MUKUNDAPUR DASPARA kOLKATA 700152,MUKUNDAPUR DASPARA kOLKATA 700152,[White] Oppo A5 2020 - 6GB|128GB X 1 - ,none,none,6-5-2020,9348825173,9348825173, Oppo
140242001rd61b,2020001682,Shaahid Shaik,sgousiakk@gmail.com,9990,Sent,waiting for update,Guntur,Syamalnagar 7th line Guntur 522006,Syamalnagar 7th line Guntur 522006,[Mineral Blue] Vivo Y11 - 3GB|32GB - 2019 X 1 - ,2hrs,none,8-5-2020,9391004258,9391004258, Vivo Xiaomi
140233001mk61b,2020001679,Kumar Alok,alokjobby1990@gmail.com,7999,Sent,waiting for update,HYDERABAD,idpl township hyderabad 500037,IDPL TOWNSHIP BALANAGAR HYDERABAD 500037,LG Q7 Prime - 3 GB RAM|32 GB ROM X 1 - ,cod,none,8-5-2020,9199302555,9199302555, LG
140257001un61b,2020001684,Sai Bala Gopal,gopalprince45@gmail.com,18999,Sent,waiting for update,GUNTUR,MEDIKONDUR ENTRANCE HOUSE NEAR GOVERNMENT SCHOOL GUNTUR 522438,MEDIKONDUR ENTRANCE ROAD NEAR GOVERNMENT SCHOOL GUNTUR 522438,[Lightning Blue] Realme 6 Pro - 8GB|128GB X 1 - ,cod,none,8-5-2020,7013875924,7013875924, Realme
140279001gc61b,2020001685,Fatima Asma,asmamoosavi110@gmail.com,21990,Finished,waiting for update,Hyderabad,22-2-761  flat no. 101  Noor khan bazaar  Hyderabad Hyderabad 500024,22-2-761  flat no. 101  Noor khan bazaar  Hyderabad Hyderabad 500024,[Unicorn White] Oppo F15 - 8GB|128GB White X 1 - ,paid #569450,none,8-5-2020,8801637067,8801637067, Oppo
140327001uk61b,2020001686,Verma Kokapet,vishnu.pverma@gmail.com,15999,Sent,waiting for update,Hyderbad,A-108  Whistling Woods apartment  Kokapet  Gandipet road Hyderbad 500075,A-108  Whistling Woods apartment  Kokapet  Gandipet road Hyderbad 500075,[Comet White] Realme 6 - 6GB|128GB X 1 - ,2hrs,none,8-5-2020,8897698363,8897698363, Realme
140427001wd61b,2020001688,V . Umamahesswari V. Umamaheswari,amulusahi@gmail.com,8299,Sent,waiting for update,Kurnool,Somisetty nagar near hosanna mandir Kurnool 87/1201 sp-8,Somisetty nagar near hosanna mandir Kurnool 87/1201 sp-8,[Black] Redmi 7 – 3GB/32GB X 1 - ,2hrs,none,8-5-2020,9440779436,9440779436, Xiaomi
140459001jj61b,2020001689,Jyothi D,jyotidoddipatla@gmail.com,15999,Sent,waiting for update,Hyderabad,Flat no.500  door no.302  bhagatsingh nagar  kukatpally Hyderabad 500085,Flat no.500  door no.302  bhagatsingh nagar  kukatpally Hyderabad 500085,[Comet Blue] Realme 6 - 6GB|128GB X 1 - ,2hrs,none,8-5-2020,8309624204,8309624204, Realme
140500001pl61b,2020001708,Vangala Karuna Sree,sree7227@gmail.com,7990,Sent,waiting for update,hyderabad,143/c vengal rao nagar   srnagar hyderabad 500038,143/c vengal rao nagar   srnagar  opp saibaba temple hyderabad 500038,[Red] Oppo A1K – 2GB|32GB X 1 - ,2hrs,none,8-5-2020,9618535585,9618535585, Oppo
140540001jy61b,2020001711,Garikiparthi Maruti,maruti.naga.gariki@gmail.com,13999,Sent,waiting for update,Khammam,Nsp road Khammam 507004,Nsp road Khammam 507004,[Comet Blue] Realme 6 - 4GB|64GB X 1 - ,2hrs,none,8-5-2020,9676753347,9676753347, Realme
140612001ar61b,2020001777,Ram Bhaskar,bhaskarvvl@gmail.com,199,Sent,waiting for update,Kurnool,Chitthari street Kurnool 36/110,Chitthari street Kurnool 36/110,Inbase M6 in-Ear Stereo Bass Headphones X 1 - ,2hrs,none,8-5-2020,7075358604,7075358604,
140658001ih61b,2020001778,Fairoz Muhammad,bfiroz75@gmail.com,9999,Sent,waiting for update,Kurnool,23/170 sagmandi street  kurnool Kurnool 518001,23/170 sagmandi street  kurnool Kurnool 518001,[Blue] Realme 3 - 4GB/64GB X 1 - ,2hrs,none,8-5-2020,6381392229,6381392229, Realme
140679002ow60b,2020001791,Mohan Jagan,mohanjagan074@gmail.com,24990,Sent,waiting for update,Anantapur,Lic Ananthapuram Lic,Lic Anantapur N/A,[Black] Vivo V17 - 8GB|128GB X 1 - ,cod,pickup,8-5-2020,6305505660,6305505660, Vivo
140693002cd60b,2020001796,Fatima Asma,asmamoosavi110@gmail.com,1999,Sent,waiting for update,Hyderabad,22-2-761  flat no. 101  Noor khan bazaar  Hyderabad Hyderabad 500024,22-2-761  flat no. 101  Noor khan bazaar  Hyderabad Hyderabad 500024,Sony MDR-XB450AP On-Ear EXTRA BASS Headphones X 1 - ,none,none,8-5-2020,8801637067,8801637067,
140736001mg61b,2020001802,Nayak Kamalkant,kamalkantnayak2013@gmail.com,24990,Sent,waiting for update,Bagampet,Prakash nagar Hyderabad Bagampet,Prakash nagar Bagampet N/A,[Blue] Vivo V17 - 8GB|128GB X 1 - ,none,pickup,8-5-2020,7032772802,7032772802, Vivo
140790001oh61b,2020001805,Nelaturi Chandu,nelaturi4@gmail.com,1899,Sent,waiting for update,Hayderbada,Ts Hyderabad 500006,Gudimalakapur Hayderbada 500006,MI NECKBAND BLUETOOTH HEAD SET X 1 - ,none,none,8-5-2020,9704240196,9704240196, Xiaomi
140832001ud61b,2020001808,Gadaboina Ranjithkumar,gadaboinaranjithkumar@gmail.com,21990,Sent,waiting for update,Mulugu,4-32  roheer  eturnagaram Mulugu 506165,4-32  roheer  eturnagaram Mulugu N/A,[Unicorn White] Oppo F15 - 8GB|128GB BLACK X 1 - ,none,pickup,8-5-2020,9959230608,9959230608, Oppo
140837001ie61b,2020001809,Divi Varaprasad,divivaraprasad395@gmail.com,19999,Sent,waiting for update,Mahaboobnagar,Kaukuntla Mahaboobnagar Kaukuntla,Kaukuntla Mahaboobnagar Kaukuntla,[Blue] Realme X2 - 6GB|128GB X 1 - ,2hrs,none,8-5-2020,9515873636,9515873636, Realme
140997001yy61b,2020001812,Sk Raza Ali,razaali12sk@gmail.com,18999,Sent,waiting for update,Visakhapatnam,Kumarivedi  Maharani Peta Visakhapatnam 530002,Kumarivedi  Maharani Peta Visakhapatnam 530002,[Lightning Blue] Realme 6 Pro - 8GB|128GB X 1 - ,2hrs,none,8-5-2020,9966691723,9966691723, Realme
141001001cw61b,2020001817,Kalyan Jannu,kalyanrockz233@gmail.com,16999,Sent,waiting for update,Warangal,4-133/1 Pensionpur thimmapur Warangal 506005,4-133/1 Pensionpur thimmapur Warangal N/A,[Green] Redmi Note 8 Pro – 6GB|128GB X 1 - ,none,pickup,8-5-2020,9440078411,9440078411, Xiaomi
141587001od61b,2020001896,Rallapalli Sunil,rvsssks@gmail.com,12999,Sent,waiting for update,Hyderabad,Flat # 202  Srinivasam Apartments  Green Meadows  Beeramguda Hyderabad 502032,Flat # 202  Srinivasam Apartments  Green Meadows  Beeramguda Hyderabad 502032,[Grey] Mi A3 - 4GB/64GB X 1 - ,2hrs,none,9-5-2020,9700447572,9700447572, Xiaomi
141652001oj61b,2020001911,Kompally Srinivas,kompallysri@gmail.com,4999,Sent,waiting for update,Quthbullapur,bank colony Hyderabad 500054,F. No. 203  Sri sai nilayam  bank colony  padmanagar phase 2 Quthbullapur 500054,Redmi GO – 1G/16GB X 1 - ,2hrs,none,9-5-2020,9966436171,9966436171, Xiaomi
141695001xr61b,2020001912,SENAPATI PRABIR,senapati.prabir@gmail.com,9299,Sent,waiting for update,HYDERABAD,Veejay Villa  Flat No-104 safilguda neredmet Hyderabad 500056,Flat No-204  Veejay villa Appartment Near Krupa Complex  Safulguda  Neredmet HYDERABAD 500056,[Red] Redmi Note 7s – 3GB/32GB X 1 - ,2hrs,none,9-5-2020,8333802832,7032997142, Xiaomi
141786001jk61b,2020001914,Khaja Raheemuddin,raheemuddin07@gmail.com,14990,Sent,waiting for update,Hyderabad,8-7-11/3 R R Nagar old Bowenpally Hyderabad 500011,8-7-11/3 R R Nagar old Bowenpally Hyderabad 500011,[Blue] Vivo Y17 – 4GB|128GB X 1 - ,2hrs,none,9-5-2020,9553709298,9553709298, Vivo
141534001mt61b,2020001890,Borra Sai,bskc151997@gmail.com,34999,Sent,waiting for update,Guntur,Mapple 115  Rain tree park  Opposite ANU Guntur 522508,Mapple 115  Rain tree park  Opposite ANU Guntur 522508,[Blue] OnePlus 7T – 8GB|128GB X 1 - ,2hrs,none,9-5-2020,7981983505,7981983505, Oneplus
141525001tn61b,2020001883,Ram Raghu,raghuram7577@gmail.com,15999,Sent,waiting for update,Anantapur,Priyanka nagar Anantapur 515001,Priyanka nagar Anantapur 515004,[Comet Blue] Realme 6 - 6GB|128GB X 1 - ,2hrs,none,9-5-2020,9581758358,9581758358, Realme
141489001sl61b,2020001875,Udaykishore Ayireddy,auknaiducs@gmail.com,11990,Sent,waiting for update,N/A,Plot no.60  Subhash Nagar Near Bharath Petrol Pump Quthbullapur Hyderabad 500055,N/A N/A N/A,[Black] Oppo A5s – 4GB|64GB X 1 - ,none,pickup,9-5-2020,8555840913,8555840913, Oppo
141487001jn61b,2020001872,Golla VENKATESH,venkateshgolladon@gmail.com,18999,Sent,waiting for update,N/A,Bank Colony secundrabad 500047,N/A N/A N/A,[Lightning Blue] Realme 6 Pro - 8GB|128GB X 1 - ,none,pickup,9-5-2020,8247525182,8247525182, Realme
141482001jg61b,2020001871,V Ram,ramvnky@gmail.com,16999,Sent,waiting for update,Rajahmundry,Kori market Rajahmundry 533102,Kori market Rajahmundry 533102,[Blue] Realme XT - 4GB|64GB X 1 - ,2hrs,none,9-5-2020,7995497829,7995497829, Realme
141360004cm60b,2020001848,Vangala Karuna Sree,sree7227@gmail.com,7990,Sent,waiting for update,N/A,143/c vengal rao nagar   srnagar hyderabad 500038,N/A N/A N/A,[Black] Oppo A1K – 2GB|32GB X 1 - ,none,pickup,9-5-2020,9618535585,9618535585, Oppo
141885001ci61b,2020001917,HARISHBABU S,saginalaharishbabu49@gmail.com,16999,Sent,waiting for update,Kurnool,50-705-A6  b. Camp  kurnool Kurnool 518002,50-705-A6  b. Camp  kurnool Kurnool 518002,[Green] Redmi Note 8 Pro – 6GB|128GB X 1 - ,2hrs,none,9-5-2020,9676657249,9676657249, Xiaomi
141897002hn60b,2020001933,Tanti Lokanath,lokanathtanti0678@gmail.com,349,Sent,waiting for update,Upaal,नगल Upaal 500060,Nagal Upaal 500060,Portronics 2.1A Dual USB Charger X 1 - ,2hrs,none,9-5-2020,9178752739,9178751739,
141945001mi61b,2020001938,Musirana Hariprasad,mpchariprasad@gmail.com,12999,Sent,waiting for update,Visakhapatnam,FLAT NO.203  KRISHNA BRUNDAVAN RESIDENCY  SIRIGUDI NAGAR  YENDADA  NEAR SBI  VISHAKAPATNAM Visakhapatnam 530045,FLAT NO.203  KRISHNA BRUNDAVAN RESIDENCY  SIRIGUDI NAGAR  YENDADA  NEAR SBI  VISHAKAPATNAM Visakhapatnam 530045,[Blue] Mi A3 - 4GB/64GB X 1 - ,2hrs,none,9-5-2020,8074922012,8074922012, Xiaomi
142154001fx61b,2020001972,Gudavalli HARSHAVARDHAN,hv433744@gmail.com,70500,Sent,waiting for update,Chintal,Chintal Hyderabad 500037,Plot No-1  Survey No -185  Prabhav Akred  Ranga Na Chintal N/A,Samsung Galaxy S20 - 8GB|128GB X 1 - ,none,pickup,9-5-2020,8686652316,8686652316, Samsung
142214001cr61b,2020001975,Reddy Harshith,harshithreddy113@gmail.com,8990,Sent,waiting for update,Bhongir,(Opp) central bank Bhongir Near new bustand,(Opp) central bank Bhongir Near new bustand,Vivo Y91i – 3GB|32GB X 1 - ,none,none,9-5-2020,9959727273,9959727273, Vivo
142456001pj61b,2020001978,K Govind,govind@gmail.com,24990,Cancel,waiting for update,Chennai,Ultra amar avenue No 47 tamilar street Chennai 600094,Ultra amar avenue No 47 tamilar street Chennai 500024,Vivo V17 - 8GB|128GB X 1 - ,2hrs,none,9-5-2020,9566228855,9566228855, Vivo
142513001cs61b,2020001979,MOHAMMED ARFATH,muhammedarfath23@gmail.com,12490,Sent,waiting for update,HYDERABAD,GOPAL NAGAR HYDERABAD 500045,1-4-547/3 TAJIR NAGAR BHOLAKPUR MUSHEERABAD NEAR MASJID E BILAL HYDERABAD 500020,Oppo A31 - 4GB|64GB X 1 - ,2hrs,none,9-5-2020,9603519979,9959818484, Oppo
142708001nk61b,2020001980,Kumar Siva,bsivakumar786@gmail.com,10499,Sent,waiting for update,Vijayawada,Powerone mall Vijayawada 520007,Powerone mall Vijayawada 520007,Redmi Note 7s – 4GB/64GB X 1 - ,2hrs,none,10-5-2020,9966254002,9966254002, Xiaomi
142729001ge61b,2020001982,Perambudur Anand,anandperambudar@gmail.com,1599,Sent,waiting for update,Guntur,AnKammanahalli gudhi road   communist Bomma center old Guntur Guntur Guntur,AnKammanahalli gudhi road   communist Bomma center old Guntur Guntur Guntur,BOAT ROCKERS 255R NECK BAND BLUETOOTH X 1 - ,2hrs,none,10-5-2020,9885952931,9885952931,
142756001pw61b,2020001983,Lakshmi G.sivalakshmi,sivanandhu79@gmail.com,16999,Sent,waiting for update,Visakhapatnam,E Block Laxminagar Gopalpatnam Visakhapatnam 530027,E Block Laxminagar Gopalpatnam Visakhapatnam 530027,Realme XT - 4GB|64GB X 1 - ,none,none,10-5-2020,8978016711,8978016711, Realme
142766001cs61b,2020001984,Sattu Kranthi,jkranthi2330@gmail.com,13999,Sent,waiting for update,VIJAYAWADA,12_8;Nehru nagar;ramavarappadu;Vijayawada VIJAYAWADA 521108,12_8;Nehru nagar;ramavarappadu;Vijayawada VIJAYAWADA 521108,Redmi Note 7 Pro – 6GB/128GB X 1 - ,2hrs,none,10-5-2020,7893885508,7893885508, Xiaomi
142849001hu61b,2020001985,Krishna Vamsi,vamsimiracle03@gmail.com,8999,Sent,waiting for update,Vijayawada,katakam vari street   bharat matha manri road Vijayawada 520015,katakam vari street   bharat matha manri road Vijayawada 520015,Redmi Y3 - 4GB/64GB X 1 - ,2hrs,none,10-5-2020,9440187137,9440187137, Xiaomi
142921001bg61b,2020001986,Reddy Sharathkumar,sharathkumar1230@gmail.com,52500,Sent,waiting for update,Gadwal,Bonkur Gadwal 509125,Bonkur Gadwal 509153,iPhone XR – 64GB X 1 - ,none,none,10-5-2020,8008354500,8008354500, Apple
142931001uj61b,2020001987,Reddy Anugonda Prakash,prakashreddyweb@gmail.com,52500,Sent,waiting for update,Kurnool,Kallur estate Kurnool 518001,Kallur estate Kurnool 518001,iPhone XR – 64GB X 1 - ,2hrs,none,10-5-2020,6302838404,6302838404, Apple
142958001wi61b,2020001988,Nollu Anish,anishkumarnollu@gmail.com,19999,Sent,waiting for update,Vuzag,Beachroad Vizag 530001,Beachroad Vuzag 530001,Realme X2 - 6GB|128GB X 1 - ,2hrs,none,10-5-2020,9703317615,9703317615, Realme
142977001um61b,2020001989,Chandra Sharat,sharatnanduri@gmail.com,25250,Sent,waiting for update,Hyderabad,306  Vertex paradise Apartments  Brundavan colony road Nizampet Hyderabad 500090,306  Vertex paradise Apartments  Brundavan colony road Nizampet Hyderabad 500090,Samsung Galaxy A51 - 6GB|128GB X 1 - ,paid #574113,none,10-5-2020,9949111857,9949111857, Samsung
143020001ln61b,2020001990,Jagarapu Rajasekhar,jagarapurajasekhar1997@gmail.com,18999,Sent,waiting for update,Vishakapatnam,Vadlapudi  near kanithi high school Vishakapatnam 530046,Vadlapudi  near kanithi high school Vishakapatnam N/A,Realme 6 Pro - 8GB|128GB X 1 - ,none,pickup,10-5-2020,9133763961,9133763961, Realme
143037001cw61b,2020001993,Mohammed Suhail,amsuhailmohammed@gmail.com,7990,Sent,waiting for update,Hyderabad,Mizbah's Abode  Plot No. 30/P  New Friends Colony  Upperpally Hyderabad 500048,Mizbah's Abode  Plot No. 30/P  New Friends Colony  Upperpally Hyderabad 500048,Oppo A1K – 2GB|32GB X 1 - ,2hrs,none,10-5-2020,8086644397,8086644397, Oppo
143071001ps61b,2020001994,Venkataramudu Madda,venkataramudumadda@gmail.com,68300,Sent,waiting for update,N/A,7/1505a JANGALA COLONY GOOTY GOOTY 515401,N/A N/A N/A,iPhone 11 - 64GB X 1 - ,none,pickup,10-5-2020,9441012489,9441012489, Apple
143082001du61b,2020001996,POLOJU ABHILASH,abhinandha18@gmail.com,13999,Sent,waiting for update,N/A,Village-Mamindla veeraiah palli Narsampet 506349,N/A N/A N/A,Realme 6 - 4GB|64GB X 1 - ,none,pickup,10-5-2020,7799280071,7799280071, Realme
143157001ux61b,2020002001,Vikkurthi Rahul Nadh,vikkurthyrahulnadh@gmail.com,29999,Sent,waiting for update,Gudivada,Eluru Road Gudivada 521301,G3 Sindhura Theatre Gudivada 521301,OnePlus 7 – 6GB|128GB X 1 - ,cod,none,10-5-2020,6303563583,6303563583, Oneplus
143174001we61b,2020002002,Mahesh Ella,ellamahesh0312@gmail.com,19999,Sent,waiting for update,Vishakha patnam,15-686/44 sai Nagar arliova Vishakapatnam 530040,15-686/44 sai Nagar arliova Vishakha patnam 530040,Realme 6 Pro - 8GB|128GB X 1 - ,2hrs,none,10-5-2020,8328543857,8328543857, Realme
143190001fd61b,2020002003,Kumar Satish,satish.raj.858@gmail.com,31990,Sent,waiting for update,N/A,Opposite borramamba temple   D no 4-16-10/01  talarivanipalem  Aganampudi Visakhalatnam 530046,N/A N/A N/A,Oppo Reno 3 Pro - 8GB|128GB X 1 - ,none,pickup,10-5-2020,8106504678,8106504678, Oppo
143249001ci61b,2020002005,Kumar Sravan,sravankumarduggirala@gmail.com,13999,Sent,waiting for update,Manuguru,Janampeta Manuguru 507117,Janampeta Manuguru 507117,Realme 6 - 4GB|64GB X 1 - ,2hrs,none,10-5-2020,9391991649,9391991649, Realme
143285001ug61b,2020002006,Dundee Pilla,dundeeganesh@gmail.com,19999,Sent,waiting for update,visakhapatnam,plot no-201 kruthika heavens 3rd fl  sathavahana nagar road no 4  andhra bank road visakhapatnam 530046,plot no-201 kruthika heavens 3rd fl  sathavahana nagar road no 4  andhra bank road visakhapatnam 530046,Realme X2 - 6GB|128GB X 1 - ,2hrs,none,10-5-2020,7675953273,7675953273, Realme
143309001wo61b,2020002007,Borra Sai,bskc151997@gmail.com,34999,Sent,waiting for update,Guntur,Mapple 115  Rain tree park  Opposite ANU Guntur 522508,Mapple 115  Rain tree park  Opposite ANU Guntur 522508,OnePlus 7T – 8GB|128GB X 1 - ,2hrs,none,10-5-2020,7981983505,7981983505, Oneplus
143335001go61b,2020002008,Ahamed Rasheed,rasheedahamed22@gmail.com,15999,Sent,waiting for update,Vijayawada,Tank Bazar Vijayawada 521104,SSS Towers SF3 Tank Bazar  Nidamanuru Vijayawada 521104,Realme 6 - 6GB|128GB X 1 - ,2hrs,none,10-5-2020,8500682134,8500682134, Realme
143461001jg61b,2020002010,Savio Kenwes,savio.mastergroups@gmail.com,20560,Sent,waiting for update,HYDERABAD,PLOT NO 7  SREEDEVINAGAR PHASE 2  RL NAG HYDERABAD 501301,Plot no 7  Sreedevinagar Phase 2  RL Nagar  Rampally 501301  RL nagar HYDERABAD 501301,[Black] Samsung Galaxy A50s – 6GB|128GB X 1 - ,2hrs,none,10-5-2020,9398097127,9398097127, Samsung
143506001tc61b,2020002011,Oli Kather,katheroli624@gmail.com,499,Sent,waiting for update,Vijayawada,Andhra ratna road Vijayawada 520013,Andhra ratna road Vijayawada 520013,Mi Earphone Basic with Ultra deep bass and mic X 1 - ,cod,none,10-5-2020,9790514287,9790514287, Xiaomi
143599001ff61b,2020002012,M Jagan,surya739.m@gmail.com,6999,Sent,waiting for update,Hyderabad,Krupa complex Hyderabad 500047,Krupa complex Hyderabad 500047,Gionee M7 Power - 4 GB RAM | 64 GB ROM X 1 - ,cod,none,10-5-2020,9848868739,9848868739,
143630001jb61b,2020002013,Khan Sarfraz,sarfraskhanthofik3996@gmail.com,99,Sent,waiting for update,Adilabad,Krantinagar Adilabad 504001,Krantinagar Adilabad 504001,[Black] Zebronics Stereo Earphone With Mic - H-ME 800/900 X 1 - ,cod,none,10-5-2020,6302464102,6302464102, Xiaomi
143651001ho61b,2020002014,Yadav Monu,khotubablu@gmail.com,31500,Sent,waiting for update,Vishakapatnam,Coastguard workup jetty Vishakapatnam 530011,Coastguard workup jetty Vishakapatnam 530011,[Rose Gold] iPhone 7 – 32GB X 1 - ,2hrs,none,10-5-2020,7736096350,7736096350, Apple
143701001xj61b,2020002015,Yadav Monu,khotubablu@gmail.com,52500,Sent,waiting for update,Vishakapatnam,Coastguard workup jetty Vishakapatnam 530014,Coastguard workup jetty Vishakapatnam 530014,[Blue] iPhone XR – 64GB X 1 - ,2hrs,none,10-5-2020,7736096350,7736096350, Apple
143722001bh61b,2020002016,Kumar Ravi,rockravi162@gmail.com,20999,Sent,waiting for update,Malkajgiri,Patel nagar Malkajgiri 500047,Patel nagar Malkajgiri 500047,[White] Realme X2 - 8GB|128GB X 1 - ,2hrs,none,10-5-2020,7659026201,7659026201, Realme
143737001lj61b,2020002017,Musirana Hariprasad,mpchariprasad@gmail.com,12999,Sent,waiting for update,Vishakapatnam,203  Krishna Brundavanam Residency   sirigudi nagar   yendada Vishakapatnam 530045,203  Krishna Brundavanam Residency   sirigudi nagar   yendada Vishakapatnam N/A,[Blue] Mi A3 - 4GB/64GB X 1 - ,none,pickup,10-5-2020,8074922012,8074922012, Xiaomi
143762001mo61b,2020002019,Adapala HARISH,adapalaharish365@gmail.com,17999,Sent,waiting for update,Guntur,16-8-46 soma vari street 3rd lane Guntur 522001,16-8-46 soma vari street 3rd lane Guntur 522001,[White] Realme X2 - 4GB|64GB X 1 - ,2hrs,none,10-5-2020,9030688488,9030688488, Realme
143782001gl61b,2020002020,Sankar Shiva,sivaramavath21@gmail.com,16999,Sent,waiting for update,Mandapadu,St .Colony Mandapadu 522401,St .Colony Mandapadu 522401,[Comet White] Realme 6 - 8GB|128GB X 1 - ,2hrs,none,10-5-2020,9492515564,9492515564, Realme