id,iduser,number,status,statushistory.date,statushistory.status,delivery,payment,firstname,lastname,email,phone,message,note,language,reference,trackingcode,discount,price,count,items.id,items.idvariant,items.price,items.name,items.reference,items.count,company,companyid,companyvat,billingstreet,billingzip,billingcity,billingcountry,deliveryfirstname,deliverylastname,deliverystreet,deliveryzip,deliverycity,deliverycountry,deliveryphone,iscompany,isfinished,ispaid,taxid,datecreated,ip,name,isterms,adminupdated,dateupdated,datefinished,search,datepaid,iscod,ispickup,datecod
449870001my1a,444330001oh1a,2019000051,Canceled,12/10/2019,Waiting for approval,Remax,Direct bank transfer,Shanmukha RAm,M,srk@iipl.work,8686836269,,,,,123456789,0,2550,1,449673001go1a,449653002jx0a,2550,Nokia - 216 DS,,1,,,,"160/1 R no 21 Vivekanada Nagar,, Kukatpalli Near G",5000072,Hyderabad,India,Shanmukha RAm,Shanmukha RAm,"160/1 R no 21 Vivekanada Nagar,, Kukatpalli Near G",5000072,,India,08686836269,false,false,true,,12/10/2019,183.82.111.252,M Shanmukha RAm,false,Administrator,12/10/2019,12/10/2019,449870001m shanmuk ram srkiiplw,12/10/2019
,,,,12/10/2019,Finished,,,,,,,,,,,,,,,,,,,,,,,,,,,,,,,,,,,,,,,,,,,,,,,
,,,,12/10/2019,Canceled,,,,,,,,,,,,,,,,,,,,,,,,,,,,,,,,,,,,,,,,,,,,,,,
451160001eu1a,,2019000060,Finished,12/11/2019,Waiting for approval,Remax,Direct bank transfer,Shanmukha Ram Kuamr,Kumar,srk@iipl.work,8686836269,,,,,123456,0,88950,2,438510001na1a,438434002rb0a,87900,[Blue] Samsung Galaxy S10 Plus – 8GB/512GB,,1,,,,"Dwaraka Square, Plot No.21 R no 71, Flim Nagar Jub",500033,Hyderabad,India,Shanmukha Ram Kuamr,Shanmukha Ram Kuamr,"Dwaraka Square, Plot No.21 R no 71, Flim Nagar Jub",500033,,India,8686836269,false,true,true,,12/11/2019,183.82.111.252,Kumar Shanmukha Ram Kuamr,false,Administrator,12/11/2019,12/11/2019,451160001e shanmuk ram kuam kuma srkiiplw,12/11/2019
,,,,12/11/2019,Finished,,,,,,,,,,,,,,,449670001nm1a,449653002jx0a,1050,Nokia - 105 DS - 2019,,1,,,,,,,,,,,,,,,,,,,,,,,,,,,
444090001xw1a,,2019000003,Waiting for approval,12/6/2019,Waiting for approval,Remax,Direct bank transfer,Shanmukha,Ram,srk@iipl.work,,,,,,,0,199800,2,431306001fx1a,431303002np0a,99900,[Black] iPhone XS Max – 64GB,,1,,,,Plt no 80/B Subbodhya Colony,500072,Hyderabad,India,,,,,,,,false,false,true,20191211111212800110168979501097088,12/6/2019,183.82.111.252,Ram Shanmukha,,,,,,12/11/2019
,,,,,,,,,,,,,,,,,,,,431306001fx1a,431303002np0a,99900,[Black] iPhone XS Max – 64GB,,1,,,,,,,,,,,,,,,,,,,,,,,,,,,
444120001rr1a,,2019000004,Waiting for approval,12/6/2019,Waiting for approval,Remax,Direct bank transfer,Bub,Uyvu,q@123.com,,,,,,,0,15990,1,432462001jw1a,432456002os0a,15990,[Blue] Vivo V15 – 6GB/64GB,,1,,,,cycyv,262,yvygyi,buji,,,,,,,,false,false,true,20191211111212800110168979501097088,12/6/2019,183.82.111.252,Uyvu Bub,,,,,,12/11/2019
444120002rr0a,,2019000005,Waiting for approval,12/6/2019,Waiting for approval,Remax,Direct bank transfer,Bub,Uyvu,q@123.com,,,,,,,0,15990,1,432462001jw1a,432456002os0a,15990,[Blue] Vivo V15 – 6GB/64GB,,1,,,,cycyv,262,yvygyi,buji,,,,,,,,false,false,true,20191211111212800110168979501097088,12/6/2019,183.82.111.252,Uyvu Bub,,,,,,12/11/2019
444184001xa1a,,2019000006,Waiting for approval,12/6/2019,Waiting for approval,Remax,Direct bank transfer,Shanmukha,Ram,srk@iipl.work,,,,,,,0,199800,2,431306001fx1a,431303002np0a,99900,[Black] iPhone XS Max – 64GB,,1,,,,"6-3-648/1, Raj Bhavan Rd, Somajiguda",500082,Hyderabad,India,,,,,,,,false,false,true,20191211111212800110168979501097088,12/6/2019,183.82.111.252,Ram Shanmukha,,,,,,12/11/2019
,,,,,,,,,,,,,,,,,,,,431306001fx1a,431303002np0a,99900,[Black] iPhone XS Max – 64GB,,1,,,,,,,,,,,,,,,,,,,,,,,,,,,
444215001fo1a,,2019000007,Waiting for approval,12/6/2019,Waiting for approval,Remax,Direct bank transfer,Shanmukha,Ram,srk@iipl.work,,,,,,,0,199800,2,431306001fx1a,431303002np0a,99900,[Black] iPhone XS Max – 64GB,,1,,,,"6-3-648/1, Raj Bhavan Rd, Somajiguda",500082,Hyderabad,India,,,,,,,,false,false,true,20191211111212800110168979501097088,12/6/2019,183.82.111.252,Ram Shanmukha,,,,,,12/11/2019
,,,,,,,,,,,,,,,,,,,,431306001fx1a,431303002np0a,99900,[Black] iPhone XS Max – 64GB,,1,,,,,,,,,,,,,,,,,,,,,,,,,,,
444218001yd1a,,2019000008,Waiting for approval,12/6/2019,Waiting for approval,Remax,Direct bank transfer,Shanmukha,Ram,srk@iipl.work,,,,,,,0,199800,2,431306001fx1a,431303002np0a,99900,[Black] iPhone XS Max – 64GB,,1,,,,"6-3-648/1, Raj Bhavan Rd, Somajiguda",500082,Hyderabad,India,,,,,,,,false,false,true,20191211111212800110168979501097088,12/6/2019,183.82.111.252,Ram Shanmukha,,,,,,12/11/2019
,,,,,,,,,,,,,,,,,,,,431306001fx1a,431303002np0a,99900,[Black] iPhone XS Max – 64GB,,1,,,,,,,,,,,,,,,,,,,,,,,,,,,
444238001bo1a,,2019000009,Waiting for approval,12/6/2019,Waiting for approval,Remax,Direct bank transfer,Shanmukha,Ram,srk@iipl.work,,,,,,,0,15999,1,438629001uc1a,435554002xd0a,15999,[Green] Redmi Note 8 Pro – 6GB/128GB,,1,,,,Plt no 80/B Subbodhya Colony,500072,Hyderabad,India,,,,,,,,false,false,true,20191211111212800110168979501097088,12/6/2019,183.82.111.252,Ram Shanmukha,,,,,,12/11/2019
444238002bo0a,,2019000010,Waiting for approval,12/6/2019,Waiting for approval,Remax,Direct bank transfer,Shanmukha,Ram,srk@iipl.work,,,,,,,0,15999,1,438629001uc1a,435554002xd0a,15999,[Green] Redmi Note 8 Pro – 6GB/128GB,,1,,,,Plt no 80/B Subbodhya Colony,500072,Hyderabad,India,,,,,,,,false,false,true,20191211111212800110168979501097088,12/6/2019,183.82.111.252,Ram Shanmukha,,,,,,12/11/2019
444250001cr1a,,2019000011,Waiting for approval,12/6/2019,Waiting for approval,Remax,Direct bank transfer,Shanmukha,Ram,srk@iipl.work,,,,,,,0,15999,1,438629001uc1a,435554002xd0a,15999,[Green] Redmi Note 8 Pro – 6GB/128GB,,1,,,,Plt no 80/B Subbodhya Colony,500072,Hyderabad,India,,,,,,,,false,false,true,20191211111212800110168979501097088,12/6/2019,183.82.111.252,Ram Shanmukha,,,,,,12/11/2019
444251001jk1a,,2019000012,Waiting for approval,12/6/2019,Waiting for approval,Remax,Direct bank transfer,Shanmukha,Ram,srk@iipl.work,,,,,,,0,15999,1,438629001uc1a,435554002xd0a,15999,[Green] Redmi Note 8 Pro – 6GB/128GB,,1,,,,Plt no 80/B Subbodhya Colony,500072,Hyderabad,India,,,,,,,,false,false,true,20191211111212800110168979501097088,12/6/2019,183.82.111.252,Ram Shanmukha,,,,,,12/11/2019
444251002jk0a,,2019000013,Waiting for approval,12/6/2019,Waiting for approval,Remax,Direct bank transfer,Shanmukha,Ram,srk@iipl.work,,,,,,,0,15999,1,438629001uc1a,435554002xd0a,15999,[Green] Redmi Note 8 Pro – 6GB/128GB,,1,,,,Plt no 80/B Subbodhya Colony,500072,Hyderabad,India,,,,,,,,false,false,true,20191211111212800110168979501097088,12/6/2019,183.82.111.252,Ram Shanmukha,,,,,,12/11/2019
444251003jk1a,,2019000014,Waiting for approval,12/6/2019,Waiting for approval,Remax,Direct bank transfer,Shanmukha,Ram,srk@iipl.work,,,,,,,0,15999,1,438629001uc1a,435554002xd0a,15999,[Green] Redmi Note 8 Pro – 6GB/128GB,,1,,,,Plt no 80/B Subbodhya Colony,500072,Hyderabad,India,,,,,,,,false,false,true,20191211111212800110168979501097088,12/6/2019,183.82.111.252,Ram Shanmukha,,,,,,12/11/2019
444251004jk0a,,2019000015,Waiting for approval,12/6/2019,Waiting for approval,Remax,Direct bank transfer,Shanmukha,Ram,srk@iipl.work,,,,,,,0,15999,1,438629001uc1a,435554002xd0a,15999,[Green] Redmi Note 8 Pro – 6GB/128GB,,1,,,,Plt no 80/B Subbodhya Colony,500072,Hyderabad,India,,,,,,,,false,false,true,20191211111212800110168979501097088,12/6/2019,183.82.111.252,Ram Shanmukha,,,,,,12/11/2019
444254001te1a,,2019000016,Waiting for approval,12/6/2019,Waiting for approval,Remax,Direct bank transfer,Shanmukha,Ram,srk@iipl.work,,,,,,,0,87998,2,438629001uc1a,435554002xd0a,15999,[Green] Redmi Note 8 Pro – 6GB/128GB,,1,,,,Plt no 80/B Subbodhya Colony,500072,Hyderabad,India,,,,,,,,false,false,true,20191211111212800110168979501097088,12/6/2019,183.82.111.252,Ram Shanmukha,,,,,,12/11/2019
,,,,,,,,,,,,,,,,,,,,429672001fl1a,429672002fl0a,71999,iPhone X – 64GB,,1,,,,,,,,,,,,,,,,,,,,,,,,,,,
444254002te0a,,2019000017,Waiting for approval,12/6/2019,Waiting for approval,Remax,Direct bank transfer,Shanmukha,Ram,srk@iipl.work,,,,,,,0,87998,2,438629001uc1a,435554002xd0a,15999,[Green] Redmi Note 8 Pro – 6GB/128GB,,1,,,,Plt no 80/B Subbodhya Colony,500072,Hyderabad,India,,,,,,,,false,false,true,20191211111212800110168979501097088,12/6/2019,183.82.111.252,Ram Shanmukha,,,,,,12/11/2019
,,,,,,,,,,,,,,,,,,,,429672001fl1a,429672002fl0a,71999,iPhone X – 64GB,,1,,,,,,,,,,,,,,,,,,,,,,,,,,,
444279001pk1a,,2019000018,Waiting for approval,12/6/2019,Waiting for approval,Remax,Direct bank transfer,Shanmukha,Ram,srk@iipl.work,,,,,,,0,87998,2,438629001uc1a,435554002xd0a,15999,[Green] Redmi Note 8 Pro – 6GB/128GB,,1,,,,Plt no 80/B Subbodhya Colony,500072,Hyderabad,Indiargt,,,,,,,,false,false,true,20191211111212800110168979501097088,12/6/2019,183.82.111.252,Ram Shanmukha,,,,,,12/11/2019
,,,,,,,,,,,,,,,,,,,,429672001fl1a,429672002fl0a,71999,iPhone X – 64GB,,1,,,,,,,,,,,,,,,,,,,,,,,,,,,
444280001yn1a,,2019000019,Waiting for approval,12/6/2019,Waiting for approval,Remax,Direct bank transfer,Shanmukha,Ram,srk@iipl.work,,,,,,,0,87998,2,438629001uc1a,435554002xd0a,15999,[Green] Redmi Note 8 Pro – 6GB/128GB,,1,,,,Plt no 80/B Subbodhya Colony,500072,Hyderabad,Indiargt,,,,,,,,false,false,true,20191211111212800110168979501097088,12/6/2019,183.82.111.252,Ram Shanmukha,,,,,,12/11/2019
,,,,,,,,,,,,,,,,,,,,429672001fl1a,429672002fl0a,71999,iPhone X – 64GB,,1,,,,,,,,,,,,,,,,,,,,,,,,,,,
444281001du1a,,2019000020,Waiting for approval,12/6/2019,Waiting for approval,Remax,Direct bank transfer,Shanmukha,Ram,srk@iipl.work,,,,,,,0,87998,2,438629001uc1a,435554002xd0a,15999,[Green] Redmi Note 8 Pro – 6GB/128GB,,1,,,,Plt no 80/B Subbodhya Colony,500072,Hyderabad,India,,,,,,,,false,false,true,20191211111212800110168979501097088,12/6/2019,183.82.111.252,Ram Shanmukha,,,,,,12/11/2019
,,,,,,,,,,,,,,,,,,,,429672001fl1a,429672002fl0a,71999,iPhone X – 64GB,,1,,,,,,,,,,,,,,,,,,,,,,,,,,,
444283001mj1a,,2019000021,Waiting for approval,12/6/2019,Waiting for approval,Remax,Direct bank transfer,Shanmukha,Ram,srk@iipl.work,,,,,,,0,87998,2,438629001uc1a,435554002xd0a,15999,[Green] Redmi Note 8 Pro – 6GB/128GB,,1,,,,Plt no 80/B Subbodhya Colony,500072,Hyderabad,India,,,,,,,,false,false,true,20191211111212800110168979501097088,12/6/2019,183.82.111.252,Ram Shanmukha,,,,,,12/11/2019
,,,,,,,,,,,,,,,,,,,,429672001fl1a,429672002fl0a,71999,iPhone X – 64GB,,1,,,,,,,,,,,,,,,,,,,,,,,,,,,
444285001ap1a,,2019000022,Waiting for approval,12/6/2019,Waiting for approval,Remax,Direct bank transfer,Shanmukha,Ram,srk@iipl.work,,,,,,,0,87998,2,438629001uc1a,435554002xd0a,15999,[Green] Redmi Note 8 Pro – 6GB/128GB,,1,,,,Plt no 80/B Subbodhya Colony,500072,Hyderabad,India,,,,,,,,false,false,true,20191211111212800110168979501097088,12/6/2019,183.82.111.252,Ram Shanmukha,,,,,,12/11/2019
,,,,,,,,,,,,,,,,,,,,429672001fl1a,429672002fl0a,71999,iPhone X – 64GB,,1,,,,,,,,,,,,,,,,,,,,,,,,,,,
444285002ap0a,,2019000023,Waiting for approval,12/6/2019,Waiting for approval,Remax,Direct bank transfer,Shanmukha,Ram,srk@iipl.work,,,,,,,0,87998,2,438629001uc1a,435554002xd0a,15999,[Green] Redmi Note 8 Pro – 6GB/128GB,,1,,,,Plt no 80/B Subbodhya Colony,500072,Hyderabad,India,,,,,,,,false,false,true,20191211111212800110168979501097088,12/6/2019,183.82.111.252,Ram Shanmukha,,,,,,12/11/2019
,,,,,,,,,,,,,,,,,,,,429672001fl1a,429672002fl0a,71999,iPhone X – 64GB,,1,,,,,,,,,,,,,,,,,,,,,,,,,,,
444286001hb1a,,2019000024,Waiting for approval,12/6/2019,Waiting for approval,Remax,Direct bank transfer,Shanmukha,Ram,srk@iipl.work,,,,,,,0,15999,1,438629001uc1a,435554002xd0a,15999,[Green] Redmi Note 8 Pro – 6GB/128GB,,1,,,,"6-3-648/1, Raj Bhavan Rd, Somajiguda",500082,Hyderabad,India,,,,,,,,false,false,true,20191211111212800110168979501097088,12/6/2019,183.82.111.252,Ram Shanmukha,,,,,,12/11/2019
444286002hb0a,,2019000025,Waiting for approval,12/6/2019,Waiting for approval,Remax,Direct bank transfer,Shanmukha,Ram,srk@iipl.work,,,,,,,0,15999,1,438629001uc1a,435554002xd0a,15999,[Green] Redmi Note 8 Pro – 6GB/128GB,,1,,,,"6-3-648/1, Raj Bhavan Rd, Somajiguda",500082,Hyderabad,India,,,,,,,,false,false,true,20191211111212800110168979501097088,12/6/2019,183.82.111.252,Ram Shanmukha,,,,,,12/11/2019
444289001ee1a,,2019000026,Waiting for approval,12/6/2019,Waiting for approval,Remax,Direct bank transfer,Shanmukha RAm,M,srk@gmail.com,,,,,,,0,99900,1,431306001fx1a,431303002np0a,99900,[Black] iPhone XS Max – 64GB,,1,,,,"160/1 R no 21 Vivekanada Nagar,, Kukatpalli Near G",5000072,Hyderabad,India,,,,,,,,false,false,true,20191211111212800110168979501097088,12/6/2019,183.82.111.252,M Shanmukha RAm,,,,,,12/11/2019
444325001xo1a,,2019000027,Waiting for approval,12/6/2019,Waiting for approval,Remax,Direct bank transfer,Shanmukha,Ram,srk@iipl.work,,,,,,,0,15999,1,438629001uc1a,435554002xd0a,15999,[Green] Redmi Note 8 Pro – 6GB/128GB,,1,,,,Plt no 80/B Subbodhya Colony,500072,Hyderabad,India,,,,,,,,false,false,true,20191211111212800110168979501097088,12/6/2019,183.82.111.252,Ram Shanmukha,,,,,,12/11/2019
448523001kp1a,,2019000028,Waiting for approval,12/9/2019,Waiting for approval,Remax,Direct bank transfer,Shanmukha Ram Kuamr,Kumar,srk@iipl.work,,,,,,,0,15999,1,438629001uc1a,435554002xd0a,15999,[Green] Redmi Note 8 Pro – 6GB/128GB,,1,,,,"Dwaraka Square, Plot No.21 R no 71, Flim Nagar Jub",500033,Hyderabad,India,,,,,,,,false,false,true,20191211111212800110168979501097088,12/9/2019,183.82.111.252,Kumar Shanmukha Ram Kuamr,,,,,,12/11/2019
448565001ry1a,,2019000029,Waiting for approval,12/9/2019,Waiting for approval,Remax,Direct bank transfer,Shanmukha Ram Kuamr,Kumar,srk@iipl.work,,,,,,,0,15999,1,438629001uc1a,435554002xd0a,15999,[Green] Redmi Note 8 Pro – 6GB/128GB,,1,,,,"Dwaraka Square, Plot No.21 R no 71, Flim Nagar Jub",500033,Hyderabad,India,,,,,,,,false,false,true,20191211111212800110168979501097088,12/9/2019,183.82.111.252,Kumar Shanmukha Ram Kuamr,,,,,,12/11/2019
448638001nc1a,,2019000030,Waiting for approval,12/9/2019,Waiting for approval,Remax,Direct bank transfer,Shanmukha Ram Kuamr,Kumar,srk@iipl.work,,,,,,,0,40297,3,438629001uc1a,435554002xd0a,15999,[Green] Redmi Note 8 Pro – 6GB/128GB,,2,,,,"Dwaraka Square, Plot No.21 R no 71, Flim Nagar Jub",500033,Hyderabad,India,,,,,,,,false,false,true,20191211111212800110168979501097088,12/9/2019,183.82.111.252,Kumar Shanmukha Ram Kuamr,,,,,,12/11/2019
,,,,,,,,,,,,,,,,,,,,438606003ix1a,438570002ip0a,8299,[Blue] Redmi Y3 - 3GB/32GB,,1,,,,,,,,,,,,,,,,,,,,,,,,,,,
448643001lp1a,,2019000031,Waiting for approval,12/9/2019,Waiting for approval,Remax,Direct bank transfer,Shanmukha RAm,M,srk.@iipl.work,,,,,,,0,47997,3,438629001uc1a,435554002xd0a,15999,[Green] Redmi Note 8 Pro – 6GB/128GB,,3,,,,"160/1 R no 21 Vivekanada Nagar,, Kukatpalli Near G",5000072,Hyderabad,India,,,,,,,,false,false,true,20191211111212800110168979501097088,12/9/2019,183.82.111.252,M Shanmukha RAm,,,,,,12/11/2019
448654001hy1a,,2019000032,Waiting for approval,12/9/2019,Waiting for approval,Remax,Direct bank transfer,Shanmukha RAm,M,srk@iipl.work,,,,,,,0,31998,2,438629001uc1a,435554002xd0a,15999,[Green] Redmi Note 8 Pro – 6GB/128GB,,2,,,,"160/1 R no 21 Vivekanada Nagar,, Kukatpalli Near G",5000072,Hyderabad,India,,,,,,,,false,false,true,20191211111212800110168979501097088,12/9/2019,183.82.111.252,M Shanmukha RAm,,,,,,12/11/2019
448655001xs1a,,2019000033,Waiting for approval,12/9/2019,Waiting for approval,Remax,Direct bank transfer,Shanmukha RAm,M,srk@iipl.work,,,,,,,0,47997,3,438629001uc1a,435554002xd0a,15999,[Green] Redmi Note 8 Pro – 6GB/128GB,,3,,,,"160/1 R no 21 Vivekanada Nagar,, Kukatpalli Near G",5000072,Hyderabad,India,,,,,,,,false,false,true,20191211111212800110168979501097088,12/9/2019,183.82.111.252,M Shanmukha RAm,,,,,,12/11/2019
448657001dc1a,,2019000034,Waiting for approval,12/9/2019,Waiting for approval,Remax,Direct bank transfer,Shanmukha RAm,M,s4k@iipl.work,,,,,,,0,8299,1,438606003ix1a,438570002ip0a,8299,[Blue] Redmi Y3 - 3GB/32GB,,1,,,,"160/1 R no 21 Vivekanada Nagar,, Kukatpalli Near G",5000072,Hyderabad,India,,,,,,,,false,false,true,20191211111212800110168979501097088,12/9/2019,183.82.111.252,M Shanmukha RAm,,,,,,12/11/2019
448659001ri1a,,2019000035,Waiting for approval,12/9/2019,Waiting for approval,Remax,Direct bank transfer,Shanmukha Ram Kuamr,Kumar,srk@iipl.work,,,,,,,0,8299,1,438606003ix1a,438570002ip0a,8299,[Blue] Redmi Y3 - 3GB/32GB,,1,,,,"Dwaraka Square, Plot No.21 R no 71, Flim Nagar Jub",500033,Hyderabad,India,,,,,,,,false,false,true,20191211111212800110168979501097088,12/9/2019,183.82.111.252,Kumar Shanmukha Ram Kuamr,,,,,,12/11/2019
448683001dm1a,,2019000036,Waiting for approval,12/9/2019,Waiting for approval,Remax,Direct bank transfer,Shanmukha RAm,M,srk@iipl.work,,,,,,,0,10499,1,438570001ip1a,438570002ip0a,10499,[Blue] Redmi Y3 - 4GB/64GB,,1,,,,"160/1 R no 21 Vivekanada Nagar,, Kukatpalli Near G",5000072,Hyderabad,India,,,,,,,,false,false,true,20191211111212800110168979501097088,12/9/2019,183.82.111.252,M Shanmukha RAm,,,,,,12/11/2019
448685001ps1a,,2019000037,Waiting for approval,12/9/2019,Waiting for approval,Remax,Direct bank transfer,Shanmukha RAm,M,srk@iipl.com,,,,,,,0,10499,1,438570001ip1a,438570002ip0a,10499,[Blue] Redmi Y3 - 4GB/64GB,,1,,,,"160/1 R no 21 Vivekanada Nagar,, Kukatpalli Near G",5000072,Hyderabad,India,,,,,,,,false,false,true,20191211111212800110168979501097088,12/9/2019,183.82.111.252,M Shanmukha RAm,,,,,,12/11/2019
448689001eo1a,,2019000038,Waiting for approval,12/9/2019,Waiting for approval,Remax,Direct bank transfer,Shanmukha RAm,M,srk@iipl.work,,,,,,,0,10499,1,438570001ip1a,438570002ip0a,10499,[Blue] Redmi Y3 - 4GB/64GB,,1,,,,"160/1 R no 21 Vivekanada Nagar,, Kukatpalli Near G",5000072,Hyderabad,India,,,,,,,,false,false,true,20191211111212800110168979501097088,12/9/2019,183.82.111.252,M Shanmukha RAm,,,,,,12/11/2019
448718001ap1a,,2019000039,Waiting for approval,12/9/2019,Waiting for approval,Remax,Direct bank transfer,Surendra,Aderu,surendra0893@gmail.com,,,,,,,0,21990,1,434327001yy1a,432456002os0a,21990,[Blue] Vivo V15 Pro – 6GB/128GB,,1,,,,Hyderabad,500081,Hyderabad,India,,,,,,,,false,false,true,20191211111212800110168979501097088,12/9/2019,182.71.48.146,Aderu Surendra,,,,,,12/11/2019
449615001kl1a,444424001lo1a,2019000040,Waiting for approval,12/10/2019,Waiting for approval,Remax,Direct bank transfer,Avani,Marla,avani.j.marla@gmail.com,,,,,,,0,15990,1,432462001jw1a,432456002os0a,15990,[Blue] Vivo V15 – 6GB/64GB,,1,,,,nSBJVwrhS,500013,Hyderabad,India,,,,,,,,false,false,true,20191211111212800110168979501097088,12/10/2019,183.82.111.252,Marla Avani,,,,,,12/11/2019
449765001jo1a,444330001oh1a,2019000041,Waiting for approval,12/10/2019,Waiting for approval,Remax,Direct bank transfer,Csdcasdcsd,Csadcsda,csadcsadc@sdfgb.com,,,,,,,0,31697,3,438561001eu1a,435554002xd0a,4699,Redmi GO – 1G/16GB,,1,,,,dvfasfdv,sdvsad,vsvsadvsd,vsadvsadv,,,,,,,,false,false,true,20191211111212800110168979501097088,12/10/2019,183.82.111.252,Csadcsda Csdcasdcsd,,,,,,12/11/2019
,,,,,,,,,,,,,,,,,,,,438596001ed1a,435554002xd0a,13499,[Blue] Redmi Note 7 Pro – 6GB/128GB,,2,,,,,,,,,,,,,,,,,,,,,,,,,,,
449816001gw1a,,2019000042,Waiting for approval,12/10/2019,Waiting for approval,Remax,Direct bank transfer,Shanmukha RAm,M,srk@iipl.work,8686836269,,,,,,0,2550,1,449673001go1a,449653002jx0a,2550,Nokia - 216 DS,,1,,,,"160/1 R no 21 Vivekanada Nagar,, Kukatpalli Near G",5000072,Hyderabad,India,Shanmukha RAm,Shanmukha RAm,"160/1 R no 21 Vivekanada Nagar,, Kukatpalli Near G",5000072,,India,,false,false,true,20191211111212800110168979501097088,12/10/2019,183.82.111.252,M Shanmukha RAm,,,,,,12/11/2019
449824001it1a,444330001oh1a,2019000043,Waiting for approval,12/10/2019,Waiting for approval,Remax,Direct bank transfer,Skdjcnkj,Jnksjdnk,rakesh@iipl.work,8099592649,,,,,,0,2550,1,449673001go1a,449653002jx0a,2550,Nokia - 216 DS,,1,,,,csda,csda,csad,csda,csd,csd,csad,csad,,csd,,false,false,true,20191211111212800110168979501097088,12/10/2019,183.82.111.252,Jnksjdnk Skdjcnkj,,,,,,12/11/2019
449826001bu1a,444330001oh1a,2019000044,Waiting for approval,12/10/2019,Waiting for approval,Remax,Direct bank transfer,Cscdc,Dscsdc,cdsac@gmailc.om,8099592649,,,,,,0,2550,1,449673001go1a,449653002jx0a,2550,Nokia - 216 DS,,1,,,,vds,vds,vd,vds,vsd,vsd,sv,vsd,,vsd,,false,false,true,20191211111212800110168979501097088,12/10/2019,183.82.111.252,Dscsdc Cscdc,,,,,,12/11/2019
449848001aj1a,444330001oh1a,2019000045,Waiting for approval,12/10/2019,Waiting for approval,Remax,Direct bank transfer,Gfb,Csdc,csad@hmal.com,8099592649,,,,,,0,2550,1,449673001go1a,449653002jx0a,2550,Nokia - 216 DS,,1,,,,vsd,vsdv,vds,vsd,vsdv,vsdv,svsd,vsdv,,vsdv,,false,false,true,20191211111212800110168979501097088,12/10/2019,183.82.111.252,Csdc Gfb,,,,,,12/11/2019
449854001bn1a,444330001oh1a,2019000046,Waiting for approval,12/10/2019,Waiting for approval,Remax,Direct bank transfer,Csdc,Csad,srk@iipl.work,8686836269,,,,,,0,2550,1,449673001go1a,449653002jx0a,2550,Nokia - 216 DS,,1,,,,dfvf,vsfvsad,vsadv,vsdf,vdfv,vdfv,vsfvs,vsdv,,vsdvdsdv,,false,false,true,20191211111212800110168979501097088,12/10/2019,183.82.111.252,Csad Csdc,,,,,,12/11/2019
449865001mm1a,444330001oh1a,2019000047,Waiting for approval,12/10/2019,Waiting for approval,Remax,Direct bank transfer,Shanmukha RAm,M,srk@iipl.work,8686836269,,,,,,0,4200,4,449670001nm1a,449653002jx0a,1050,Nokia - 105 DS - 2019,,4,,,,"160/1 R no 21 Vivekanada Nagar,, Kukatpalli Near G",5000072,Hyderabad,India,Shanmukha RAm,Shanmukha RAm,"160/1 R no 21 Vivekanada Nagar,, Kukatpalli Near G",5000072,,India,,false,false,true,20191211111212800110168979501097088,12/10/2019,183.82.111.252,M Shanmukha RAm,,,,,,12/11/2019
449866001ph1a,444330001oh1a,2019000048,Waiting for approval,12/10/2019,Waiting for approval,Remax,Direct bank transfer,Shanmukha RAm,M,srk@iipl.work,8686836269,,,,,,0,2550,1,449673001go1a,449653002jx0a,2550,Nokia - 216 DS,,1,,,,"160/1 R no 21 Vivekanada Nagar,, Kukatpalli Near G",5000072,Hyderabad,India,Shanmukha RAm,Shanmukha RAm,"160/1 R no 21 Vivekanada Nagar,, Kukatpalli Near G",5000072,,India,,false,false,true,20191211111212800110168979501097088,12/10/2019,183.82.111.252,M Shanmukha RAm,,,,,,12/11/2019
449869001gi1a,444330001oh1a,2019000050,Finished,12/10/2019,Waiting for approval,Remax,Direct bank transfer,Shanmukha RAm,M,srk@iipl.work,08686836269,,,,,,0,2550,1,449673001go1a,449653002jx0a,2550,Nokia - 216 DS,,1,,,,"160/1 R no 21 Vivekanada Nagar,, Kukatpalli Near G",5000072,Hyderabad,India,Shanmukha RAm,Shanmukha RAm,"160/1 R no 21 Vivekanada Nagar,, Kukatpalli Near G",5000072,,India,08686836269,false,true,true,20191211111212800110168979501097088,12/10/2019,183.82.111.252,M Shanmukha RAm,false,Administrator,12/10/2019,12/10/2019,449869001g shanmuk ram srkiiplw,12/11/2019
,,,,12/10/2019,Finished,,,,,,,,,,,,,,,,,,,,,,,,,,,,,,,,,,,,,,,,,,,,,,,
444083001wn1a,,2019000002,Finished,12/6/2019,Waiting for approval,Remax,Direct bank transfer,Shanmukha,Ram,srk@iipl.work,,,,,,,0,99900,1,431306001fx1a,431303002np0a,99900,[Black] iPhone XS Max – 64GB,,1,,,,Plt no 80/B Subbodhya Colony,500072,Hyderabad,India,,,,,,,,false,true,true,20191211111212800110168979501097088,12/6/2019,183.82.111.252,Ram Shanmukha,false,Administrator,12/10/2019,12/10/2019,444083001w shanmuk ram srkiiplw,12/11/2019
,,,,12/10/2019,Finished,,,,,,,,,,,,,,,,,,,,,,,,,,,,,,,,,,,,,,,,,,,,,,,
449925001se1a,449912001cp1a,2019000052,Waiting for approval,12/10/2019,Waiting for approval,Remax,Direct bank transfer,Shanmukha RAm,M,nikitha@iipl.work,8686836269,,,,,,0,2550,1,449673001go1a,449653002jx0a,2550,Nokia - 216 DS,,1,,,,"160/1 R no 21 Vivekanada Nagar,, Kukatpalli Near G",5000072,Hyderabad,India,Shanmukha RAm,Shanmukha RAm,"160/1 R no 21 Vivekanada Nagar,, Kukatpalli Near G",5000072,,India,08686836269,false,false,true,20191211111212800110168979501097088,12/10/2019,183.82.111.252,M Shanmukha RAm,,,,,,12/11/2019
449868001uh1a,444330001oh1a,2019000049,Waiting for approval,12/10/2019,Waiting for approval,Remax,Direct bank transfer,Shanmukha RAm,M,srk@iipl.work,8686836269,,,,,,0,2550,1,449673001go1a,449653002jx0a,2550,Nokia - 216 DS,,1,,,,"160/1 R no 21 Vivekanada Nagar,, Kukatpalli Near G",5000072,Hyderabad,India,Shanmukha RAm,Shanmukha RAm,"160/1 R no 21 Vivekanada Nagar,, Kukatpalli Near G",5000072,Hyderabad,India,08686836269,false,false,true,20191211111212800110168979501097088,12/10/2019,183.82.111.252,M Shanmukha RAm,false,Administrator,12/10/2019,,449868001u shanmuk ram srkiiplw,12/11/2019
449985001rn1a,449912001cp1a,2019000053,Waiting for approval,12/10/2019,Waiting for approval,Remax,Direct bank transfer,Shanmukha RAm,M,nikitha@iipl.work,08686836269,,,,,,0,1050,1,449670001nm1a,449653002jx0a,1050,Nokia - 105 DS - 2019,,1,,,,"160/1 R no 21 Vivekanada Nagar,, Kukatpalli Near G",5000072,Hyderabad,India,Shanmukha RAm,Shanmukha RAm,"160/1 R no 21 Vivekanada Nagar,, Kukatpalli Near G",5000072,,India,08686836269,false,false,true,20191211111212800110168979501097088,12/10/2019,183.82.111.252,M Shanmukha RAm,,,,,,12/11/2019
450008001sg1a,,2019000054,Waiting for approval,12/10/2019,Waiting for approval,Remax,Direct bank transfer,Facebook,Google,srk@iipl.work,8686836269,,,,,,0,81960,4,434327001yy1a,432456002os0a,21990,[Blue] Vivo V15 Pro – 6GB/128GB,,3,,,,csndkjnc,kjvnfd,vjsnf,jklnkjn,jknk,jknk,vcbsjdh,hkjbjh,,jhkbjh,1234567890,false,false,true,20191211111212800110168979501097088,12/10/2019,183.82.111.252,Google Facebook,,,,,,12/11/2019
,,,,,,,,,,,,,,,,,,,,432462001jw1a,432456002os0a,15990,[Blue] Vivo V15 – 6GB/64GB,,1,,,,,,,,,,,,,,,,,,,,,,,,,,,
450010001yn1a,449912001cp1a,2019000055,Waiting for approval,12/10/2019,Waiting for approval,Remax,Direct bank transfer,Shanmukha RAm,M,nikitha@iipl.work,08686836269,,,,,,0,1050,1,449670001nm1a,449653002jx0a,1050,Nokia - 105 DS - 2019,,1,,,,"160/1 R no 21 Vivekanada Nagar,, Kukatpalli Near G",5000072,Hyderabad,India,Shanmukha RAm,Shanmukha RAm,"160/1 R no 21 Vivekanada Nagar,, Kukatpalli Near G",5000072,,India,08686836269,false,false,true,20191211111212800110168979501097088,12/10/2019,183.82.111.252,M Shanmukha RAm,,,,,,12/11/2019
450011001ma1a,449912001cp1a,2019000056,Waiting for approval,12/10/2019,Waiting for approval,Remax,Direct bank transfer,Shanmukha RAm,M,nikitha@iipl.app,9100165272,,,,,,0,1050,1,449663001de1a,449653002jx0a,1050,Nokia - 105 SS - 2019,,1,,,,"160/1 R no 21 Vivekanada Nagar,, Kukatpalli Near G",5000072,Hyderabad,India,Shanmukha RAm,Shanmukha RAm,"160/1 R no 21 Vivekanada Nagar,, Kukatpalli Near G",5000072,,India,08686836269,false,false,true,20191211111212800110168979501097088,12/10/2019,183.82.111.252,M Shanmukha RAm,,,,,,12/11/2019
450042001sm1a,,2019000057,Waiting for approval,12/10/2019,Waiting for approval,Remax,Direct bank transfer,Gfgfd,Hgchg,iipl@ipl.com,9090909090,,,,,,0,1050,1,449670001nm1a,449653002jx0a,1050,Nokia - 105 DS - 2019,,1,,,,hgf,500033,Hyderabad,India,hgcghg,hgcghg,hjvj,500033,,India,9090909090,false,false,true,20191211111212800110168979501097088,12/10/2019,183.82.111.252,Hgchg Gfgfd,,,,,,12/11/2019
451130001oe1a,,2019000058,Waiting for approval,12/11/2019,Waiting for approval,Remax,Direct bank transfer,Bhagat,Marla,bhagat@redmattertech.com,9000247654,,,,,,0,21990,1,434327001yy1a,432456002os0a,21990,[Blue] Vivo V15 Pro – 6GB/128GB,,1,,,,"1401, Topaz, My Ho,e Jewel",500050,Hyderabad,India,Bhagat,Bhagat,"1401, Topaz, My Home Jewel",500050,,India,9000247654,false,false,true,20191211111212800110168979501097088,12/11/2019,183.82.111.252,Marla Bhagat,,,,,,12/11/2019
451134001rt1a,444424001lo1a,2019000059,Waiting for approval,12/11/2019,Waiting for approval,Remax,Direct bank transfer,Avani,Marla,avani@redmttertech.com,9959892789,,,,,,0,1050,1,449670001nm1a,449653002jx0a,1050,Nokia - 105 DS - 2019,,1,,,,2,500013,Hyderabad,India,Avani,Avani,2,500013,,India,9959892789,false,false,true,20191211111212800110168979501097088,12/11/2019,183.82.111.252,Marla Avani,,,,,,12/11/2019
451231001wf1a,444330001oh1a,2019000061,Waiting for approval,12/11/2019,Waiting for approval,Remax,Direct bank transfer,Shanmukha,Ram,srk@iipl.work,8686836269,,,,,,0,1050,1,449670001nm1a,449653002jx0a,1050,Nokia - 105 DS - 2019,,1,,,,Plt no 80/B Subbodhya Colony,500072,Hyderabad,India,Shanmukha,Shanmukha,"6-3-648/1, Raj Bhavan Rd, Somajiguda",500082,,India,09030013020,false,false,true,20191211111212800110168979501097088,12/11/2019,183.82.111.252,Ram Shanmukha,,,,,,12/11/2019
451271001cl1a,444330001oh1a,2019000062,Waiting for approval,12/11/2019,Waiting for approval,Remax,Direct bank transfer,Shanmukha,Ram,srk@iipl.work,8686836269,,,,,,0,15990,1,432462001jw1a,432456002os0a,15990,[Blue] Vivo V15 – 6GB/64GB,,1,,,,Plt no 80/B Subbodhya Colony,500072,Hyderabad,India,Shanmukha,Shanmukha,Plt no 80/B Subbodhya Colony,500072,,,8686836269,false,false,true,20191211111212800110168979501097088,12/11/2019,183.82.111.252,Ram Shanmukha,,,,,,12/11/2019
451271002cl0a,444330001oh1a,2019000063,Waiting for approval,12/11/2019,Waiting for approval,Remax,Direct bank transfer,Shanmukha,Ram,srk@iipl.work,8686836269,,,,,,0,15990,1,432462001jw1a,432456002os0a,15990,[Blue] Vivo V15 – 6GB/64GB,,1,,,,Plt no 80/B Subbodhya Colony,500072,Hyderabad,India,Shanmukha,Shanmukha,Plt no 80/B Subbodhya Colony,500072,,,8686836269,false,false,true,20191211111212800110168979501097088,12/11/2019,183.82.111.252,Ram Shanmukha,,,,,,12/11/2019
451272001ay1a,444330001oh1a,2019000064,Waiting for approval,12/11/2019,Waiting for approval,Remax,Direct bank transfer,Shanmukha,Ram,srk@iipl.work,8686836269,,,,,,0,15990,1,432462001jw1a,432456002os0a,15990,[Blue] Vivo V15 – 6GB/64GB,,1,,,,Plt no 80/B Subbodhya Colony,500072,Hyderabad,India,Shanmukha,Shanmukha,Plt no 80/B Subbodhya Colony,500072,,India,8686836269,false,false,true,20191211111212800110168979501097088,12/11/2019,183.82.111.252,Ram Shanmukha,,,,,,12/11/2019
451273001hw1a,444330001oh1a,2019000065,Waiting for approval,12/11/2019,Waiting for approval,Remax,Direct bank transfer,Shanmukha,Ram,srk@iipl.work,8686836269,,,,,,0,21990,1,434327001yy1a,432456002os0a,21990,[Blue] Vivo V15 Pro – 6GB/128GB,,1,,,,Plt no 80/B Subbodhya Colony,500072,Hyderabad,India,Shanmukha,Shanmukha,Plt no 80/B Subbodhya Colony,500072,,India,8686836269,false,false,true,20191211111212800110168979501097088,12/11/2019,183.82.111.252,Ram Shanmukha,,,,,,12/11/2019
451341001ka1a,,2019000066,Waiting for approval,12/11/2019,Waiting for approval,Remax,Direct bank transfer,Shanmukha Ram Kuamr,Kumar,srk@iipl.work,8686836269,,,,,,0,1050,1,449663001de1a,449653002jx0a,1050,Nokia - 105 SS - 2019,,1,,,,"Dwaraka Square, Plot No.21 R no 71, Flim Nagar Jub",500033,Hyderabad,India,Shanmukha Ram Kuamr,Shanmukha Ram Kuamr,"Dwaraka Square, Plot No.21 R no 71, Flim Nagar Jub",500033,,India,08686836269,false,false,true,20191211111212800110168979501097088,12/11/2019,183.82.111.252,Kumar Shanmukha Ram Kuamr,,,,,,12/11/2019
451348001dk1a,,2019000067,Waiting for approval,12/11/2019,Waiting for approval,Remax,Direct bank transfer,Shanmukha Ram Kuamr,Kumar,srk@iipl.work,08686836269,,,,,,0,23499,1,438567001lh1a,435554002xd0a,23499,[Blue] Redmi K20 – 6GB-128GB,,1,,,,"Dwaraka Square, Plot No.21 R no 71, Flim Nagar Jub",500033,Hyderabad,India,Shanmukha Ram Kuamr,Shanmukha Ram Kuamr,"Dwaraka Square, Plot No.21 R no 71, Flim Nagar Jub",500033,,India,08686836269,false,false,true,20191211111212800110168979501097088,12/11/2019,183.82.111.252,Kumar Shanmukha Ram Kuamr,,,,,,12/11/2019
451350001ah1a,,2019000068,Waiting for approval,12/11/2019,Waiting for approval,Remax,Direct bank transfer,Shanmukha Ram Kuamr,M,srk@iipl.work,08686836269,,,,,,0,23499,1,438567001lh1a,435554002xd0a,23499,[Blue] Redmi K20 – 6GB-128GB,,1,,,,"Dwaraka Square, Plot No.21 R no 71, Flim Nagar Jub",500033,Hyderabad,India,Shanmukha Ram Kuamr,Shanmukha Ram Kuamr,"Dwaraka Square, Plot No.21 R no 71, Flim Nagar Jub",500033,,India,08686836269,false,false,true,20191211111212800110168822901087010,12/11/2019,183.82.111.252,M Shanmukha Ram Kuamr,,,,,,12/11/2019
451352001lj1a,,2019000069,Waiting for approval,12/11/2019,Waiting for approval,Remax,Direct bank transfer,Shanmukha Ram Kuamr,Kumar,srk@iipl.work,08686836269,,,,,,0,23499,1,438567001lh1a,435554002xd0a,23499,[Blue] Redmi K20 – 6GB-128GB,,1,,,,"Dwaraka Square, Plot No.21 R no 71, Flim Nagar Jub",500033,Hyderabad,India,Shanmukha Ram Kuamr,Shanmukha Ram Kuamr,"Dwaraka Square, Plot No.21 R no 71, Flim Nagar Jub",500033,,India,08686836269,false,false,true,20191211111212800110168798801091770,12/11/2019,183.82.111.252,Kumar Shanmukha Ram Kuamr,,,,,,12/11/2019
451352002lj0a,,2019000070,Goods sent,12/11/2019,Waiting for approval,Remax,Direct bank transfer,Shanmukha Ram Kuamr,Kumar,srk@iipl.work,08686836269,Please contact 12313124,,,,123456789,0,23499,1,438567001lh1a,435554002xd0a,23499,[Blue] Redmi K20 – 6GB-128GB,,1,,,,"Dwaraka Square, Plot No.21 R no 71, Flim Nagar Jub",500033,Hyderabad,India,Shanmukha Ram Kuamr,Shanmukha Ram Kuamr,"Dwaraka Square, Plot No.21 R no 71, Flim Nagar Jub",500033,,India,08686836269,false,true,true,,12/11/2019,183.82.111.252,Kumar Shanmukha Ram Kuamr,false,Administrator,12/11/2019,12/11/2019,451352002l shanmuk ram kuam kuma srkiiplw,12/11/2019
,,,,12/11/2019,Finished,,,,,,,,,,,,,,,,,,,,,,,,,,,,,,,,,,,,,,,,,,,,,,,
,,,,12/11/2019,Goods sent,,,,,,,,,,,,,,,,,,,,,,,,,,,,,,,,,,,,,,,,,,,,,,,
454128001pb1a,454127001mh1a,2019000071,Waiting for approval,12/13/2019,Waiting for approval,Remax,Direct bank transfer,Bhagat,Marla,bhagat@redmattertech.com,9000247654,,,,,,0,21990,1,434327001yy1a,432456002os0a,21990,[Blue] Vivo V15 Pro – 6GB/128GB,,1,,,,"1401, Topaz",500050,Hyderabad,India,Bhagat,Bhagat,My Home Jewel,500033,,India,9000247654,false,false,false,,12/13/2019,183.82.111.252,Marla Bhagat,,,,,,
461399001pw1a,,2019000073,Waiting for approval,12/18/2019,Waiting for approval,Remax,Direct bank transfer,Shanmukha,Ram,srk@iipl.work,8686836269,,,,,,0,47399,1,431252001tu1a,431047002hp0a,47399,iPhone XR – 64GB,,1,,,,Plt no 80/B Subbodhya Colony,500072,Hyderabad,India,Shanmukha,Shanmukha,"6-3-648/1, Raj Bhavan Rd, Somajiguda",500082,,India,09030013020,false,false,false,,12/18/2019,183.82.111.252,Ram Shanmukha,,,,,,
461285001di1a,,2019000072,Waiting for approval,12/18/2019,Waiting for approval,Remax,Direct bank transfer,Shanmukha,Ram,srk@iipl.work,8686836269,,,,,,0,27837,5,449663001de1a,449653002jx0a,1050,Nokia - 105 SS - 2019,,1,,,,Plt no 80/B Subbodhya Colony,500072,Hyderabad,India,Shanmukha,Shanmukha,Plt no 80/B Subbodhya Colony,500072,,India,8686836269,false,false,true,pay_DtcZEHYIjSYcvc,12/18/2019,183.82.111.252,Ram Shanmukha,,,,,,12/18/2019
,,,,,,,,,,,,,,,,,,,,449661001bm1a,449653002jx0a,1599,Nokia - 110 DS,,3,,,,,,,,,,,,,,,,,,,,,,,,,,,
,,,,,,,,,,,,,,,,,,,,434327001yy1a,432456002os0a,21990,[Blue] Vivo V15 Pro – 6GB/128GB,,1,,,,,,,,,,,,,,,,,,,,,,,,,,,
462906001fp1a,448233001ek1a,2019000074,Canceled,12/19/2019,Waiting for approval,Remax,Direct bank transfer,Surendra,Aderu,developer@happimobiles.com,7993418666,,,,,,0,6990,1,435527001pk1a,435360002gb0a,6990,[Black] Vivo Y91i – 2GB/32GB,,1,,,,"Ayyappa Society, Chanda Naik Nagar, Madhapur",500081,Hyderabad,India,Surendra,Surendra,"Ayyappa Society, Chanda Naik Nagar, Madhapur",500081,,India,7993418666,false,true,false,,12/19/2019,182.71.48.146,Aderu Surendra,false,Administrator,12/19/2019,12/19/2019,462906001f surend ader developerhappimobil,
,,,,12/19/2019,Canceled,,,,,,,,,,,,,,,,,,,,,,,,,,,,,,,,,,,,,,,,,,,,,,,
464358001tc1a,,2019000075,Waiting for approval,12/20/2019,Waiting for approval,Remax,Direct bank transfer,Avani,Nbjhbj,nklnjk@gmail.com,9959892789,,,,,,0,139999,1,431305001lm1a,431303002np0a,139999,iPhone XS Max – 512GB,,1,,,,"14-16/2,vhjvgvghv",500013,hyderabad,india,"m,nnj","m,nnj","m,nlhjftydrtxgfb",500013,,india,9959892789,false,false,false,,12/20/2019,183.82.111.252,Nbjhbj Avani,,,,,,
464490001yb1a,444330001oh1a,2019000076,Waiting for approval,12/20/2019,Waiting for approval,Remax,Direct bank transfer,Shanmukha,Ram,srk@iipl.work,09030013020,,,,,,0,1050,1,449663001de1a,449653002jx0a,1050,Nokia - 105 SS - 2019,,1,,,,"6-3-648/1, Raj Bhavan Rd, Somajiguda",500082,Hyderabad,India,Shanmukha,Shanmukha,"6-3-648/1, Raj Bhavan Rd, Somajiguda",500082,,India,09030013020,false,false,false,,12/20/2019,183.82.111.252,Ram Shanmukha,,,,,,
465627001tk1a,,2019000077,Waiting for approval,12/21/2019,Waiting for approval,Remax,Direct bank transfer,Shanmuk,Ghbb,srk@iipl.work,,,,,,,0,1050,1,449663001de1a,449653002jx0a,1050,Nokia - 105 SS - 2019,,1,,,,g,Fv,Hhbh,Ghh,Ghh,Ghh,Ggh,Vh,,Vbh,,false,false,false,,12/21/2019,183.82.111.252,Ghbb Shanmuk,,,,,,
474181001ku1a,,2019000078,Waiting for approval,12/27/2019,Waiting for approval,Remax,Direct bank transfer,Test,Test,sowjinaidu44@gmail.com,,,,,,,0,263800,2,431157001iu1a,431152002ax0a,131900,iPHONE 11PRO 512GB,,2,,,,66+56+9,326+52+,323263+,231326+,fsedrgedrhfgt,fsedrgedrhfgt,fghbhbh,hnbfgnhbfg,,gfhbghb,,false,false,false,,12/27/2019,182.71.48.146,Test Test,,,,,,
474228001nd1a,,2019000079,Waiting for approval,12/27/2019,Waiting for approval,Remax,Direct bank transfer,Gfdgc,Gfdgfdg,sowjinaidu44@gmail.com,,,,,,,0,21990,1,434327001yy1a,432456002os0a,21990,[Blue] Vivo V15 Pro – 6GB/128GB,,1,,,,fdgfdgdf,fdgfdgfd,dfgfdgfd,fdggfdgfd,fdgfdgbfd,fdgfdgbfd,fdgfdgfd,fdgfdgdf,,dgfdgfdgd,,false,false,false,,12/27/2019,182.71.48.146,Gfdgfdg Gfdgc,,,,,,
474389001ja1a,,2019000080,Waiting for approval,12/27/2019,Waiting for approval,Remax,Direct bank transfer,Oihuo,Kh,yfutdt@gmail.com,,,,,,,0,10499,1,438617001fr1a,435554002xd0a,10499,[Blue] Redmi Note 7s – 4GB/64GB,,1,,,,kgukg,500081,hyderabad,india,,,,,,,,false,false,false,,12/27/2019,183.82.126.113,Kh Oihuo,,,,,,
474517001lr1a,,2019000081,Waiting for approval,12/27/2019,Waiting for approval,Remax,Direct bank transfer,Shanmukha RAm,M,srk@iipl.work,08686836269,,,,,,0,21990,1,434327001yy1a,432456002os0a,21990,[Blue] Vivo V15 Pro – 6GB/128GB,,1,,,,"160/1 R no 21 Vivekanada Nagar,, Kukatpalli Near G",5000072,Hyderabad,India,,,,,,,,false,false,false,,12/27/2019,183.82.111.252,M Shanmukha RAm,,,,,,
478632001gh1a,,2019000082,Waiting for approval,12/30/2019,Waiting for approval,Remax,Direct bank transfer,Sagasg,Sfhga`,sdgdfas@gmail.com,,,,,,,0,3697,3,478604001pd1a,478575002ed0a,1699,JBL T290 (In Ear) Handsfree,,1,,,,sdga`,fsdhad`dsfhdsf,fdsfhs,vfdhnsdf,dfshsd,dfshsd,fgdh,fdsh,,sdhfg,,false,false,false,,12/30/2019,182.71.48.146,Sfhga` Sagasg,,,,,,
,,,,,,,,,,,,,,,,,,,,478620001yx1a,478575002ed0a,999,JBL T110 (In Ear) Handsfree,,2,,,,,,,,,,,,,,,,,,,,,,,,,,,
479984001fd1a,444330001oh1a,2019000083,Waiting for approval,12/31/2019,Waiting for approval,Remax,Direct bank transfer,Shanmukha,Ram,srk@iipl.work,09030013020,,,,,,0,50000,1,431305001lm1a,431303002np0a,50000,iPhone XS Max – 512GB,,1,,,,"6-3-648/1, Raj Bhavan Rd, Somajiguda",500082,Hyderabad,India,,,,,,,,false,false,false,,12/31/2019,183.82.111.252,Ram Shanmukha,,,,,,
480011001jj1a,444330001oh1a,2019000084,Waiting for approval,12/31/2019,Waiting for approval,Remax,Direct bank transfer,Shanmukha,Ram,srk@iipl.work,09030013020,,,,,,0,165990,4,432462001jw1a,432456002os0a,15990,[Blue] Vivo V15 – 6GB|64GB,,1,,,,"6-3-648/1, Raj Bhavan Rd, Somajiguda",500082,Hyderabad,India,Shanmukha,Shanmukha,"6-3-648/1, Raj Bhavan Rd, Somajiguda",500082,,India,09030013020,false,false,false,,12/31/2019,183.82.111.252,Ram Shanmukha,,,,,,
,,,,,,,,,,,,,,,,,,,,431305001lm1a,431303002np0a,50000,iPhone XS Max – 512GB,,3,,,,,,,,,,,,,,,,,,,,,,,,,,,
480029001mm1a,479987001ko1a,2019000085,Waiting for approval,12/31/2019,Waiting for approval,Remax,Direct bank transfer,Prasanthi,A,testivory1@gmail.com,,,,,,,0,1050,1,449663001de1a,449653002jx0a,1050,Nokia - 105 SS - 2019,,1,,,,Film nagar,500033,Hyderabad,India,Prasanthi,Prasanthi,Film nagar,500033,,India,,false,false,false,,12/31/2019,183.82.111.252,A Prasanthi,,,,,,
480088001bg1a,444330001oh1a,2019000086,Waiting for approval,12/31/2019,Waiting for approval,Remax,Direct bank transfer,Shanmukha,Ram,srk@iipl.work,09030013020,,,,,,0,21990,1,434327001yy1a,432456002os0a,21990,[Blue] Vivo V15 Pro – 6GB/128GB,,1,,,,"6-3-648/1, Raj Bhavan Rd, Somajiguda",500082,Hyderabad,India,Shanmukha,Shanmukha,"6-3-648/1, Raj Bhavan Rd, Somajiguda",500082,,India,09030013020,false,false,false,,12/31/2019,183.82.111.252,Ram Shanmukha,,,,,,
480153001eb1a,444330001oh1a,2019000087,Waiting for approval,12/31/2019,Waiting for approval,Remax,Direct bank transfer,Shanmukha,Ram,srk@iipl.work,09030013020,,,,,,0,1050,1,449663001de1a,449653002jx0a,1050,Nokia - 105 SS - 2019,,1,,,,"6-3-648/1, Raj Bhavan Rd, Somajiguda",500082,Hyderabad,India,,,,,,,,false,false,false,,12/31/2019,183.82.111.252,Ram Shanmukha,,,,,,
480159001to1a,448233001ek1a,2019000088,Waiting for approval,12/31/2019,Waiting for approval,Remax,Direct bank transfer,Surendra,Aderu,developer@happimobiles.com,7993418666,,,,,,0,799,1,478614001un1a,478575002ed0a,799,JBL T50(In Ear) Handsfree,,1,,,,"Ayyappa Society, Chanda Naik Nagar, Madhapur",500081,Hyderabad,India,Surendra,Surendra,"Ayyappa Society, Chanda Naik Nagar, Madhapur",500081,,India,7993418666,false,false,false,,12/31/2019,182.71.48.146,Aderu Surendra,,,,,,
480172001wd1a,479987001ko1a,2019000089,Waiting for approval,12/31/2019,Waiting for approval,Remax,Direct bank transfer,Prasanthi,A,testivory1@gmail.com,,,,,,,0,50000,1,431305001lm1a,431303002np0a,50000,iPhone XS Max – 512GB,,1,,,,Film nagar,500033,Hyderabad,India,Prasanthi,Prasanthi,Film nagar,500033,,India,,false,false,false,,12/31/2019,183.82.111.252,A Prasanthi,,,,,,
483152001ic1a,444330001oh1a,2020000002,Waiting for approval,1/2/2020,Waiting for approval,Remax,Direct bank transfer,Shanmukha,Ram,srk@iipl.work,,,,,,,0,58479,3,432462001jw1a,432456002os0a,15990,[Blue] Vivo V15 – 6GB|64GB,,1,,,,"6-3-648/1, Raj Bhavan Rd, Somajiguda",500082,Hyderabad,India,Shanmukha,Shanmukha,"6-3-648/1, Raj Bhavan Rd, Somajiguda",500082,,India,09030013020,false,false,false,,1/2/2020,183.82.111.252,Ram Shanmukha,,,,,,
,,,,,,,,,,,,,,,,,,,,434327001yy1a,432456002os0a,21990,[Blue] Vivo V15 Pro – 6GB/128GB,,1,,,,,,,,,,,,,,,,,,,,,,,,,,,
,,,,,,,,,,,,,,,,,,,,438566001jx1a,435554002xd0a,20499,[Blue] Redmi K20 – 6GB/64GB,,1,,,,,,,,,,,,,,,,,,,,,,,,,,,
483152002ic0a,444330001oh1a,2020000003,Waiting for approval,1/2/2020,Waiting for approval,Remax,Direct bank transfer,Shanmukha,Ram,srk@iipl.work,,,,,,,0,58479,3,432462001jw1a,432456002os0a,15990,[Blue] Vivo V15 – 6GB|64GB,,1,,,,"6-3-648/1, Raj Bhavan Rd, Somajiguda",500082,Hyderabad,India,Shanmukha,Shanmukha,"6-3-648/1, Raj Bhavan Rd, Somajiguda",500082,,India,09030013020,false,false,false,,1/2/2020,183.82.111.252,Ram Shanmukha,,,,,,
,,,,,,,,,,,,,,,,,,,,434327001yy1a,432456002os0a,21990,[Blue] Vivo V15 Pro – 6GB/128GB,,1,,,,,,,,,,,,,,,,,,,,,,,,,,,
,,,,,,,,,,,,,,,,,,,,438566001jx1a,435554002xd0a,20499,[Blue] Redmi K20 – 6GB/64GB,,1,,,,,,,,,,,,,,,,,,,,,,,,,,,
483153001xr1a,444330001oh1a,2020000004,Waiting for approval,1/2/2020,Waiting for approval,Remax,Direct bank transfer,Shanmukha,Ram,srk@iipl.work,9492910439,,,,,,0,58479,3,432462001jw1a,432456002os0a,15990,[Blue] Vivo V15 – 6GB|64GB,,1,,,,"6-3-648/1, Raj Bhavan Rd, Somajiguda",500082,Hyderabad,India,Shanmukha,Shanmukha,"6-3-648/1, Raj Bhavan Rd, Somajiguda",500082,,India,09030013020,false,false,false,,1/2/2020,183.82.111.252,Ram Shanmukha,,,,,,
,,,,,,,,,,,,,,,,,,,,434327001yy1a,432456002os0a,21990,[Blue] Vivo V15 Pro – 6GB/128GB,,1,,,,,,,,,,,,,,,,,,,,,,,,,,,
,,,,,,,,,,,,,,,,,,,,438566001jx1a,435554002xd0a,20499,[Blue] Redmi K20 – 6GB/64GB,,1,,,,,,,,,,,,,,,,,,,,,,,,,,,
483153002xr0a,444330001oh1a,2020000005,Waiting for approval,1/2/2020,Waiting for approval,Remax,Direct bank transfer,Shanmukha,Ram,srk@iipl.work,9492910439,,,,,,0,58479,3,432462001jw1a,432456002os0a,15990,[Blue] Vivo V15 – 6GB|64GB,,1,,,,"6-3-648/1, Raj Bhavan Rd, Somajiguda",500082,Hyderabad,India,Shanmukha,Shanmukha,"6-3-648/1, Raj Bhavan Rd, Somajiguda",500082,,India,09030013020,false,false,false,,1/2/2020,183.82.111.252,Ram Shanmukha,,,,,,
,,,,,,,,,,,,,,,,,,,,434327001yy1a,432456002os0a,21990,[Blue] Vivo V15 Pro – 6GB/128GB,,1,,,,,,,,,,,,,,,,,,,,,,,,,,,
,,,,,,,,,,,,,,,,,,,,438566001jx1a,435554002xd0a,20499,[Blue] Redmi K20 – 6GB/64GB,,1,,,,,,,,,,,,,,,,,,,,,,,,,,,
483153003xr1a,444330001oh1a,2020000006,Waiting for approval,1/2/2020,Waiting for approval,Remax,Direct bank transfer,Shanmukha,Ram,srk@iipl.work,9492910439,,,,,,0,58479,3,432462001jw1a,432456002os0a,15990,[Blue] Vivo V15 – 6GB|64GB,,1,,,,"6-3-648/1, Raj Bhavan Rd, Somajiguda",500082,Hyderabad,India,Shanmukha,Shanmukha,"6-3-648/1, Raj Bhavan Rd, Somajiguda",500082,,India,09030013020,false,false,false,,1/2/2020,183.82.111.252,Ram Shanmukha,,,,,,
,,,,,,,,,,,,,,,,,,,,434327001yy1a,432456002os0a,21990,[Blue] Vivo V15 Pro – 6GB/128GB,,1,,,,,,,,,,,,,,,,,,,,,,,,,,,
,,,,,,,,,,,,,,,,,,,,438566001jx1a,435554002xd0a,20499,[Blue] Redmi K20 – 6GB/64GB,,1,,,,,,,,,,,,,,,,,,,,,,,,,,,
483153004xr0a,444330001oh1a,2020000007,Waiting for approval,1/2/2020,Waiting for approval,Remax,Direct bank transfer,Shanmukha,Ram,srk@iipl.work,9492910439,,,,,,0,58479,3,432462001jw1a,432456002os0a,15990,[Blue] Vivo V15 – 6GB|64GB,,1,,,,"6-3-648/1, Raj Bhavan Rd, Somajiguda",500082,Hyderabad,India,Shanmukha,Shanmukha,"6-3-648/1, Raj Bhavan Rd, Somajiguda",500082,,India,09030013020,false,false,false,,1/2/2020,183.82.111.252,Ram Shanmukha,,,,,,
,,,,,,,,,,,,,,,,,,,,434327001yy1a,432456002os0a,21990,[Blue] Vivo V15 Pro – 6GB/128GB,,1,,,,,,,,,,,,,,,,,,,,,,,,,,,
,,,,,,,,,,,,,,,,,,,,438566001jx1a,435554002xd0a,20499,[Blue] Redmi K20 – 6GB/64GB,,1,,,,,,,,,,,,,,,,,,,,,,,,,,,
483153005xr1a,444330001oh1a,2020000008,Waiting for approval,1/2/2020,Waiting for approval,Remax,Direct bank transfer,Shanmukha,Ram,srk@iipl.work,9492910439,,,,,,0,58479,3,432462001jw1a,432456002os0a,15990,[Blue] Vivo V15 – 6GB|64GB,,1,,,,"6-3-648/1, Raj Bhavan Rd, Somajiguda",500082,Hyderabad,India,Shanmukha,Shanmukha,"6-3-648/1, Raj Bhavan Rd, Somajiguda",500082,,India,09030013020,false,false,false,,1/2/2020,183.82.111.252,Ram Shanmukha,,,,,,
,,,,,,,,,,,,,,,,,,,,434327001yy1a,432456002os0a,21990,[Blue] Vivo V15 Pro – 6GB/128GB,,1,,,,,,,,,,,,,,,,,,,,,,,,,,,
,,,,,,,,,,,,,,,,,,,,438566001jx1a,435554002xd0a,20499,[Blue] Redmi K20 – 6GB/64GB,,1,,,,,,,,,,,,,,,,,,,,,,,,,,,
483153006xr0a,444330001oh1a,2020000009,Waiting for approval,1/2/2020,Waiting for approval,Remax,Direct bank transfer,Shanmukha,Ram,srk@iipl.work,9492910439,,,,,,0,58479,3,432462001jw1a,432456002os0a,15990,[Blue] Vivo V15 – 6GB|64GB,,1,,,,"6-3-648/1, Raj Bhavan Rd, Somajiguda",500082,Hyderabad,India,Shanmukha,Shanmukha,"6-3-648/1, Raj Bhavan Rd, Somajiguda",500082,,India,09030013020,false,false,false,,1/2/2020,183.82.111.252,Ram Shanmukha,,,,,,
,,,,,,,,,,,,,,,,,,,,434327001yy1a,432456002os0a,21990,[Blue] Vivo V15 Pro – 6GB/128GB,,1,,,,,,,,,,,,,,,,,,,,,,,,,,,
,,,,,,,,,,,,,,,,,,,,438566001jx1a,435554002xd0a,20499,[Blue] Redmi K20 – 6GB/64GB,,1,,,,,,,,,,,,,,,,,,,,,,,,,,,
483154001ld1a,444330001oh1a,2020000010,Waiting for approval,1/2/2020,Waiting for approval,Remax,Direct bank transfer,Shanmukha,Ram,srk@iipl.work,9492910439,,,,,,0,50000,1,431305001lm1a,431303002np0a,50000,iPhone XS Max – 512GB,,1,,,,"6-3-648/1, Raj Bhavan Rd, Somajiguda",500082,Hyderabad,India,Shanmukha,Shanmukha,"6-3-648/1, Raj Bhavan Rd, Somajiguda",500082,,India,9492910439,false,false,false,,1/2/2020,183.82.111.252,Ram Shanmukha,,,,,,
483154002ld0a,444330001oh1a,2020000011,Waiting for approval,1/2/2020,Waiting for approval,Remax,Direct bank transfer,Shanmukha,Ram,srk@iipl.work,9492910439,,,,,,0,50000,1,431305001lm1a,431303002np0a,50000,iPhone XS Max – 512GB,,1,,,,"6-3-648/1, Raj Bhavan Rd, Somajiguda",500082,Hyderabad,India,Shanmukha,Shanmukha,"6-3-648/1, Raj Bhavan Rd, Somajiguda",500082,,India,9492910439,false,false,false,,1/2/2020,183.82.111.252,Ram Shanmukha,,,,,,
483155001dk1a,444330001oh1a,2020000012,Waiting for approval,1/2/2020,Waiting for approval,Remax,Direct bank transfer,Shanmukha,Ram,srk@iipl.work,9492910439,,,,,,0,50000,1,431305001lm1a,431303002np0a,50000,iPhone XS Max – 512GB,,1,,,,"6-3-648/1, Raj Bhavan Rd, Somajiguda",500082,Hyderabad,India,Shanmukha,Shanmukha,"6-3-648/1, Raj Bhavan Rd, Somajiguda",500082,,India,9492910439,false,false,false,,1/2/2020,183.82.111.252,Ram Shanmukha,,,,,,
484130001oc1a,454127001mh1a,2020000013,Waiting for approval,1/3/2020,Waiting for approval,Remax,Direct bank transfer,Bhagat,Marla,bhagat@redmattertech.com,9000247654,,,,,,0,15990,1,432462001jw1a,432456002os0a,15990,[Blue] Vivo V15 – 6GB|64GB,,1,,,,"1401, Topaz",500050,Hyderabad,India,,,,,,,,false,false,false,,1/3/2020,183.82.111.252,Marla Bhagat,,,,,,
484389001xb1a,448233001ek1a,2020000014,Waiting for approval,1/3/2020,Waiting for approval,Remax,Direct bank transfer,Surendra,Aderu,developer@happimobiles.com,7993418666,,,,,,0,120890,2,435527001pk1a,435360002gb0a,6990,[Black] Vivo Y91i – 2GB/32GB,,1,,,,"Ayyappa Society, Chanda Naik Nagar, Madhapur",500081,Hyderabad,India,Surendra,Surendra,"Ayyappa Society, Chanda Naik Nagar, Madhapur",500081,,India,7993418666,false,false,false,,1/3/2020,182.71.48.146,Aderu Surendra,,,,,,
,,,,,,,,,,,,,,,,,,,,431303001np1a,431303002np0a,113900,iPhone XS Max – 256GB,,1,,,,,,,,,,,,,,,,,,,,,,,,,,,
484389002xb0a,448233001ek1a,2020000015,Waiting for approval,1/3/2020,Waiting for approval,Remax,Direct bank transfer,Surendra,Aderu,developer@happimobiles.com,7993418666,,,,,,0,120890,2,435527001pk1a,435360002gb0a,6990,[Black] Vivo Y91i – 2GB/32GB,,1,,,,"Ayyappa Society, Chanda Naik Nagar, Madhapur",500081,Hyderabad,India,Surendra,Surendra,"Ayyappa Society, Chanda Naik Nagar, Madhapur",500081,,India,7993418666,false,false,false,,1/3/2020,182.71.48.146,Aderu Surendra,,,,,,
,,,,,,,,,,,,,,,,,,,,431303001np1a,431303002np0a,113900,iPhone XS Max – 256GB,,1,,,,,,,,,,,,,,,,,,,,,,,,,,,
484389003xb1a,448233001ek1a,2020000016,Waiting for approval,1/3/2020,Waiting for approval,Remax,Direct bank transfer,Surendra,Aderu,developer@happimobiles.com,7993418666,,,,,,0,120890,2,435527001pk1a,435360002gb0a,6990,[Black] Vivo Y91i – 2GB/32GB,,1,,,,"Ayyappa Society, Chanda Naik Nagar, Madhapur",500081,Hyderabad,India,Surendra,Surendra,"Ayyappa Society, Chanda Naik Nagar, Madhapur",500081,,India,7993418666,false,false,false,,1/3/2020,182.71.48.146,Aderu Surendra,,,,,,
,,,,,,,,,,,,,,,,,,,,431303001np1a,431303002np0a,113900,iPhone XS Max – 256GB,,1,,,,,,,,,,,,,,,,,,,,,,,,,,,
484389004xb0a,448233001ek1a,2020000017,Waiting for approval,1/3/2020,Waiting for approval,Remax,Direct bank transfer,Surendra,Aderu,developer@happimobiles.com,7993418666,,,,,,0,120890,2,435527001pk1a,435360002gb0a,6990,[Black] Vivo Y91i – 2GB/32GB,,1,,,,"Ayyappa Society, Chanda Naik Nagar, Madhapur",500081,Hyderabad,India,Surendra,Surendra,"Ayyappa Society, Chanda Naik Nagar, Madhapur",500081,,India,7993418666,false,false,false,,1/3/2020,182.71.48.146,Aderu Surendra,,,,,,
,,,,,,,,,,,,,,,,,,,,431303001np1a,431303002np0a,113900,iPhone XS Max – 256GB,,1,,,,,,,,,,,,,,,,,,,,,,,,,,,
484389005xb1a,448233001ek1a,2020000018,Waiting for approval,1/3/2020,Waiting for approval,Remax,Direct bank transfer,Surendra,Aderu,developer@happimobiles.com,7993418666,,,,,,0,120890,2,435527001pk1a,435360002gb0a,6990,[Black] Vivo Y91i – 2GB/32GB,,1,,,,"Ayyappa Society, Chanda Naik Nagar, Madhapur",500081,Hyderabad,India,Surendra,Surendra,"Ayyappa Society, Chanda Naik Nagar, Madhapur",500081,,India,7993418666,false,false,false,,1/3/2020,182.71.48.146,Aderu Surendra,,,,,,
,,,,,,,,,,,,,,,,,,,,431303001np1a,431303002np0a,113900,iPhone XS Max – 256GB,,1,,,,,,,,,,,,,,,,,,,,,,,,,,,
484389006xb0a,448233001ek1a,2020000019,Waiting for approval,1/3/2020,Waiting for approval,Remax,Direct bank transfer,Surendra,Aderu,developer@happimobiles.com,7993418666,,,,,,0,120890,2,435527001pk1a,435360002gb0a,6990,[Black] Vivo Y91i – 2GB/32GB,,1,,,,"Ayyappa Society, Chanda Naik Nagar, Madhapur",500081,Hyderabad,India,Surendra,Surendra,"Ayyappa Society, Chanda Naik Nagar, Madhapur",500081,,India,7993418666,false,false,false,,1/3/2020,182.71.48.146,Aderu Surendra,,,,,,
,,,,,,,,,,,,,,,,,,,,431303001np1a,431303002np0a,113900,iPhone XS Max – 256GB,,1,,,,,,,,,,,,,,,,,,,,,,,,,,,
484389007xb1a,448233001ek1a,2020000020,Waiting for approval,1/3/2020,Waiting for approval,Remax,Direct bank transfer,Surendra,Aderu,developer@happimobiles.com,7993418666,,,,,,0,120890,2,435527001pk1a,435360002gb0a,6990,[Black] Vivo Y91i – 2GB/32GB,,1,,,,"Ayyappa Society, Chanda Naik Nagar, Madhapur",500081,Hyderabad,India,Surendra,Surendra,"Ayyappa Society, Chanda Naik Nagar, Madhapur",500081,,India,7993418666,false,false,false,,1/3/2020,182.71.48.146,Aderu Surendra,,,,,,
,,,,,,,,,,,,,,,,,,,,431303001np1a,431303002np0a,113900,iPhone XS Max – 256GB,,1,,,,,,,,,,,,,,,,,,,,,,,,,,,
484389008xb0a,448233001ek1a,2020000021,Waiting for approval,1/3/2020,Waiting for approval,Remax,Direct bank transfer,Surendra,Aderu,developer@happimobiles.com,7993418666,,,,,,0,120890,2,435527001pk1a,435360002gb0a,6990,[Black] Vivo Y91i – 2GB/32GB,,1,,,,"Ayyappa Society, Chanda Naik Nagar, Madhapur",500081,Hyderabad,India,Surendra,Surendra,"Ayyappa Society, Chanda Naik Nagar, Madhapur",500081,,India,7993418666,false,false,false,,1/3/2020,182.71.48.146,Aderu Surendra,,,,,,
,,,,,,,,,,,,,,,,,,,,431303001np1a,431303002np0a,113900,iPhone XS Max – 256GB,,1,,,,,,,,,,,,,,,,,,,,,,,,,,,
484389009xb1a,448233001ek1a,2020000022,Waiting for approval,1/3/2020,Waiting for approval,Remax,Direct bank transfer,Surendra,Aderu,developer@happimobiles.com,7993418666,,,,,,0,120890,2,435527001pk1a,435360002gb0a,6990,[Black] Vivo Y91i – 2GB/32GB,,1,,,,"Ayyappa Society, Chanda Naik Nagar, Madhapur",500081,Hyderabad,India,Surendra,Surendra,"Ayyappa Society, Chanda Naik Nagar, Madhapur",500081,,India,7993418666,false,false,false,,1/3/2020,182.71.48.146,Aderu Surendra,,,,,,
,,,,,,,,,,,,,,,,,,,,431303001np1a,431303002np0a,113900,iPhone XS Max – 256GB,,1,,,,,,,,,,,,,,,,,,,,,,,,,,,
484389010xb0a,448233001ek1a,2020000023,Waiting for approval,1/3/2020,Waiting for approval,Remax,Direct bank transfer,Surendra,Aderu,developer@happimobiles.com,7993418666,,,,,,0,120890,2,435527001pk1a,435360002gb0a,6990,[Black] Vivo Y91i – 2GB/32GB,,1,,,,"Ayyappa Society, Chanda Naik Nagar, Madhapur",500081,Hyderabad,India,Surendra,Surendra,"Ayyappa Society, Chanda Naik Nagar, Madhapur",500081,,India,7993418666,false,false,false,,1/3/2020,182.71.48.146,Aderu Surendra,,,,,,
,,,,,,,,,,,,,,,,,,,,431303001np1a,431303002np0a,113900,iPhone XS Max – 256GB,,1,,,,,,,,,,,,,,,,,,,,,,,,,,,
484395001yh1a,448233001ek1a,2020000024,Waiting for approval,1/3/2020,Waiting for approval,Remax,Direct bank transfer,Surendra,Aderu,developer@happimobiles.com,7993418666,,,,,,0,6990,1,435527001pk1a,435360002gb0a,6990,[Black] Vivo Y91i – 2GB/32GB,,1,,,,"Ayyappa Society, Chanda Naik Nagar, Madhapur",500081,Hyderabad,India,,,,,,,,false,false,false,,1/3/2020,182.71.48.146,Aderu Surendra,,,,,,
484395002yh0a,448233001ek1a,2020000025,Waiting for approval,1/3/2020,Waiting for approval,Remax,Direct bank transfer,Surendra,Aderu,developer@happimobiles.com,7993418666,,,,,,0,6990,1,435527001pk1a,435360002gb0a,6990,[Black] Vivo Y91i – 2GB/32GB,,1,,,,"Ayyappa Society, Chanda Naik Nagar, Madhapur",500081,Hyderabad,India,,,,,,,,false,false,false,,1/3/2020,182.71.48.146,Aderu Surendra,,,,,,
484395003yh1a,448233001ek1a,2020000026,Waiting for approval,1/3/2020,Waiting for approval,Remax,Direct bank transfer,Surendra,Aderu,developer@happimobiles.com,7993418666,,,,,,0,6990,1,435527001pk1a,435360002gb0a,6990,[Black] Vivo Y91i – 2GB/32GB,,1,,,,"Ayyappa Society, Chanda Naik Nagar, Madhapur",500081,Hyderabad,India,,,,,,,,false,false,false,,1/3/2020,182.71.48.146,Aderu Surendra,,,,,,
484395004yh0a,448233001ek1a,2020000027,Waiting for approval,1/3/2020,Waiting for approval,Remax,Direct bank transfer,Surendra,Aderu,developer@happimobiles.com,7993418666,,,,,,0,6990,1,435527001pk1a,435360002gb0a,6990,[Black] Vivo Y91i – 2GB/32GB,,1,,,,"Ayyappa Society, Chanda Naik Nagar, Madhapur",500081,Hyderabad,India,,,,,,,,false,false,false,,1/3/2020,182.71.48.146,Aderu Surendra,,,,,,
484395005yh1a,448233001ek1a,2020000028,Waiting for approval,1/3/2020,Waiting for approval,Remax,Direct bank transfer,Surendra,Aderu,developer@happimobiles.com,7993418666,,,,,,0,6990,1,435527001pk1a,435360002gb0a,6990,[Black] Vivo Y91i – 2GB/32GB,,1,,,,"Ayyappa Society, Chanda Naik Nagar, Madhapur",500081,Hyderabad,India,,,,,,,,false,false,false,,1/3/2020,182.71.48.146,Aderu Surendra,,,,,,
484395006yh0a,448233001ek1a,2020000029,Waiting for approval,1/3/2020,Waiting for approval,Remax,Direct bank transfer,Surendra,Aderu,developer@happimobiles.com,7993418666,,,,,,0,6990,1,435527001pk1a,435360002gb0a,6990,[Black] Vivo Y91i – 2GB/32GB,,1,,,,"Ayyappa Society, Chanda Naik Nagar, Madhapur",500081,Hyderabad,India,,,,,,,,false,false,false,,1/3/2020,182.71.48.146,Aderu Surendra,,,,,,
484395007yh1a,448233001ek1a,2020000030,Waiting for approval,1/3/2020,Waiting for approval,Remax,Direct bank transfer,Surendra,Aderu,developer@happimobiles.com,7993418666,,,,,,0,6990,1,435527001pk1a,435360002gb0a,6990,[Black] Vivo Y91i – 2GB/32GB,,1,,,,"Ayyappa Society, Chanda Naik Nagar, Madhapur",500081,Hyderabad,India,,,,,,,,false,false,false,,1/3/2020,182.71.48.146,Aderu Surendra,,,,,,
484395008yh0a,448233001ek1a,2020000031,Waiting for approval,1/3/2020,Waiting for approval,Remax,Direct bank transfer,Surendra,Aderu,developer@happimobiles.com,7993418666,,,,,,0,6990,1,435527001pk1a,435360002gb0a,6990,[Black] Vivo Y91i – 2GB/32GB,,1,,,,"Ayyappa Society, Chanda Naik Nagar, Madhapur",500081,Hyderabad,India,,,,,,,,false,false,false,,1/3/2020,182.71.48.146,Aderu Surendra,,,,,,
484399001wb1a,448233001ek1a,2020000032,Waiting for approval,1/3/2020,Waiting for approval,Remax,Direct bank transfer,Surendra,Aderu,developer@happimobiles.com,,,,,,,0,15999,1,429980001at1a,429929002iw0a,15999,[Blue] Realme XT - 4GB|64GB,,1,,,,"Ayyappa Society, Chanda Naik Nagar, Madhapur",500081,Hyderabad,India,,,,,,,,false,false,false,,1/3/2020,182.71.48.146,Aderu Surendra,,,,,,
484399002wb0a,448233001ek1a,2020000033,Waiting for approval,1/3/2020,Waiting for approval,Remax,Direct bank transfer,Surendra,Aderu,developer@happimobiles.com,,,,,,,0,15999,1,429980001at1a,429929002iw0a,15999,[Blue] Realme XT - 4GB|64GB,,1,,,,"Ayyappa Society, Chanda Naik Nagar, Madhapur",500081,Hyderabad,India,Surendra,Surendra,"Ayyappa Society, Chanda Naik Nagar, Madhapur",500081,,India,,false,false,false,,1/3/2020,182.71.48.146,Aderu Surendra,,,,,,
484399003wb1a,448233001ek1a,2020000034,Waiting for approval,1/3/2020,Waiting for approval,Remax,Direct bank transfer,Surendra,Aderu,developer@happimobiles.com,,,,,,,0,15999,1,429980001at1a,429929002iw0a,15999,[Blue] Realme XT - 4GB|64GB,,1,,,,"Ayyappa Society, Chanda Naik Nagar, Madhapur",500081,Hyderabad,India,Surendra,Surendra,"Ayyappa Society, Chanda Naik Nagar, Madhapur",500081,,India,,false,false,false,,1/3/2020,182.71.48.146,Aderu Surendra,,,,,,
484399004wb0a,448233001ek1a,2020000035,Waiting for approval,1/3/2020,Waiting for approval,Remax,Direct bank transfer,Surendra,Aderu,developer@happimobiles.com,,,,,,,0,15999,1,429980001at1a,429929002iw0a,15999,[Blue] Realme XT - 4GB|64GB,,1,,,,"Ayyappa Society, Chanda Naik Nagar, Madhapur",500081,Hyderabad,India,Surendra,Surendra,"Ayyappa Society, Chanda Naik Nagar, Madhapur",500081,,India,,false,false,false,,1/3/2020,182.71.48.146,Aderu Surendra,,,,,,
484399005wb1a,448233001ek1a,2020000036,Waiting for approval,1/3/2020,Waiting for approval,Remax,Direct bank transfer,Surendra,Aderu,developer@happimobiles.com,,,,,,,0,15999,1,429980001at1a,429929002iw0a,15999,[Blue] Realme XT - 4GB|64GB,,1,,,,"Ayyappa Society, Chanda Naik Nagar, Madhapur",500081,Hyderabad,India,Surendra,Surendra,"Ayyappa Society, Chanda Naik Nagar, Madhapur",500081,,India,,false,false,false,,1/3/2020,182.71.48.146,Aderu Surendra,,,,,,
484399006wb0a,448233001ek1a,2020000037,Waiting for approval,1/3/2020,Waiting for approval,Remax,Direct bank transfer,Surendra,Aderu,developer@happimobiles.com,,,,,,,0,15999,1,429980001at1a,429929002iw0a,15999,[Blue] Realme XT - 4GB|64GB,,1,,,,"Ayyappa Society, Chanda Naik Nagar, Madhapur",500081,Hyderabad,India,Surendra,Surendra,"Ayyappa Society, Chanda Naik Nagar, Madhapur",500081,,India,,false,false,false,,1/3/2020,182.71.48.146,Aderu Surendra,,,,,,
484399007wb1a,448233001ek1a,2020000038,Waiting for approval,1/3/2020,Waiting for approval,Remax,Direct bank transfer,Surendra,Aderu,developer@happimobiles.com,,,,,,,0,15999,1,429980001at1a,429929002iw0a,15999,[Blue] Realme XT - 4GB|64GB,,1,,,,"Ayyappa Society, Chanda Naik Nagar, Madhapur",500081,Hyderabad,India,Surendra,Surendra,"Ayyappa Society, Chanda Naik Nagar, Madhapur",500081,,India,,false,false,false,,1/3/2020,182.71.48.146,Aderu Surendra,,,,,,
484400001ec1a,448233001ek1a,2020000039,Waiting for approval,1/3/2020,Waiting for approval,Remax,Direct bank transfer,Surendra,Aderu,developer@happimobiles.com,,,,,,,0,15999,1,429980001at1a,429929002iw0a,15999,[Blue] Realme XT - 4GB|64GB,,1,,,,"Ayyappa Society, Chanda Naik Nagar, Madhapur",500081,Hyderabad,India,Surendra,Surendra,"Ayyappa Society, Chanda Naik Nagar, Madhapur",500081,,India,,false,false,false,,1/3/2020,182.71.48.146,Aderu Surendra,,,,,,
484400002ec0a,448233001ek1a,2020000040,Waiting for approval,1/3/2020,Waiting for approval,Remax,Direct bank transfer,Surendra,Aderu,developer@happimobiles.com,,,,,,,0,15999,1,429980001at1a,429929002iw0a,15999,[Blue] Realme XT - 4GB|64GB,,1,,,,"Ayyappa Society, Chanda Naik Nagar, Madhapur",500081,Hyderabad,India,Surendra,Surendra,"Ayyappa Society, Chanda Naik Nagar, Madhapur",500081,,India,,false,false,false,,1/3/2020,182.71.48.146,Aderu Surendra,,,,,,
485812001ew1a,444330001oh1a,2020000041,Waiting for approval,1/4/2020,Waiting for approval,Remax,Direct bank transfer,Shanmukha,Ram,srk@iipl.work,9492910439,,,,,,0,4699,1,438561001eu1a,435554002xd0a,4699,Redmi GO – 1G/16GB,,1,,,,"6-3-648/1, Raj Bhavan Rd, Somajiguda",500082,Hyderabad,India,Shanmukha,Shanmukha,"6-3-648/1, Raj Bhavan Rd, Somajiguda",500082,,India,9492910439,false,false,false,,1/4/2020,183.82.111.252,Ram Shanmukha,,,,,,
485817001lr1a,444330001oh1a,2020000042,Waiting for approval,1/4/2020,Waiting for approval,Remax,Direct bank transfer,Shanmukha,Ram,srk@iipl.work,9492910439,,,,,,0,50000,1,431305001lm1a,431303002np0a,50000,iPhone XS Max – 512GB,,1,,,,"6-3-648/1, Raj Bhavan Rd, Somajiguda",500082,Hyderabad,India,,,,,,,,false,false,false,,1/4/2020,183.82.111.252,Ram Shanmukha,,,,,,
486114001pr1a,444330001oh1a,2020000043,Waiting for approval,1/4/2020,Waiting for approval,Remax,Direct bank transfer,Shanmukha,Ram,srk@iipl.work,9492910439,,,,,,0,1050,1,449663001de1a,449653002jx0a,1050,Nokia - 105 SS - 2019,,1,,,,"6-3-648/1, Raj Bhavan Rd, Somajiguda",500082,Hyderabad,India,,,,,,,,false,false,false,,1/4/2020,183.82.111.252,Ram Shanmukha,,,,,,
488574001kc1a,444330001oh1a,2020000044,Waiting for approval,1/6/2020,Waiting for approval,Remax,Direct bank transfer,Shanmukha,Ram,srk@iipl.work,9492910439,,,,,,0,7299,1,438557001de1a,435554002xd0a,7299,[Blue] Redmi 8A – 3GB/32GB,,1,,,,"6-3-648/1, Raj Bhavan Rd, Somajiguda",500082,Hyderabad,India,Shanmukha,Shanmukha,"6-3-648/1, Raj Bhavan Rd, Somajiguda",500082,,India,9492910439,false,false,false,,1/6/2020,127.0.0.1,Ram Shanmukha,,,,,,
488584001ws1a,444330001oh1a,2020000045,Waiting for approval,1/6/2020,Waiting for approval,Remax,Direct bank transfer,Shanmukha,Ram,srk@iipl.work,9492910439,,,,,,0,7299,1,438557001de1a,435554002xd0a,7299,[Blue] Redmi 8A – 3GB/32GB,,1,,,,"6-3-648/1, Raj Bhavan Rd, Somajiguda",500082,Hyderabad,India,,,,,,,,false,false,false,,1/6/2020,127.0.0.1,Ram Shanmukha,,,,,,
488589001ed1a,444330001oh1a,2020000046,Waiting for approval,1/6/2020,Waiting for approval,Remax,Direct bank transfer,Shanmukha,Ram,srk@iipl.work,9492910439,,,,,,0,7299,1,438557001de1a,435554002xd0a,7299,[Blue] Redmi 8A – 3GB/32GB,,1,,,,"6-3-648/1, Raj Bhavan Rd, Somajiguda",500082,Hyderabad,India,,,,,,,,false,false,false,,1/6/2020,127.0.0.1,Ram Shanmukha,,,,,,
488589002ed0a,444330001oh1a,2020000047,Waiting for approval,1/6/2020,Waiting for approval,Remax,Direct bank transfer,Shanmukha,Ram,srk@iipl.work,9492910439,,,,,,0,7299,1,438557001de1a,435554002xd0a,7299,[Blue] Redmi 8A – 3GB/32GB,,1,,,,"6-3-648/1, Raj Bhavan Rd, Somajiguda",500082,Hyderabad,India,,,,,,,,false,false,false,,1/6/2020,127.0.0.1,Ram Shanmukha,,,,,,
488589003ed1a,444330001oh1a,2020000048,Waiting for approval,1/6/2020,Waiting for approval,Remax,Direct bank transfer,Shanmukha,Ram,srk@iipl.work,9492910439,,,,,,0,7299,1,438557001de1a,435554002xd0a,7299,[Blue] Redmi 8A – 3GB/32GB,,1,,,,"6-3-648/1, Raj Bhavan Rd, Somajiguda",500082,Hyderabad,India,,,,,,,,false,false,false,,1/6/2020,127.0.0.1,Ram Shanmukha,,,,,,
488589004ed0a,444330001oh1a,2020000049,Waiting for approval,1/6/2020,Waiting for approval,Remax,Direct bank transfer,Shanmukha,Ram,srk@iipl.work,9492910439,,,,,,0,7299,1,438557001de1a,435554002xd0a,7299,[Blue] Redmi 8A – 3GB/32GB,,1,,,,"6-3-648/1, Raj Bhavan Rd, Somajiguda",500082,Hyderabad,India,,,,,,,,false,false,false,,1/6/2020,127.0.0.1,Ram Shanmukha,,,,,,
488590001la1a,444330001oh1a,2020000050,Waiting for approval,1/6/2020,Waiting for approval,Remax,Direct bank transfer,Shanmukha,Ram,srk@iipl.work,9492910439,,,,,,0,7299,1,438557001de1a,435554002xd0a,7299,[Blue] Redmi 8A – 3GB/32GB,,1,,,,"6-3-648/1, Raj Bhavan Rd, Somajiguda",500082,Hyderabad,India,,,,,,,,false,false,false,,1/6/2020,127.0.0.1,Ram Shanmukha,,,,,,
488590002la0a,444330001oh1a,2020000051,Waiting for approval,1/6/2020,Waiting for approval,Remax,Direct bank transfer,Shanmukha,Ram,srk@iipl.work,9492910439,,,,,,0,7299,1,438557001de1a,435554002xd0a,7299,[Blue] Redmi 8A – 3GB/32GB,,1,,,,"6-3-648/1, Raj Bhavan Rd, Somajiguda",500082,Hyderabad,India,,,,,,,,false,false,false,,1/6/2020,127.0.0.1,Ram Shanmukha,,,,,,
488591001br1a,444330001oh1a,2020000052,Waiting for approval,1/6/2020,Waiting for approval,Remax,Direct bank transfer,Shanmukha,Ram,srk@iipl.work,9492910439,,,,,,0,7299,1,438557001de1a,435554002xd0a,7299,[Blue] Redmi 8A – 3GB/32GB,,1,,,,"6-3-648/1, Raj Bhavan Rd, Somajiguda",500082,Hyderabad,India,,,,,,,,false,false,false,,1/6/2020,127.0.0.1,Ram Shanmukha,,,,,,
488591002br0a,444330001oh1a,2020000053,Waiting for approval,1/6/2020,Waiting for approval,Remax,Direct bank transfer,Shanmukha,Ram,srk@iipl.work,9492910439,,,,,,0,7299,1,438557001de1a,435554002xd0a,7299,[Blue] Redmi 8A – 3GB/32GB,,1,,,,"6-3-648/1, Raj Bhavan Rd, Somajiguda",500082,Hyderabad,India,,,,,,,,false,false,false,,1/6/2020,127.0.0.1,Ram Shanmukha,,,,,,
488591003br1a,444330001oh1a,2020000054,Waiting for approval,1/6/2020,Waiting for approval,Remax,Direct bank transfer,Shanmukha,Ram,srk@iipl.work,9492910439,,,,,,0,7299,1,438557001de1a,435554002xd0a,7299,[Blue] Redmi 8A – 3GB/32GB,,1,,,,"6-3-648/1, Raj Bhavan Rd, Somajiguda",500082,Hyderabad,India,,,,,,,,false,false,false,,1/6/2020,127.0.0.1,Ram Shanmukha,,,,,,
488591004br0a,444330001oh1a,2020000055,Waiting for approval,1/6/2020,Waiting for approval,Remax,Direct bank transfer,Shanmukha,Ram,srk@iipl.work,9492910439,,,,,,0,7299,1,438557001de1a,435554002xd0a,7299,[Blue] Redmi 8A – 3GB/32GB,,1,,,,"6-3-648/1, Raj Bhavan Rd, Somajiguda",500082,Hyderabad,India,,,,,,,,false,false,false,,1/6/2020,127.0.0.1,Ram Shanmukha,,,,,,
488591005br1a,444330001oh1a,2020000056,Waiting for approval,1/6/2020,Waiting for approval,Remax,Direct bank transfer,Shanmukha,Ram,srk@iipl.work,9492910439,,,,,,0,7299,1,438557001de1a,435554002xd0a,7299,[Blue] Redmi 8A – 3GB/32GB,,1,,,,"6-3-648/1, Raj Bhavan Rd, Somajiguda",500082,Hyderabad,India,,,,,,,,false,false,false,,1/6/2020,127.0.0.1,Ram Shanmukha,,,,,,
488591006br0a,444330001oh1a,2020000057,Waiting for approval,1/6/2020,Waiting for approval,Remax,Direct bank transfer,Shanmukha,Ram,srk@iipl.work,9492910439,,,,,,0,7299,1,438557001de1a,435554002xd0a,7299,[Blue] Redmi 8A – 3GB/32GB,,1,,,,"6-3-648/1, Raj Bhavan Rd, Somajiguda",500082,Hyderabad,India,,,,,,,,false,false,false,,1/6/2020,127.0.0.1,Ram Shanmukha,,,,,,
488592001rw1a,444330001oh1a,2020000058,Waiting for approval,1/6/2020,Waiting for approval,Remax,Direct bank transfer,Shanmukha,Ram,srk@iipl.work,9492910439,,,,,,0,7299,1,438557001de1a,435554002xd0a,7299,[Blue] Redmi 8A – 3GB/32GB,,1,,,,"6-3-648/1, Raj Bhavan Rd, Somajiguda",500082,Hyderabad,India,,,,,,,,false,false,false,,1/6/2020,127.0.0.1,Ram Shanmukha,,,,,,
488592002rw0a,444330001oh1a,2020000059,Waiting for approval,1/6/2020,Waiting for approval,Remax,Direct bank transfer,Shanmukha,Ram,srk@iipl.work,9492910439,,,,,,0,7299,1,438557001de1a,435554002xd0a,7299,[Blue] Redmi 8A – 3GB/32GB,,1,,,,"6-3-648/1, Raj Bhavan Rd, Somajiguda",500082,Hyderabad,India,,,,,,,,false,false,false,,1/6/2020,127.0.0.1,Ram Shanmukha,,,,,,
488602001ah1a,444330001oh1a,2020000060,Waiting for approval,1/6/2020,Waiting for approval,Remax,Direct bank transfer,Shanmukha,Ram,srk@iipl.work,,,,,,,0,7299,1,438557001de1a,435554002xd0a,7299,[Blue] Redmi 8A – 3GB/32GB,,1,,,,"6-3-648/1, Raj Bhavan Rd, Somajiguda",500082,Hyderabad,India,,,,,,,,false,false,false,,1/6/2020,127.0.0.1,Ram Shanmukha,,,,,,
488606001im1a,444330001oh1a,2020000061,Waiting for approval,1/6/2020,Waiting for approval,Remax,Direct bank transfer,Shanmukha,Ram,srk@iipl.work,,,,,,,0,7299,1,438557001de1a,435554002xd0a,7299,[Blue] Redmi 8A – 3GB/32GB,,1,,,,"6-3-648/1, Raj Bhavan Rd, Somajiguda",500082,Hyderabad,India,,,,,,,,false,false,false,,1/6/2020,127.0.0.1,Ram Shanmukha,,,,,,
488606002im0a,444330001oh1a,2020000062,Waiting for approval,1/6/2020,Waiting for approval,Remax,Direct bank transfer,Shanmukha,Ram,srk@iipl.work,,,,,,,0,7299,1,438557001de1a,435554002xd0a,7299,[Blue] Redmi 8A – 3GB/32GB,,1,,,,"6-3-648/1, Raj Bhavan Rd, Somajiguda",500082,Hyderabad,India,,,,,,,,false,false,false,,1/6/2020,127.0.0.1,Ram Shanmukha,,,,,,
488615001js1a,444330001oh1a,2020000063,Waiting for approval,1/6/2020,Waiting for approval,Remax,Direct bank transfer,Shanmukha,Ram,srk@iipl.work,,,,,,,0,7299,1,438557001de1a,435554002xd0a,7299,[Blue] Redmi 8A – 3GB/32GB,,1,,,,"6-3-648/1, Raj Bhavan Rd, Somajiguda",500082,Hyderabad,India,,,,,,,,false,false,false,,1/6/2020,127.0.0.1,Ram Shanmukha,,,,,,
489017001bp1a,444330001oh1a,2020000064,Waiting for approval,1/6/2020,Waiting for approval,Remax,Direct bank transfer,Shanmukha,Ram,srk@iipl.work,9966269426,,,,,,0,16289,2,438616001pn1a,435554002xd0a,9299,[Blue] Redmi Note 7s – 3GB/32GB,,1,,,,"6-3-648/1, Raj Bhavan Rd, Somajiguda",500082,Hyderabad,India,,,,,,,,false,false,false,,1/6/2020,127.0.0.1,Ram Shanmukha,,,,,,
,,,,,,,,,,,,,,,,,,,,435527001pk1a,435360002gb0a,6990,[Black] Vivo Y91i – 2GB/32GB,,1,,,,,,,,,,,,,,,,,,,,,,,,,,,
498765001dp1a,444330001oh1a,2020000065,Waiting for approval,1/13/2020,Waiting for approval,Remax,Direct bank transfer,Shanmukha RAm,M,srk@iipl.work,8686836269,,,,,,0,138489,2,431294001fc1a,431275002et0a,129999,iPhone XS –  512GB,,1,,,,"160/1 R no 21 Vivekanada Nagar,",5000072,Hyderabad,India,,,,,,,,false,false,false,,1/13/2020,127.0.0.1,M Shanmukha RAm,,,,,,
,,,,,,,,,,,,,,,,,,,,435521001we1a,435360002gb0a,8490,[Black] Vivo Y91 - 3GB/32GB,,1,,,,,,,,,,,,,,,,,,,,,,,,,,,
498765002dp0a,444330001oh1a,2020000066,Waiting for approval,1/13/2020,Waiting for approval,Remax,Direct bank transfer,Shanmukha RAm,M,srk@iipl.work,8686836269,,,,,,0,138489,2,431294001fc1a,431275002et0a,129999,iPhone XS –  512GB,,1,,,,"160/1 R no 21 Vivekanada Nagar,",5000072,Hyderabad,India,,,,,,,,false,false,false,,1/13/2020,127.0.0.1,M Shanmukha RAm,,,,,,
,,,,,,,,,,,,,,,,,,,,435521001we1a,435360002gb0a,8490,[Black] Vivo Y91 - 3GB/32GB,,1,,,,,,,,,,,,,,,,,,,,,,,,,,,
498765003dp1a,444330001oh1a,2020000067,Waiting for approval,1/13/2020,Waiting for approval,Remax,Direct bank transfer,Shanmukha RAm,M,srk@iipl.work,8686836269,,,,,,0,138489,2,431294001fc1a,431275002et0a,129999,iPhone XS –  512GB,,1,,,,"160/1 R no 21 Vivekanada Nagar,",5000072,Hyderabad,India,,,,,,,,false,false,false,,1/13/2020,127.0.0.1,M Shanmukha RAm,,,,,,
,,,,,,,,,,,,,,,,,,,,435521001we1a,435360002gb0a,8490,[Black] Vivo Y91 - 3GB/32GB,,1,,,,,,,,,,,,,,,,,,,,,,,,,,,
498765004dp0a,444330001oh1a,2020000068,Waiting for approval,1/13/2020,Waiting for approval,Remax,Direct bank transfer,Shanmukha RAm,M,srk@iipl.work,8686836269,,,,,,0,138489,2,431294001fc1a,431275002et0a,129999,iPhone XS –  512GB,,1,,,,"160/1 R no 21 Vivekanada Nagar,",5000072,Hyderabad,India,,,,,,,,false,false,false,,1/13/2020,127.0.0.1,M Shanmukha RAm,,,,,,
,,,,,,,,,,,,,,,,,,,,435521001we1a,435360002gb0a,8490,[Black] Vivo Y91 - 3GB/32GB,,1,,,,,,,,,,,,,,,,,,,,,,,,,,,
498765005dp1a,444330001oh1a,2020000069,Waiting for approval,1/13/2020,Waiting for approval,Remax,Direct bank transfer,Shanmukha RAm,M,srk@iipl.work,8686836269,,,,,,0,138489,2,431294001fc1a,431275002et0a,129999,iPhone XS –  512GB,,1,,,,"160/1 R no 21 Vivekanada Nagar,",5000072,Hyderabad,India,,,,,,,,false,false,false,,1/13/2020,127.0.0.1,M Shanmukha RAm,,,,,,
,,,,,,,,,,,,,,,,,,,,435521001we1a,435360002gb0a,8490,[Black] Vivo Y91 - 3GB/32GB,,1,,,,,,,,,,,,,,,,,,,,,,,,,,,
498766001rh1a,444330001oh1a,2020000070,Waiting for approval,1/13/2020,Waiting for approval,Remax,Direct bank transfer,Shanmukha RAm,M,srk@iipl.work,8686836269,,,,,,0,138489,2,431294001fc1a,431275002et0a,129999,iPhone XS –  512GB,,1,,,,"160/1 R no 21 Vivekanada Nagar,",5000072,Hyderabad,India,Shanmukha RAm,Shanmukha RAm,"160/1 R no 21 Vivekanada Nagar,, Kukatpalli Near G",5000072,,,8686836269,false,false,false,,1/13/2020,127.0.0.1,M Shanmukha RAm,,,,,,
,,,,,,,,,,,,,,,,,,,,435521001we1a,435360002gb0a,8490,[Black] Vivo Y91 - 3GB/32GB,,1,,,,,,,,,,,,,,,,,,,,,,,,,,,
498766002rh0a,444330001oh1a,2020000071,Waiting for approval,1/13/2020,Waiting for approval,Remax,Direct bank transfer,Shanmukha RAm,M,srk@iipl.work,8686836269,,,,,,0,138489,2,431294001fc1a,431275002et0a,129999,iPhone XS –  512GB,,1,,,,"160/1 R no 21 Vivekanada Nagar,",5000072,Hyderabad,India,Shanmukha RAm,Shanmukha RAm,"160/1 R no 21 Vivekanada Nagar,, Kukatpalli Near G",5000072,,,8686836269,false,false,false,,1/13/2020,127.0.0.1,M Shanmukha RAm,,,,,,
,,,,,,,,,,,,,,,,,,,,435521001we1a,435360002gb0a,8490,[Black] Vivo Y91 - 3GB/32GB,,1,,,,,,,,,,,,,,,,,,,,,,,,,,,
498766003rh1a,444330001oh1a,2020000072,Waiting for approval,1/13/2020,Waiting for approval,Remax,Direct bank transfer,Shanmukha RAm,M,srk@iipl.work,8686836269,,,,,,0,138489,2,431294001fc1a,431275002et0a,129999,iPhone XS –  512GB,,1,,,,"160/1 R no 21 Vivekanada Nagar,",5000072,Hyderabad,India,Shanmukha RAm,Shanmukha RAm,"160/1 R no 21 Vivekanada Nagar,, Kukatpalli Near G",5000072,,,8686836269,false,false,false,,1/13/2020,127.0.0.1,M Shanmukha RAm,,,,,,
,,,,,,,,,,,,,,,,,,,,435521001we1a,435360002gb0a,8490,[Black] Vivo Y91 - 3GB/32GB,,1,,,,,,,,,,,,,,,,,,,,,,,,,,,
498766004rh0a,444330001oh1a,2020000073,Waiting for approval,1/13/2020,Waiting for approval,Remax,Direct bank transfer,Shanmukha RAm,M,srk@iipl.work,8686836269,,,,,,0,138489,2,431294001fc1a,431275002et0a,129999,iPhone XS –  512GB,,1,,,,"160/1 R no 21 Vivekanada Nagar,",5000072,Hyderabad,India,Shanmukha RAm,Shanmukha RAm,"160/1 R no 21 Vivekanada Nagar,, Kukatpalli Near G",5000072,,,8686836269,false,false,false,,1/13/2020,127.0.0.1,M Shanmukha RAm,,,,,,
,,,,,,,,,,,,,,,,,,,,435521001we1a,435360002gb0a,8490,[Black] Vivo Y91 - 3GB/32GB,,1,,,,,,,,,,,,,,,,,,,,,,,,,,,
498766005rh1a,444330001oh1a,2020000074,Waiting for approval,1/13/2020,Waiting for approval,Remax,Direct bank transfer,Shanmukha RAm,M,srk@iipl.work,8686836269,,,,,,0,138489,2,431294001fc1a,431275002et0a,129999,iPhone XS –  512GB,,1,,,,"160/1 R no 21 Vivekanada Nagar,",5000072,Hyderabad,India,Shanmukha RAm,Shanmukha RAm,"160/1 R no 21 Vivekanada Nagar,, Kukatpalli Near G",5000072,,,8686836269,false,false,false,,1/13/2020,127.0.0.1,M Shanmukha RAm,,,,,,
,,,,,,,,,,,,,,,,,,,,435521001we1a,435360002gb0a,8490,[Black] Vivo Y91 - 3GB/32GB,,1,,,,,,,,,,,,,,,,,,,,,,,,,,,
498767001bn1a,444330001oh1a,2020000075,Waiting for approval,1/13/2020,Waiting for approval,Remax,Direct bank transfer,Shanmukha RAm,M,srk@iipl.work,8686836269,,,,,,0,99000,1,431208001ps1a,431208002ps0a,99000,[black] iPhone X – 256GB,,1,,,,"160/1 R no 21 Vivekanada Nagar,",5000072,Hyderabad,India,Shanmukha RAm,Shanmukha RAm,"160/1 R no 21 Vivekanada Nagar,, Kukatpalli Near G",5000072,,,8686836269,false,false,false,,1/13/2020,127.0.0.1,M Shanmukha RAm,,,,,,
498768001is1a,444330001oh1a,2020000076,Waiting for approval,1/13/2020,Waiting for approval,Remax,Direct bank transfer,Shanmukha RAm,M,srk@iipl.work,8686836269,,,,,,0,99000,1,431208001ps1a,431208002ps0a,99000,[black] iPhone X – 256GB,,1,,,,"160/1 R no 21 Vivekanada Nagar,",5000072,Hyderabad,India,Shanmukha RAm,Shanmukha RAm,"160/1 R no 21 Vivekanada Nagar,, Kukatpalli Near G",5000072,,,8686836269,false,false,false,,1/13/2020,127.0.0.1,M Shanmukha RAm,,,,,,
498772001la1a,444330001oh1a,2020000077,Waiting for approval,1/13/2020,Waiting for approval,Remax,Direct bank transfer,Shanmukha RAm,M,srk@iipl.work,8686836269,,,,,,0,99000,1,431208001ps1a,431208002ps0a,99000,[black] iPhone X – 256GB,,1,,,,"160/1 R no 21 Vivekanada Nagar,",5000072,Hyderabad,India,Shanmukha RAm,Shanmukha RAm,"160/1 R no 21 Vivekanada Nagar,",5000072,,India,8686836269,false,false,false,,1/13/2020,127.0.0.1,M Shanmukha RAm,,,,,,
498819001le1a,444330001oh1a,2020000078,Waiting for approval,1/13/2020,Waiting for approval,Remax,Direct bank transfer,Shanmukha Rama,Ram M,srk@iipl.work,9966269426,,,,,,0,103900,1,431275001et1a,431275002et0a,103900,iPhone XS – 256GB,,1,,,,"160/1 R no 21 Vivekanada Nagar,",5000072,Hyderabad,India,Shanmukha Rama,Shanmukha Rama,"160/1 R no 21 Vivekanada Nagar,",5000072,,India,9966269426,false,false,false,,1/13/2020,127.0.0.1,Ram M Shanmukha Rama,,,,,,
500274001sp1a,444330001oh1a,2020000079,Waiting for approval,1/14/2020,Waiting for approval,Remax,Direct bank transfer,Shanmukha Rama,Ram M,srk@iipl.work,9966269426,,,,,,0,1,1,500237001sw1a,500237002sw0a,1,[bluue] iphone 11 256 GB test,,1,,,,"160/1 R no 21 Vivekanada Nagar,",5000072,Hyderabad,India,Shanmukha Rama,Shanmukha Rama,"160/1 R no 21 Vivekanada Nagar,",5000072,,India,9966269426,false,false,false,,1/14/2020,127.0.0.1,Ram M Shanmukha Rama,,,,,,
504414001si1a,444330001oh1a,2020000080,Waiting for approval,1/17/2020,Waiting for approval,Remax,Direct bank transfer,Shanmukha Rama,Ram M,srk@iipl.work,9966269426,,,,,,0,10,1,500237001sw1a,500237002sw0a,10,[bluue] iphone 11 64 GB test,,1,,,,"160/1 R no 21 Vivekanada Nagar,",5000072,Hyderabad,India,Shanmukha Rama,Shanmukha Rama,"160/1 R no 21 Vivekanada Nagar,",5000072,,India,9966269426,false,false,false,,1/17/2020,127.0.0.1,Ram M Shanmukha Rama,,,,,,
504414002si0a,444330001oh1a,2020000081,Waiting for approval,1/17/2020,Waiting for approval,Remax,Direct bank transfer,Shanmukha Rama,Ram M,srk@iipl.work,9966269426,,,,,,0,10,1,500237001sw1a,500237002sw0a,10,[bluue] iphone 11 64 GB test,,1,,,,"160/1 R no 21 Vivekanada Nagar,",5000072,Hyderabad,India,Shanmukha Rama,Shanmukha Rama,"160/1 R no 21 Vivekanada Nagar,",5000072,,India,9966269426,false,false,false,,1/17/2020,127.0.0.1,Ram M Shanmukha Rama,,,,,,
508841001yh1a,444330001oh1a,2020000082,Waiting for approval,1/20/2020,Waiting for approval,Remax,Direct bank transfer,Shanmukha Rama,Ram M,srk@iipl.work,9966269426,,,,,,0,10,1,500237001sw1a,500237002sw0a,10,[bluue] iphone 11 64 GB test,,1,,,,"160/1 R no 21 Vivekanada Nagar,",5000072,Hyderabad,India,,,,,,,,false,false,false,,1/20/2020,127.0.0.1,Ram M Shanmukha Rama,,,,,,
509030001yp1a,,2020000083,Waiting for approval,1/20/2020,Waiting for approval,Remax,Direct bank transfer,Shanmukha RAm,M,srk12@iipl.work,7777777777,,,,,,0,10,1,500237001sw1a,500237002sw0a,10,[bluue] iphone 11 64 GB test,,1,,,,"160/1 R no 21 Vivekanada Nagar,",5000072,Hyderabad,India,,,,,,,,false,false,false,,1/20/2020,127.0.0.1,M Shanmukha RAm,,,,,,
509031001ab1a,,2020000084,Waiting for approval,1/20/2020,Waiting for approval,Remax,Direct bank transfer,Shanmukha RAm,M,srk@iipl.work,8686836269,,,,,,0,20,2,500237001sw1a,500237002sw0a,10,[bluue] iphone 11 64 GB test,,2,,,,"160/1 R no 21 Vivekanada Nagar,",5000072,Hyderabad,India,Shanmukha RAm,Shanmukha RAm,"160/1 R no 21 Vivekanada Nagar,",5000072,,India,8686836269,false,false,false,,1/20/2020,127.0.0.1,M Shanmukha RAm,,,,,,
510283001sw1a,444330001oh1a,2020000085,Waiting for approval,1/21/2020,Waiting for approval,Remax,Direct bank transfer,Shanmukha Rama,Ram M,srk@iipl.work,9966269426,,,,,,0,20397,3,438555001fa1a,435554002xd0a,6799,[Blue] Redmi 8A – 2GB/32GB,,3,,,,"160/1 R no 21 Vivekanada Nagar,",5000072,Hyderabad,India,Shanmukha Rama,Shanmukha Rama,"160/1 R no 21 Vivekanada Nagar,",5000072,Hyderabad,India,9966269426,false,false,false,,1/21/2020,127.0.0.1,Ram M Shanmukha Rama,,,,,,
510531001cc1a,444330001oh1a,2020000086,Waiting for approval,1/21/2020,Waiting for approval,Remax,Direct bank transfer,Shanmukha Rama,Ram M,srk@iipl.work,9966269426,,,,,,0,1050,1,449663001de1a,449653002jx0a,1050,Nokia - 105 SS - 2019,,1,,,,"160/1 R no 21 Vivekanada Nagar,",5000072,Hyderabad,India,Shanmukha Rama,Shanmukha Rama,"160/1 R no 21 Vivekanada Nagar,",5000072,Hyderabad,India,9966269426,false,false,false,,1/21/2020,127.0.0.1,Ram M Shanmukha Rama,,,,,,
510600001tm1a,444330001oh1a,2020000087,Waiting for approval,1/21/2020,Waiting for approval,Remax,Direct bank transfer,Shanmukha Rama,Ram M,srk@iipl.work,9966269426,,,,,,0,10,1,508657001gn1a,508657002gn0a,10,[red] test 132,,1,,,,"160/1 R no 21 Vivekanada Nagar,",5000072,Hyderabad,India,Shanmukha Rama,Shanmukha Rama,"160/1 R no 21 Vivekanada Nagar,",5000072,Hyderabad,India,9966269426,false,false,false,,1/21/2020,127.0.0.1,Ram M Shanmukha Rama,,,,,,
510604001dg1a,444330001oh1a,2020000088,Waiting for approval,1/21/2020,Waiting for approval,Remax,Direct bank transfer,Shanmukha Rama,Ram M,srk@iipl.work,9966269426,,,,,,0,89900,1,431295001yn1a,431275002et0a,89900,iPhone XS –  64 GB,,1,,,,"160/1 R no 21 Vivekanada Nagar,",5000072,Hyderabad,India,Shanmukha Rama,Shanmukha Rama,"160/1 R no 21 Vivekanada Nagar,",5000072,Hyderabad,India,9966269426,false,false,false,,1/21/2020,127.0.0.1,Ram M Shanmukha Rama,,,,,,
510657001rp1a,444330001oh1a,2020000089,Waiting for approval,1/21/2020,Waiting for approval,Remax,Direct bank transfer,Shanmukha Rama,Ram M,srk@iipl.work,9966269426,,,,,,0,98600,2,431295001yn1a,431275002et0a,89900,iPhone XS –  64 GB,,1,,,,"160/1 R no 21 Vivekanada Nagar,",5000072,Hyderabad,India,Shanmukha Rama,Shanmukha Rama,"160/1 R no 21 Vivekanada Nagar,",5000072,Hyderabad,India,9966269426,false,false,false,,1/21/2020,127.0.0.1,Ram M Shanmukha Rama,,,,,,
,,,,,,,,,,,,,,,,,,,,438510001na1a,438434004rb0a,8700,[Black] Samsung Galaxy S10 Plus – 8GB|512GB,,1,,,,,,,,,,,,,,,,,,,,,,,,,,,
514696001ju1a,,2020000090,Waiting for approval,1/24/2020,Waiting for approval,Remax,Direct bank transfer,Shanmukha RAm,M,srk@iipl.work,8686836269,,,,,,0,98400,4,438510001na1a,438510002na0a,900,[White] Samsung Galaxy S10 Plus – 8GB|512GB,,2,,,,"160/1 R no 21 Vivekanada Nagar,",5000072,Hyderabad,India,Shanmukha RAm,Shanmukha RAm,"160/1 R no 21 Vivekanada Nagar,",5000072,Hyderabad,India,8686836269,false,false,false,,1/24/2020,127.0.0.1,M Shanmukha RAm,,,,,,
,,,,,,,,,,,,,,,,,,,,438510001na1a,438434004rb0a,8700,[Black] Samsung Galaxy S10 Plus – 8GB|512GB,,1,,,,,,,,,,,,,,,,,,,,,,,,,,,
,,,,,,,,,,,,,,,,,,,,438510001na1a,438434002rb0a,87900,[Blue] Samsung Galaxy S10 Plus – 8GB|512GB,,1,,,,,,,,,,,,,,,,,,,,,,,,,,,
519286001bc1a,444330001oh1a,2020000091,Waiting for approval,1/27/2020,Waiting for approval,Remax,Direct bank transfer,Shanmukha Rama,Ram M,srk@iipl.work,9966269426,,,,,,0,10,1,508657001gn1a,508657002gn0a,10,[red] test 132,,1,,,,"160/1 R no 21 Vivekanada Nagar,",5000072,Hyderabad,India,Shanmukha Rama,Shanmukha Rama,"160/1 R no 21 Vivekanada Nagar,",5000072,Hyderabad,India,9966269426,false,false,false,,1/27/2020,127.0.0.1,Ram M Shanmukha Rama,,,,,,
520584001pr1a,444330001oh1a,2020000092,Waiting for approval,1/28/2020,Waiting for approval,Remax,Direct bank transfer,Shanmukha Rama,Ram M,srk@iipl.work,9966269426,,,,,,0,89900,1,431295001yn1a,431275002et0a,89900,iPhone XS –  64 GB,,1,,,,"160/1 R no 21 Vivekanada Nagar,",5000072,Hyderabad,India,Shanmukha Rama,Shanmukha Rama,"160/1 R no 21 Vivekanada Nagar,",5000072,Hyderabad,India,9966269426,false,false,false,,1/28/2020,127.0.0.1,Ram M Shanmukha Rama,,,,,,
520584002pr0a,444330001oh1a,2020000093,Waiting for approval,1/28/2020,Waiting for approval,Remax,Direct bank transfer,Shanmukha Rama,Ram M,srk@iipl.work,9966269426,,,,,,0,89900,1,431295001yn1a,431275002et0a,89900,iPhone XS –  64 GB,,1,,,,"160/1 R no 21 Vivekanada Nagar,",5000072,Hyderabad,India,Shanmukha Rama,Shanmukha Rama,"160/1 R no 21 Vivekanada Nagar,",5000072,Hyderabad,India,9966269426,false,false,false,,1/28/2020,127.0.0.1,Ram M Shanmukha Rama,,,,,,
520658001mu1a,444330001oh1a,2020000094,Waiting for approval,1/28/2020,Waiting for approval,Remax,Direct bank transfer,Shanmukha Rama,Ram M,srk@iipl.work,9966269426,,,,,,0,10499,1,438617001fr1a,435554002xd0a,10499,[Blue] Redmi Note 7s – 4GB/64GB,,1,,,,"160/1 R no 21 Vivekanada Nagar,",5000072,Hyderabad,India,Shanmukha Rama,Shanmukha Rama,"160/1 R no 21 Vivekanada Nagar,",5000072,Hyderabad,India,9966269426,false,false,false,,1/28/2020,127.0.0.1,Ram M Shanmukha Rama,,,,,,
520672001dh1a,444330001oh1a,2020000095,Waiting for approval,1/28/2020,Waiting for approval,Remax,Direct bank transfer,Shanmukha Rama,Ram M,srk@iipl.work,9966269426,,,,,,0,4699,1,438561001eu1a,435554002xd0a,4699,Redmi GO – 1G/16GB,,1,,,,"160/1 R no 21 Vivekanada Nagar,",5000072,Hyderabad,India,Shanmukha Rama,Shanmukha Rama,"160/1 R no 21 Vivekanada Nagar,",5000072,Hyderabad,India,9966269426,false,false,false,,1/28/2020,127.0.0.1,Ram M Shanmukha Rama,,,,,,
520672002dh0a,444330001oh1a,2020000096,Waiting for approval,1/28/2020,Waiting for approval,Remax,Direct bank transfer,Shanmukha Rama,Ram M,srk@iipl.work,9966269426,,,,,,0,4699,1,438561001eu1a,435554002xd0a,4699,Redmi GO – 1G/16GB,,1,,,,"160/1 R no 21 Vivekanada Nagar,",5000072,Hyderabad,India,Shanmukha Rama,Shanmukha Rama,"160/1 R no 21 Vivekanada Nagar,",5000072,Hyderabad,India,9966269426,false,false,false,,1/28/2020,127.0.0.1,Ram M Shanmukha Rama,,,,,,
520673001xb1a,444330001oh1a,2020000097,Waiting for approval,1/28/2020,Waiting for approval,Remax,Direct bank transfer,Shanmukha Rama,Ram M,srk@iipl.work,9966269426,,,,,,0,7299,1,438557001de1a,435554002xd0a,7299,[Blue] Redmi 8A – 3GB/32GB,,1,,,,"160/1 R no 21 Vivekanada Nagar,",5000072,Hyderabad,India,Shanmukha Rama,Shanmukha Rama,"160/1 R no 21 Vivekanada Nagar,",5000072,Hyderabad,India,9966269426,false,false,false,,1/28/2020,127.0.0.1,Ram M Shanmukha Rama,,,,,,
520674001ii1a,444330001oh1a,2020000098,Waiting for approval,1/28/2020,Waiting for approval,Remax,Direct bank transfer,Shanmukha Rama,Ram M,srk@iipl.work,9966269426,,,,,,0,10499,1,438617001fr1a,435554002xd0a,10499,[Blue] Redmi Note 7s – 4GB/64GB,,1,,,,"160/1 R no 21 Vivekanada Nagar,",5000072,Hyderabad,India,Shanmukha Rama,Shanmukha Rama,"160/1 R no 21 Vivekanada Nagar,",5000072,Hyderabad,India,9966269426,false,false,false,,1/28/2020,127.0.0.1,Ram M Shanmukha Rama,,,,,,
520679001ju1a,444330001oh1a,2020000099,Waiting for approval,1/28/2020,Waiting for approval,Remax,Direct bank transfer,Shanmukha Rama,Ram M,srk@iipl.work,9966269426,,,,,,0,10,1,500237001sw1a,500237002sw0a,10,[bluue] iphone 11 64 GB test,,1,,,,"160/1 R no 21 Vivekanada Nagar,",5000072,Hyderabad,India,Shanmukha Rama,Shanmukha Rama,"160/1 R no 21 Vivekanada Nagar,",5000072,Hyderabad,India,9966269426,false,false,false,,1/28/2020,127.0.0.1,Ram M Shanmukha Rama,,,,,,
521711001sf1a,,2020000100,Waiting for approval,1/29/2020,Waiting for approval,Remax,Direct bank transfer,Shanmukha,Ram,srk@iipl.work,8686836269,,,,,,0,10,1,500237001sw1a,500237002sw0a,10,[bluue] iphone 11 64 GB test,,1,,,,Plt no 80/B Subbodhya Colony,500072,Hyderabad,India,Shanmukha,Shanmukha,Plt no 80/B Subbodhya Colony,500072,Hyderabad,India,8686836269,false,false,false,,1/29/2020,127.0.0.1,Ram Shanmukha,,,,,,
521779001as1a,,2020000101,Waiting for approval,1/29/2020,Waiting for approval,Remax,Direct bank transfer,Shanmukha,Ram,srk@iipl.work,8686836269,,,,,,0,10499,1,438617001fr1a,435554002xd0a,10499,[Blue] Redmi Note 7s – 4GB/64GB,,1,,,,Plt no 80/B Subbodhya Colony,500072,Hyderabad,India,Shanmukha,Shanmukha,Plt no 80/B Subbodhya Colony,500072,Hyderabad,India,8686836269,false,false,false,,1/29/2020,127.0.0.1,Ram Shanmukha,,,,,,
521783001ir1a,,2020000102,Waiting for approval,1/29/2020,Waiting for approval,Remax,Direct bank transfer,Shanmukha,Ram,srk@iipl.work,8686836269,,,,,,0,1,1,500237001sw1a,504440001gi1a,1,[red] iphone 11 64 GB test,,1,,,,Plt no 80/B Subbodhya Colony,500072,Hyderabad,India,Shanmukha,Shanmukha,Plt no 80/B Subbodhya Colony,500072,Hyderabad,India,8686836269,false,false,false,,1/29/2020,127.0.0.1,Ram Shanmukha,,,,,,
521787001cm1a,,2020000103,Waiting for approval,1/29/2020,Waiting for approval,Remax,Direct bank transfer,Shanmukha,Ram,srk@iipl.work,8686836269,,,,,,0,1,1,500237001sw1a,504440001gi1a,1,[red] iphone 11 64 GB test,,1,,,,Plt no 80/B Subbodhya Colony,500072,Hyderabad,India,Shanmukha,Shanmukha,Plt no 80/B Subbodhya Colony,500072,Hyderabad,India,8686836269,false,false,false,,1/29/2020,127.0.0.1,Ram Shanmukha,,,,,,
521788001ox1a,,2020000104,Waiting for approval,1/29/2020,Waiting for approval,Remax,Direct bank transfer,Shanmukha,Ram,srk@iipl.work,8686836269,,,,,,0,1,1,500237001sw1a,504440001gi1a,1,[red] iphone 11 64 GB test,,1,,,,Plt no 80/B Subbodhya Colony,500072,Hyderabad,India,Shanmukha,Shanmukha,Plt no 80/B Subbodhya Colony,500072,Hyderabad,India,8686836269,false,false,false,,1/29/2020,127.0.0.1,Ram Shanmukha,,,,,,
521792001jb1a,,2020000105,Waiting for approval,1/29/2020,Waiting for approval,Remax,Direct bank transfer,Shanmukha,Ram,srk@iipl.work,8686836269,,,,,,0,1,1,500237001sw1a,504440001gi1a,1,[red] iphone 11 64 GB test,,1,,,,Plt no 80/B Subbodhya Colony,500072,Hyderabad,India,Shanmukha,Shanmukha,Plt no 80/B Subbodhya Colony,500072,Hyderabad,India,8686836269,false,false,false,,1/29/2020,127.0.0.1,Ram Shanmukha,,,,,,
521915001rl1a,,2020000106,Waiting for approval,1/29/2020,Waiting for approval,Remax,Direct bank transfer,Shanmukha,Ram,srk@iipl.work,8686836269,,,,,,0,2,2,500237001sw1a,504440001gi1a,1,[red] iphone 11 64 GB test,,2,,,,Plt no 80/B Subbodhya Colony,500072,Hyderabad,India,Shanmukha,Shanmukha,Plt no 80/B Subbodhya Colony,500072,Hyderabad,India,8686836269,false,false,true,20200129111212800110168224511094199,1/29/2020,127.0.0.1,Ram Shanmukha,,,,,,1/29/2020
523505001fo1a,,2020000107,Waiting for approval,1/30/2020,Waiting for approval,Remax,Direct bank transfer,Shanmukha,Ram,srk@iipl.work,8686836269,,,,,,0,1,1,500237001sw1a,504440001gi1a,1,[red] iphone 11 64 GB test,,1,,,,Plt no 80/B Subbodhya Colony,500072,Hyderabad,India,Shanmukha,Shanmukha,Plt no 80/B Subbodhya Colony,500072,Hyderabad,India,8686836269,false,false,false,,1/30/2020,127.0.0.1,Ram Shanmukha,,,,,,
523544001kh1a,,2020000108,Waiting for approval,1/30/2020,Waiting for approval,Remax,Direct bank transfer,Shanmukha,Ram,srk@iipl.work,8686836269,,,,,,0,10499,1,438617001fr1a,435554002xd0a,10499,[Blue] Redmi Note 7s – 4GB/64GB,,1,,,,Plt no 80/B Subbodhya Colony,500072,Hyderabad,India,Shanmukha,Shanmukha,Plt no 80/B Subbodhya Colony,500072,Hyderabad,India,8686836269,false,false,false,,1/30/2020,127.0.0.1,Ram Shanmukha,,,,,,
523587001yi1a,,2020000109,Waiting for approval,1/30/2020,Waiting for approval,Remax,Direct bank transfer,Shanmukha,Ram,srk@iipl.work,8686836269,,,,,,0,1,1,500237001sw1a,504440001gi1a,1,[red] iphone 11 64 GB test,,1,,,,Plt no 80/B Subbodhya Colony,500072,Hyderabad,India,Shanmukha,Shanmukha,Plt no 80/B Subbodhya Colony,500072,Hyderabad,India,8686836269,false,false,false,,1/30/2020,127.0.0.1,Ram Shanmukha,,,,,,
523598001tj1a,,2020000110,Waiting for approval,1/30/2020,Waiting for approval,Remax,Direct bank transfer,Shanmukha,Ram,srk@iipl.work,8686836269,,,,,,0,10499,1,438617001fr1a,435554002xd0a,10499,[Blue] Redmi Note 7s – 4GB/64GB,,1,,,,Plt no 80/B Subbodhya Colony,500072,Hyderabad,India,Shanmukha,Shanmukha,Plt no 80/B Subbodhya Colony,500072,Hyderabad,India,8686836269,false,false,false,,1/30/2020,127.0.0.1,Ram Shanmukha,,,,,,
523598002tj0a,,2020000111,Waiting for approval,1/30/2020,Waiting for approval,Remax,Direct bank transfer,Shanmukha,Ram,srk@iipl.work,8686836269,,,,,,0,10499,1,438617001fr1a,435554002xd0a,10499,[Blue] Redmi Note 7s – 4GB/64GB,,1,,,,Plt no 80/B Subbodhya Colony,500072,Hyderabad,India,Shanmukha,Shanmukha,Plt no 80/B Subbodhya Colony,500072,Hyderabad,India,8686836269,false,false,false,,1/30/2020,127.0.0.1,Ram Shanmukha,,,,,,
523598003tj1a,,2020000112,Waiting for approval,1/30/2020,Waiting for approval,Remax,Direct bank transfer,Shanmukha,Ram,srk@iipl.work,8686836269,,,,,,0,10499,1,438617001fr1a,435554002xd0a,10499,[Blue] Redmi Note 7s – 4GB/64GB,,1,,,,Plt no 80/B Subbodhya Colony,500072,Hyderabad,India,Shanmukha,Shanmukha,Plt no 80/B Subbodhya Colony,500072,Hyderabad,India,8686836269,false,false,false,,1/30/2020,127.0.0.1,Ram Shanmukha,,,,,,
523604001ta1a,,2020000113,Waiting for approval,1/30/2020,Waiting for approval,Remax,Direct bank transfer,Shanmukha,Ram,srk@iipl.work,8686836269,,,,,,0,1,1,500237001sw1a,504440001gi1a,1,[red] iphone 11 64 GB test,,1,,,,Plt no 80/B Subbodhya Colony,500072,Hyderabad,India,Shanmukha,Shanmukha,Plt no 80/B Subbodhya Colony,500072,Hyderabad,India,8686836269,false,false,false,,1/30/2020,127.0.0.1,Ram Shanmukha,,,,,,
523753001hb1a,,2020000114,Waiting for approval,1/30/2020,Waiting for approval,Remax,Direct bank transfer,Shanmukha,Ram,srk@iipl.work,8686836269,,,,,,0,179800,2,431295001yn1a,431275002et0a,89900,iPhone XS –  64 GB,,2,,,,Plt no 80/B Subbodhya Colony,500072,Hyderabad,India,Shanmukha,Shanmukha,Plt no 80/B Subbodhya Colony,500072,Hyderabad,India,8686836269,false,false,false,,1/30/2020,127.0.0.1,Ram Shanmukha,,,,,,
523758001ac1a,,2020000115,Waiting for approval,1/30/2020,Waiting for approval,Remax,Direct bank transfer,Shanmukha,Ram,srk@iipl.work,8686836269,,,,,,0,1,1,500237001sw1a,504440001gi1a,1,[red] iphone 11 64 GB test,,1,,,,Plt no 80/B Subbodhya Colony,500072,Hyderabad,India,Shanmukha,Shanmukha,Plt no 80/B Subbodhya Colony,500072,Hyderabad,India,8686836269,false,false,false,,1/30/2020,127.0.0.1,Ram Shanmukha,,,,,,
529298001hc1a,,2020000116,Waiting for approval,2/3/2020,Waiting for approval,Remax,Direct bank transfer,Shanmukha,Ram,srk@iipl.work,8686836269,,,,,,0,1,1,500237001sw1a,504440001gi1a,1,[red] iphone 11 64 GB test,,1,,,,Plt no 80/B Subbodhya Colony,500072,Hyderabad,India,Shanmukha,Shanmukha,Plt no 80/B Subbodhya Colony,500072,Hyderabad,India,8686836269,false,false,false,,2/3/2020,127.0.0.1,Ram Shanmukha,,,,,,
541885001fn1a,,2020000118,Waiting for approval,2/12/2020,Waiting for approval,Remax,Direct bank transfer,Shanmukha,Ram,srk@iipl.work,8686836269,,,,,,0,1,1,500237001sw1a,504440001gi1a,1,[red] iphone 11 64 GB test,,1,,,,Plt no 80/B Subbodhya Colony,500072,Hyderabad,India,Shanmukha,Shanmukha,Plt no 80/B Subbodhya Colony,500072,Hyderabad,India,8686836269,false,false,false,,2/12/2020,127.0.0.1,Ram Shanmukha,,,,,,,false,false
541936001le1a,,2020000119,Waiting for approval,2/12/2020,Waiting for approval,Remax,Direct bank transfer,Shanmukha,Ram,srk@iipl.work,8686836269,,,,,,0,1,1,500237001sw1a,504440001gi1a,1,[red] iphone 11 64 GB test,,1,,,,Plt no 80/B Subbodhya Colony,500072,Hyderabad,India,Shanmukha,Shanmukha,Plt no 80/B Subbodhya Colony,500072,Hyderabad,India,8686836269,false,false,false,,2/12/2020,127.0.0.1,Ram Shanmukha,,,,,,,true,false,2/12/2020
542166001nn1a,,2020000120,Waiting for approval,2/12/2020,Waiting for approval,Remax,Direct bank transfer,Shanmukha,Ram,srk@iipl.work,8686836269,,,,,,0,47399,1,431252001tu1a,431047002hp0a,47399,iPhone XR – 64GB,,1,,,,Plt no 80/B Subbodhya Colony,500072,Hyderabad,India,Shanmukha,Shanmukha,Plt no 80/B Subbodhya Colony,500072,Hyderabad,India,8686836269,false,false,false,,2/12/2020,127.0.0.1,Ram Shanmukha,,,,,,,false,false,
546142001ro1a,,2020000121,Waiting for approval,2/15/2020,Waiting for approval,Remax,Direct bank transfer,Shanmukha,Ram,srk@iipl.work,8686836269,,,,,,0,6799,1,438555001fa1a,435554002xd0a,6799,[Blue] Redmi 8A – 2GB/32GB,,1,,,,Plt no 80/B Subbodhya Colony,500072,Hyderabad,India,Shanmukha,Shanmukha,Plt no 80/B Subbodhya Colony,500072,Hyderabad,India,8686836269,false,false,false,,2/15/2020,127.0.0.1,Ram Shanmukha,,,,,,,true,false,2/15/2020
546160001gk1a,,2020000122,Waiting for approval,2/15/2020,Waiting for approval,Remax,Direct bank transfer,Shanmukha,Ram,srk@iipl.work,8686836269,,,,,,0,6799,1,438555001fa1a,435554002xd0a,6799,[Blue] Redmi 8A – 2GB/32GB,,1,,,,Plt no 80/B Subbodhya Colony,500072,Hyderabad,India,Shanmukha,Shanmukha,Plt no 80/B Subbodhya Colony,500072,Hyderabad,India,8686836269,false,false,false,,2/15/2020,127.0.0.1,Ram Shanmukha,,,,,,,true,false,2/15/2020