Orderid,OrderNo,Name,Email,price,status,internalNote,CityName,BillingAddress,DeliveryAddress,Products,Paymentstatus,Ordertype,Date,DeliveryPhoneNum,PhoneNum,Brand
154190001ta61b,2020002692,Kumar Pavan,pavan11097@gmail.com,15999,Canceled EMI RELATED,waiting for update,Kurnool,Guru raghavendhra nagar Kurnool 518002,Guru raghavendhra nagar Kurnool 518002,[Comet Blue] Realme 6 - 6GB|128GB X 1 - ,none,none,18-5-2020,8143411097,8143411097, Realme
154190002ta60b,2020002693,Ganta Swaminaidu,vyku423@gmail.com,14499,RNR,waiting for update,N/A,VEERAVALLI POST  UMAMHEAWARA PURAM Gannavaram 521105,N/A N/A N/A,Xiaomi Redmi Note 9 Pro White 4GB|64GB X 1 - ,none,pickup,18-5-2020,9885192932,9885192932, Xiaomi
154234001ui61b,2020002695,Senapathi Suryaparaksh,senapathisuryaprakash15@gmail.com,13999,Canceled,waiting for update,VISAKHAPATNAM,N G G OS COLONY VISAKHAPATANAM 37-11-70/1,N G G OS COLONY VISAKHAPATNAM 530007,Realme 6 Blue 4GB|64GB X 1 - ,cod,none,18-5-2020,9494189918,9494189918, Realme
154253001hl61b,2020002696,Sri Murali,baswasrimurali96@gmail.com,18999,RNR,waiting for update,N/A,K. Savaram Tanuku 534211,N/A N/A N/A,[Lightning Blue] Realme 6 Pro - 6GB|128GB X 1 - ,none,pickup,18-5-2020,9652460174,9652460174, Realme
154294001gr61b,2020002697,Ram Sri,sriramabburi2012@gmail.com,31999,Waiting for approval,waiting for update,Hyderabad,Miyapur   Mayuri nagar Hyderabad 500049,Miyapur   Mayuri nagar Hyderabad 500049,[White] Realme X2 Pro - 8GB|128GB X 1 - ,cod,none,18-5-2020,8374375822,8374375822, Realme
154336001ub61b,2020002698,Pathiwar Sandeep,sandeepraj0921@gmail.com,9999,Waiting for approval,waiting for update,Hyderabad,Plot no 43 road no 7 sobgyapuram colony Hyderabad 500035,Plot no 43 road no 7 sobgyapuram colony Hyderabad 500035,Realme 5i Aqua Blue 4GB|64GB X 1 - ,cod,none,18-5-2020,9966018900,9966018900, Realme
154339001rb61b,2020002699,Karri Samuel,samuelrockkarri@gmail.com,13990,Waiting for approval,waiting for update,Guntur,Ravela charch Guntur I want to buy a new mobile,Ravela charch Guntur I want to buy a new mobile,[White] Oppo A5 2020 - 4GB|64GB X 1 - ,cod,none,18-5-2020,9866203912,9866203912, Oppo
154357001po61b,2020002700,K Sneha,sneha.kommawar@gmail.com,9999,Waiting for approval,waiting for update,Hyderabad,11-1-140 sowbagyapuri kothapet Hyderabad 500035,11-1-140 sowbagyapuri kothapet Hyderabad 500035,Realme 5i Aqua Blue 4GB|64GB X 1 - ,cod,none,18-5-2020,9493532153,9493532153, Realme
154359001oi61b,2020002701,Hashmi Saifuddin,saifuddinhashmi86@gmail.com,15999,Goods sent,waiting for update,Hyderabad,11-1-1204/1/87  Habeeb nagar  mallepally  Hyderabad Hyderabad 500001,11-1-1204/1/87  Habeeb nagar  mallepally  Hyderabad Hyderabad 500001,[Comet Blue] Realme 6 - 6GB|128GB X 1 - ,cod,none,18-5-2020,7780454883,7780454883, Realme
154382001yd61b,2020002703,Gaddam Ajaykumar,chefajaykumar.g@gmail.com,13999,RNR,waiting for update,secunderabad,maruthi veedi  monda market secunderabad 500003,maruthiveedi   mondamarket secunderabad 500003,Realme 6 Blue 4GB|64GB X 1 - ,cod,none,18-5-2020,9963893951,9963893951, Realme
154400001kr61b,2020002705,K Jaya Viswanatha Reddy,visureds@gmail.com,25250,Goods sent,waiting for update,Vijayawada,20-2/3-19  Sri Krishna towers F7 2nd floor  adepalli narsaraju road 2nd line ayodhyanagar Vijayawada 52003,20-2/3-19  Sri Krishna towers F7 2nd floor  adepalli narsaraju road 2nd line ayodhyanagar Vijayawada 520003,Samsung Galaxy A51 Blue 6GB|128GB X 1 - ,paid #593921,none,18-5-2020,8867780430,8867780430, Samsung
154406001op61b,2020002706,Muppidi M S Babu,msbabu1974@gmail.com,13999,Goods sent,waiting for update,Hyderabad,5 -b type 3 GPRA campus indira nagar Hyderabad Gachibowli,5 -b type 3 GPRA campus indira nagar LEFT TO MUMBAI HIHWAY RING ROAD Hyderabad 500032,Realme 6 White 4GB|64GB X 1 - ,paid #593928,none,18-5-2020,8555857721,8555857721, Realme
154407001ix61b,2020002707,Basha Shahid,dhonishahid008@gmail.com,16999,RNR,waiting for update,Kurnool,Kurnool Kurnool 518001,Kurnool Kurnool 518001,[Green] Redmi Note 8 Pro – 6GB|128GB X 1 - ,cod,none,18-5-2020,8886373318,8886373318, Xiaomi
154417001wh61b,2020002708,Khaliq Abdul,ak8314561@gmail.com,17499,RNR,waiting for update,Hyderabad,Kondapur sriram nagar Hyderabad 500084,Kondapur sriram nagar Hyderabad 500084,Xiaomi Redmi Note 9 Pro Black 6GB|128GB X 1 - ,cod,none,18-5-2020,7032153312,7032153312, Xiaomi
154420001do61b,2020002709,Nani Venky,chalamalavenkatesh2000@gmail.com,18999,RNR,waiting for update,Nuzvid,Nandamurri petta Nuzvid 521201,Nandamurri petta Nuzvid 521201,[Lightning Blue] Realme 6 Pro - 6GB|128GB X 1 - ,cod,none,18-5-2020,9642421963,9642421963, Realme
154421001bp61b,2020002710,Narayana Parameswaran,narayana.paraman@gmail.com,9999,Goods sent,waiting for update,Hyderabad,H. No. 16-11-405/34B SBI officers Colony Moosarambagh Hyderabad 500036,H. No. 16-11-405/34B  SBI officers Colony  Moosarambagh Hyderabad 500036,Realme 5i Aqua Blue 4GB|64GB X 1 - ,cod,none,18-5-2020,8096306350,8096306350, Realme
154436001di61b,2020002711,Venkatadri Venkatesh,mr.perfectrb@gmail.com,13999,RNR,waiting for update,N/A,Madwar Mahaboob nagar 509351,N/A N/A N/A,Realme 6 Blue 4GB|64GB X 1 - ,cod,pickup,18-5-2020,8341927371,8341927371, Realme
154437001gw61b,2020002712,Rahul Singh Thakur,rahulthakur4457@gmail.com,25250,Canceled,waiting for update,N/A,14-1-88/12/A Friends colony new allapur  borabanda Hyderabad 500018,N/A N/A N/A,Samsung Galaxy A51 Blue 6GB|128GB X 1 - ,cod,pickup,18-5-2020,8801623730,8801623730, Samsung
154447001ys61b,2020002717,KORRAPATI Naveen,naveenchowdary1616@gmail.com,9999,Goods sent,waiting for update,HYDERABAD,PNO.153 HNO.13-1-91 FIRST FLOOR MOTINAGAR HYDERABAD 500018,PNO.153 HNO.13-1-91 FIRST FLOOR MOTINAGAR  LEELAHOSPITAL ROAD HYDERABAD 500018,Realme 5i Aqua Blue 4GB|64GB X 1 - ,cod,none,18-5-2020,7285943208,7285943208, Realme
154461001ex61b,2020002718,Akram Waseem,waseem.eagleboyz@gmail.com,32999,RNR,waiting for update,N/A,Tolichowki Hyderabad 500008,N/A N/A N/A,Samsung GalaxyA71 Silver 8GB|128GB X 1 - ,none,pickup,18-5-2020,9553786039,9553786039, Samsung
154470001rs61b,2020002719,Gundumalla Vishal,vishalkumargundumalla@gmail.com,13999,Canceled,waiting for update,N/A,Vambay colony  beside sadhguru clinic laxmiguda Rajendranagar 500005,N/A N/A N/A,[Blue] Redmi Note 8 – 6GB/128GB X 1 - ,cod,pickup,18-5-2020,9966980405,9966980405, Xiaomi
154480001en61b,2020002721,Chaitanker Niranjan,chaitanker@gmail.com,19998,Canceled,waiting for update,N/A,14-9-108 Chudi Bazar gowli basti Hyderabad 500012,N/A N/A N/A,Realme 5i Aqua Blue 4GB|64GB X 2 - ,cod,pickup,18-5-2020,9246349221,9246349221, Realme
154487001ci61b,2020002722,Lanka Rahul,raghavakumari2207@gmail.com,14499,Waiting for approval,waiting for update,Vijayawada,59/a-13-6  Old Postal Colony  Patamata Vijayawada Vijayawada 520010,59/a-13-6  Old Postal Colony  Patamata Vijayawada Vijayawada 520010,Xiaomi Redmi Note 9 Pro Black 4GB|64GB X 1 - ,cod,none,18-5-2020,9492413924,9492413924, Xiaomi
154502001wp61b,2020002723,Y.RAVIKUMAR Y.RAVIKUMAR,yerragunta007@gmail.com,10599,Canceled COD ISSUE,waiting for update,Vijayawada,"Nallurisatyanaraya nagar Vijayawada NSM public school, Patamata",Nallurisatyanaraya nagar Vijayawada 520010,Moto G7 - 4 GB RAM | 64 GB ROM X 1 - ,cod,none,18-5-2020,9000642256,9000642256,
154504001dm61b,2020002724,Ravi Naveen,naveenkumarraavi93@gmail.com,47999,Goods sent,waiting for update,Hyderabad,13-6-278/279  jafferguda  karwan near mohini function hall near annapurna temple Hyderabad 500006,13-6-278/279  jafferguda  karwan  Near Mohini function Hall Near annapurna temple GUDIMALKAPUR MEHADIPATNAM Hyderabad 500006,[Blue] OnePlus 7T Pro – 8GB|256GB X 1 - ,cod,none,18-5-2020,9246365365,9246365365, Oneplus
154510001ta61b,2020002725,Gurram Narendar,narendargurram90@gmail.com,9599,onhold,waiting for update,Sujathanagar,Sujathanagar Sujathanagar Harijanawada,Harijanawada Sujathanagar Sujathanagar,Redmi 8 Black 4GB|64GB X 1 - ,cod,none,18-5-2020,9951777136,9550837151, Xiaomi
154514001sa61b,2020002726,Bangaru Manoj Sai,manojsai905@gmail.com,15999,onhold,waiting for update,Anantapur,Lakshmi Nagar Anantapur 515001,Lakshmi Nagar Anantapur 515001,[Comet White] Realme 6 - 6GB|128GB X 1 - ,cod,none,18-5-2020,9110796180,9110796180, Realme
154530001jy61b,2020002728,Kumar Grace,gracekumar9@gmail.com,97999,Canceled,waiting for update,N/A,Phani babu street Vijayawada 520013,N/A N/A N/A,Samsung Galaxy S20Ultra(Grey) X 1 - ,none,pickup,18-5-2020,9494054294,9494054294, Samsung
154540001ff61b,2020002729,Neerpet Mahender,mahenderneerpet54@gmail.com,7999,onhold,waiting for update,Hyderbad,Balapur busstop Hyderbad 500005,Balapur busstop Hyderbad 500005,Redmi 8A Dual Grey 3GB|32GB X 1 - ,cod,none,18-5-2020,7981395935,7981395935, Xiaomi
154553001ub61b,2020002730,Reddy Prasad,sr_munna@yahoo.com,131900,onhold,waiting for update,Hyderabad,2-43/6 Hyderabad 500072,23/15/3  Hyderabad 500039,[Green] iPhone 11 Pro Max Green 256GB X 1 - ,none,none,18-5-2020,9989123450,9989123450, Apple
154555001ao61b,2020002731,Ram Sri,sriramabburi2012@gmail.com,19999,RNR,waiting for update,Hyderabad,Dhivya Shree shakti apartments Hyderabad 500049,Dhivya Shree shakti apartments MAYURI NAGAR MIYAPUR BUS DEPOT Hyderabad 500049,[Blue] Realme X2 - 6GB|128GB X 1 - ,cod,none,18-5-2020,8374375822,8374375822, Realme
154561001na61b,2020002733,V SAILAJA,sailuvajjah@gmail.com,9999,Goods sent,waiting for update,HYDERABAD,HNO:5-38/3/FF OPP LANE TO BANK OF BARODA MALKAJGIRI HYDERABAD 500047,HNO:5-38/3/FF OPP LANE TO BANK OF BARODA MALKAJGIRI HYDERABAD 500047,Realme 5i Aqua Blue 4GB|64GB X 1 - ,paid #594254,none,18-5-2020,7799003030,7799003030, Realme
154564001fx61b,2020002734,Reddy Prasad,sr_munna@yahoo.com,131900,Waiting for approval,waiting for update,Uppal,23/15/3 Uppal 500039,H No 2-34/15/6 Uppal 500039,[Green] iPhone 11 Pro Max Green 256GB X 1 - ,none,none,18-5-2020,9989123450,9989123450, Apple
154591001xg61b,2020002737,Kumar Naresh,nareshkanna136@gmail.co,34999,RNR,waiting for update,Hyderabad,uppal parvathapuram Hyderabad 500039,uppal parvathapuram Hyderabad 500039,[Silver] OnePlus 7T – 8GB|128GB X 1 - ,cod,none,18-5-2020,9966053415,9966053415, Oneplus
154592001th61b,2020002738,Reddy Vasu,reddyvasudeva775@gmail.com,14499,Canceled,waiting for update,Hyderabad,Bapunagar langarhouse Hyderabad 500008,Bapunagar langarhouse Hyderabad 500008,Xiaomi Redmi Note 9 Pro Black 4GB|64GB X 1 - ,cod,none,18-5-2020,9676081595,9676081595, Xiaomi
154596001nd61b,2020002739,Baig Mogal Fayaz,sajidmohammed17861@outlook.com,13999,Waiting for approval,waiting for update,Visakhapatnam,Ambusarang street old post office  Visakhapatnam 530001,Ambusarang street old post office  Visakhapatnam 530001,Realme 6 Blue 4GB|64GB X 1 - ,cod,none,18-5-2020,9502226113,9502226113, Realme
154598001tw61b,2020002740,Kumar Pavan,pavankumar11822@gmail.com,16999,PAYMENT,waiting for update,N/A,Panchalingala saibaba street h.no 1/283 violet colour house Kurnool 518004,N/A N/A N/A,[Green] Redmi Note 8 Pro – 6GB|128GB X 1 - ,cod,pickup,18-5-2020,7396541066,7396541066, Xiaomi
154618001mj61b,2020002741,Bhavaraju Gopala Murthy,sairam.bhavaraju@gmail.com,7999,Goods sent,waiting for update,Hyderabad,F.no-202 P.no-134 HMT Sathavahana Nagar Kukatpally Hyderabad 500072,F.no-202 P.no-134 HMT Sathavahana Nagar Kukatpally Hyderabad 500072,Redmi 8A Dual White 3GB|32GB X 1 - ,paid #594423,none,18-5-2020,9177744246,9177744246, Xiaomi
154619001ma61b,2020002742,Naik Srikanth,doc.srikanth.naik@gmail.com,84100,Canceled,waiting for update,Uppal,H No 2-34/15/6 Uppal 500039,H No 2-34/15/6 Uppal 500039,[Black] iPhone 11 - 256GB X 1 - ,none,none,18-5-2020,9989123450,9989123450, Apple
154635001lm61b,2020002743,Kumar Abhimanyu,abhimannuyadav2014@gmail.com,9999,Canceled COD ISSUE,waiting for update,Vskp,Harmony foods Vskp 530012,Harmony foods Vskp 530012,Realme 5i Aqua Blue 4GB|64GB X 1 - ,cod,none,18-5-2020,9182918746,9182918746, Realme
154636001ee61b,2020002745,Sherina Nisha,nishasherinaaadhira@gmail.com,42500,Canceled,waiting for update,Trichy,9/1 Ganesh apartments Balaji nagar new raja colony Trichy 620001,9/1 Ganesh apartments Balaji nagar new raja colony beemanagar Trichy 620001,iPhone SE 2020 Red 64GB X 1 - ,none,none,18-5-2020,8610843212,8610843212, Apple
154638001oo61b,2020002747,Naik Srikanth,doc.srikanth.naik@gmail.com,73600,Canceled,waiting for update,Uppal,H No 2-34/15/6 Uppal 500039,H No 2-34/15/6 Uppal 500039,[Black] iPhone 11 - 128GB X 1 - ,none,none,18-5-2020,9989123450,9989123450, Apple
154650001rh61b,2020002748,Borah Bedanta,bedanta85092@gmail.com,21990,Waiting for approval,waiting for update,Hyderabad,Papi Reddy colony Hyderabad Chandanagar,Papi Reddy colony Hyderabad 500050,[Unicorn White] Oppo F15 - 8GB|128GB BLACK X 1 - ,cod,none,18-5-2020,7989404987,7989404987, Oppo
154654001lx61b,2020002749,Jai Siva Naga Sai Maddi,maddijaisiva@gmail.com,19999,Waiting for approval,waiting for update,N/A,Srinivas nagar 70-2-24/10 near grace temple Vijayawada 520001,N/A N/A N/A,[Blue] Realme X2 - 6GB|128GB X 1 - ,none,pickup,18-5-2020,8639520439,8639520439, Realme
154656001yu61b,2020002750,Gottam Vijayarakesh,vijayrakeshgottam@gmail.com,114162,Canceled GT VENDOR,waiting for update,N/A,Indiranagar Hanumanjunction 521105,N/A N/A N/A,Realme 5i Aqua Blue 4GB|64GB X 2 - Realme 6 Blue 4GB|64GB X 1 - Redmi 8A Dual White 3GB|32GB X 3 - Redmi 8 Black 4GB|64GB X 2 - [Blue] Vivo Y91i Blue 3GB|32GB X 1 - [White] Vivo Y19 White 4GB|128GB X 1 - [Red] Vivo Y15 - 4GB|64GB X 1 - ,cod,pickup,18-5-2020,9912273737,9912273737, Realme Vivo Xiaomi
154658001ri61b,2020002751,SATYA ROHIT,darbha1998@gmail.com,5899,Goods sent,waiting for update,HYDERABAD,H.NO.16-11-20/25  Sai Ratna Castle  flat no:G2  Saleem Nagar Colony  Malakpet  Hyderabad HYDERABAD 500036,H.NO.16-11-20/25  Sai Ratna Castle  flat no:G2  Saleem Nagar Colony  Malakpet  Hyderabad HYDERABAD 500036,boAt Aavante Bar 1200 80 W Bluetooth Soundbar X 1 - ,cod,none,18-5-2020,9550870349,9550870349,
154660001jy61b,2020002752,Ch Srinivas,srinivas123143@gmail.com,19598,onhold,waiting for update,Hyderabad,BN Reddy Nagar  Vanasthalipuram Hyderabad 500070,BN Reddy Nagar  Vanasthalipuram Hyderabad 500070,Redmi 8 Green 4GB|64GB X 1 - Realme 5i Aqua Blue 4GB|64GB X 1 - ,cod,none,18-5-2020,9948006003,9948006003, Realme Xiaomi
154664001ur61b,2020002753,Azmath Shaik,azmathshaik958@gmail.com,17499,Goods sent,waiting for update,Hyderabad,Rajnarsimha colony Hyderabad 500059,Rajnarsimha colony  MIDHANI DEPOT Hyderabad 500059,Xiaomi Redmi Note 9 Pro Aurora Blue 6GB|128GB X 1 - ,none,none,18-5-2020,6300542885,7075035739, Xiaomi
154666001fo61b,2020002754,Dudekula Anwar,anwardrams@gmail.com,13999,RNR,waiting for update,tadipatri,maruthi nagar tadipatri 515411,maruthi nagar tadipatri 515411,Realme 6 Blue 4GB|64GB X 1 - ,cod,none,18-5-2020,9948585361,9948585361, Realme
154668001mc61b,2020002756,Gogineni Yugandhar,ygoginenigogineni2001@gmail.com,13999,Canceled COD ISSUE,waiting for update,N/A,Kothapatnam road Ongole 9951885276,N/A N/A N/A,Realme 6 Blue 4GB|64GB X 1 - ,none,pickup,18-5-2020,9951885276,9951885276, Realme
154672001xo61b,2020002757,Swamy Ratikant,ratikant.is.swamy@gmail.com,13999,Canceled,waiting for update,bang,bangalor bang 560078,bangalor bang 560078,Realme 6 Blue 4GB|64GB X 1 - ,none,none,18-5-2020,7204857292,7204857292, Realme
154684001nf61b,2020002760,Sam Kiran,abrahamjoseph240@gmail.com,9999,Goods sent,waiting for update,Banjara Hills,8-2-601/G/36/A Rd# 10  Gowri Shankar Colony Banjara Hills 500034,8-2-601/G/36/A Rd# 10  Gowri Shankar Colony Banjara Hills 500034,Realme 5i Aqua Blue 4GB|64GB X 1 - ,cod,none,18-5-2020,9059699293,9059699293, Realme
154687001cc61b,2020002761,Khan Mohammed Zafarullah,drmohdkareemullah@yahoo.co.in,13999,Goods sent,waiting for update,hyderabad,hno 10-5-7/13 hyderabad 500028,masab tank hyderabad 500028,Realme 6 Blue 4GB|64GB X 1 - ,cod,none,18-5-2020,9848780206,9703030094, Realme
154688001ag61b,2020002762,China Sai,saikumarmanne4@gmail.com,18999,RNR,waiting for update,N/A,Rangashaipet Warangal 506005,N/A N/A N/A,[Lightning Blue] Realme 6 Pro - 6GB|128GB X 1 - ,none,pickup,18-5-2020,7386372906,7386372906, Realme
154689001ow61b,2020002763,Aitha Sahasra,aitha.sahasra120@gmail.com,19998,Canceled,waiting for update,Hyderabad,Balaji nagar Hyderabad 500074,Balaji nagar Hyderabad 500074,Realme 5i Aqua Blue 4GB|64GB X 2 - ,cod,none,18-5-2020,6302567479,6302567479, Realme
154697001jr61b,2020002764,Aravind Surakasula,lakshmisurakasula4@gmail.com,18999,Canceled EMI REATED,waiting for update,N/A,10-217  sai nagar Vishakapatnam Aganampudi,N/A N/A N/A,[Black] Redmi Note 8 Pro Black 8GB|128GB X 1 - ,none,pickup,18-5-2020,9581234968,9581234968, Xiaomi
154698001tk61b,2020002765,AIRANI YAKUB KHAN,yakubkhanabc@gmail.com,34999,Canceled EMI RELATED,waiting for update,HYDERABAD,12-2-557/A/2  SYED ALI GUDA  ASIF NAGAR HYDERABAD 500028,12-2-557/A/2  SYED ALI GUDA  ASIF NAGAR HYDERABAD 500028,[Grey] OnePlus 7 - 8GB|256GB X 1 - ,none,none,18-5-2020,9849197892,9849197892, Oneplus
154702001wl61b,2020002768,Matta Rajwah4,rajeshmatta60@gmail.com,9999,RNR,waiting for update,Visakhapatnam,RR readymades ravikamtham Visakhapatnam Visakhapatnam 531025,RR readymades ravikamtham Visakhapatnam Visakhapatnam 531025,Realme 5i Aqua Blue 4GB|64GB X 1 - ,none,none,18-5-2020,9121380269,, Realme
154717001tm61b,2020002769,Shakeel Mohd,mohdshakeel1901@gmail.com,14499,Goods sent,waiting for update,Hyderabad,10-5-391 54/31/a firstlancer syed nagar masab tank Hyderabad 500028,10-5-391 54/31/a firstlancer syed nagar masab tank Hyderabad 500028,Xiaomi Redmi Note 9 Pro White 4GB|64GB X 1 - ,cod,none,18-5-2020,7995438423,7995438423, Xiaomi
154725002fn60b,2020002772,Giri Asit,asitri2013@gmail.com,73600,Goods sent,waiting for update,Bolarum. Egalchak,Egalchak Bolarum 500087,Egalchak Bolarum. Egalchak 500087,iPhone 11 Green 128GB X 1 - ,cod,none,18-5-2020,6005093219,6005093219, Apple
154728001dg61b,2020002774,KORRAPATI ANJAIAH,naveenchowdary1616@gmail.com,199,Waiting for approval,waiting for update,HYDERABAD,PNO.153 HNO.13-1-91 FIRST FLOOR MOTINAGAR  LEELAHOSPITAL ROAD HYDERABAD 500018,PNO.153 HNO.13-1-91 FIRST FLOOR MOTINAGAR  LEELAHOSPITAL ROAD HYDERABAD 500018,Fingers Droplets Wired Earphones X 1 - ,cod,none,18-5-2020,7285943208,7285943208,
154732001an61b,2020002775,Kumar Ashish,ashishjan068@gmail.com,18999,Goods sent,waiting for update,N/A,Shankar veedhi  Monda markeet rp road darga Secunderabad 500003,N/A N/A N/A,[Lightning Blue] Realme 6 Pro - 6GB|128GB X 1 - ,cod,pickup,18-5-2020,7386309291,7386309291, Realme
154742002rw60b,2020002777,Devulapalli Venkatapridhvi,venkataprudhvi.2011@rediffmail.com,34999,Goods sent,waiting for update,VISAKHAPATNAM,3 2 67 bhpv temple opp bhpv gate bhpv post VISAKHAPATNAM 530012,3 2 67 bhpv temple opp bhpv gate bhpv post VISAKHAPATNAM 530012,[Silver] OnePlus 7T – 8GB|128GB X 1 - ,paid #594897,none,18-5-2020,8309357247,8309357247, Oneplus
154753001or61b,2020002778,Kumar Rutvik,rutvikkumar859@gmail.com,52500,RNR,waiting for update,N/A,Brundavancolony  sirs Raju street Vijayawada 520010,N/A N/A N/A,[Blue] iPhone XR Blue 64GB X 1 - ,none,pickup,18-5-2020,8333838197,8333838197, Apple
154757001ru61b,2020002780,Banothu Balu,banothubalu3@gmail.com,7999,Canceled,waiting for update,Hyderabad,4-273 kokapet Gangipet Hyderabad Hyderabad 500075,4-273 kokapet Gangipet Hyderabad Hyderabad 500075,Redmi 8A Dual Blue 3GB|32GB X 1 - ,none,none,18-5-2020,7306364107,7306364107, Xiaomi
154767001wt61b,2020000003,Chandu Chandu,chandudhomana780@gmail.com,13999,RNR,waiting for update,Srikakulam,Kotcherla Srikaulam 532407,Kotcherla Srikakulam 532407,Realme 6 Blue 4GB|64GB X 1 - ,none,none,18-5-2020,6309066766,6309066766, Realme
154782001cr61b,2020000005,R Venkateshwara,nadiurkrao2330@gmail.com,15999,Goods sent,waiting for update,SECUNDERABAD,Plot 100 Lal bazar police quarters SECUNDERABAD 500015,Lal bazar police quarters SECUNDERABAD 500015,[Comet Blue] Realme 6 - 6GB|128GB X 1 - ,cod,none,18-5-2020,9989406594,9989406594, Realme
154786001mj61b,2020000006,MUNAGAMANU Venkata Ramudu,prudhvisaianand@gmail.com,399,Waiting for approval,waiting for update,N/A,#1-3-657  SOMANATH NAGAR ananatapur 515001,N/A N/A N/A,PORTRONICS CABLE KONNECT TRIO 3 IN 1 X 1 - ,cod,pickup,18-5-2020,9440276300,9440276300,
154799001ou61b,2020000007,Gaddam Ajaykumar,chefajaykumar.g@gmail.com,13999,Canceled,waiting for update,secunderabad,maruthiveedi  mondamarket secunderabad 500003,maruthiveedi  mondamarket secunderabad 500003,Realme 6 Blue 4GB|64GB X 1 - ,cod,none,18-5-2020,9963893951,9963893951, Realme
154802002nw60b,2020000008,KATHI NAGARAJ,nagarajukatthi@gmail.com,16999,Goods sent,waiting for update,SECUNDERABAD,23-57/2 18th cross RK NAGAR SECUNDERABAD 500047,23-57/2 18th cross RK NAGAR SECUNDERABAD 500047,[Comet Blue] Realme 6 Blue 8GB|128GB X 1 - ,paid #595090,none,18-5-2020,8686552322,8686552322, Realme
154819001ys61b,2020000009,Teja Ravi,ravipapusani@gmail.com,9599,Canceled COD ISSUE,waiting for update,Dharmavaram,BALAJI NAGAR Dharmavaram 515671,BALAJI NAGAR Dharmavaram 515671,Redmi 8 Green 4GB|64GB X 1 - ,cod,none,18-5-2020,8297728609,8297728609, Xiaomi
154831001jx61b,2020000010,Shahid Shaik,dhonishahid008@gmail.com,16999,Canceled COD ISSUE,waiting for update,N/A,Control room road Kurnool 518001,N/A N/A N/A,[Green] Redmi Note 8 Pro – 6GB|128GB X 1 - ,none,pickup,18-5-2020,8886373318,8886373318, Xiaomi
154832001yl61b,2020000011,Shahid Shaik,dhonishahid008@gmail.com,16999,Canceled,waiting for update,N/A,Near old Control room road Kurnool Kurnool 518001,N/A N/A N/A,[Green] Redmi Note 8 Pro – 6GB|128GB X 1 - ,cod,pickup,18-5-2020,8886373318,8886373318, Xiaomi
154835001pc61b,2020000012,. M Manohar,samuelrajbura007@gmail.com,13999,Canceled,waiting for update,Rajahmundry,Annayachari road Rajahmundry 533101,Annayachari road Rajahmundry 533101,Realme 6 Blue 4GB|64GB X 1 - ,none,none,18-5-2020,9177674451,9177674451, Realme
154835001gc61b,2020000013,. M Manohar,samuelrajbura007@gmail.com,13999,RNR,waiting for update,Rajahmundry,Annayachari road Rajahmundry 533101,Annayachari road Rajahmundry 533101,Realme 6 Blue 4GB|64GB X 1 - ,none,none,18-5-2020,9177674451,9177674451, Realme
154838001xm61b,2020000014,Nagachary Kesoju,mysn1984@gmail.com,13999,Canceled COD ISSUE,waiting for update,Khammam,Gandhi chowk Khammam 507001,Gandhi chowk Khammam 507001,Realme 6 Blue 4GB|64GB X 1 - ,cod,none,18-5-2020,9396662190,9396662190, Realme
154844001ga61b,2020000016,Mendu Sandeep,prabhasr022@gmail.com,4999,Waiting for approval,waiting for update,hyderabad,srinivasapuram colony hyderabad 500070,srinivasapuram colony road no3 hyderabad 500070,Redmi GO – 1G/16GB X 1 - ,cod,none,18-5-2020,9515369265,9515369265, Xiaomi
154844001un61b,2020000017,Mendu Sandeep,prabhasr022@gmail.com,4999,Canceled,waiting for update,hyderabad,srinivasapuram colony hyderabad 500070,srinivasapuram colony road no3 hyderabad 500070,Redmi GO – 1G/16GB X 1 - ,none,none,18-5-2020,9515369265,9515369265, Xiaomi
154858001xi61b,2020000018,Kumar Arun,ak8712625@gmail.com,15999,Goods sent,waiting for update,Hyderabad,Bagath Singh nagar 11-18-192 plat Hyderabad 500035,Bagath Singh Nagar  11-18-192 SAROOR NAGAR  Hyderabad 500035,[Black] Redmi Note 8 Pro – 6GB|64GB X 1 - ,cod,none,18-5-2020,7013676145,7013676145, Xiaomi
154866001db61b,2020000019,Krishna Gopi,gopi.5579@gmail.com,11900,RNR,waiting for update,Hyderabad,Plot no. 307  Allwyn colony  phase-2  Kukatpally Hyderabad 500072,Plot no. 307  Allwyn colony  phase-2  Kukatpally Hyderabad 500072,[Gold] Oppo A5s Gold 4GB|64GB X 1 - ,none,none,18-5-2020,8686016805,8686016805, Oppo
154867001gr61b,2020000020,Stella Mary,marystella2838@gmail.com,21990,RNR,waiting for update,Hyderabad,3-6-129 doctor Baskar Rao gardens LIC colony west marredpally Hyderabad 500026,3-6-129 Basker Rao gardens LIC colony west marredpally Hyderabad 500026,[Unicorn White] Oppo F15 - 8GB|128GB BLACK X 1 - ,none,none,18-5-2020,7993051933,7993051933, Oppo
154876001fl61b,2020000021,Kuncham Jagadesh,jagadeshkuncham@gmail.com,13999,Canceled COD ISSUE,waiting for update,Visakhapatnam,Near Vizag - Srikakulam Hwy  Sanjeevaiah Colony   Visakhapatnam  Andhra Pradesh 530008 Visakhapatnam 530008,Near Vizag - Srikakulam Hwy  Sanjeevaiah Colony   Visakhapatnam  Andhra Pradesh 530008 Visakhapatnam 530008,Realme 6 Blue 4GB|64GB X 1 - ,cod,none,18-5-2020,8074167353,8074167353, Realme
154898001kj61b,2020000023,Kumar Hemanth,hemanthkumarroutu@gmail.com,13999,Canceled,waiting for update,N/A,Mehar street Srikakulam 532001,N/A N/A N/A,Realme 6 Blue 4GB|64GB X 1 - ,none,pickup,18-5-2020,6303912826,6303912826, Realme
154899001aw61b,2020000025,Mote Shivaji,sharath.mote@gmail.com,15999,Canceled,waiting for update,Warangal,Ho.no.3   Shankerfruits co. Warangal 506001,Ho.no.3   Shankerfruits co.  Near venkatrama theatre Warangal 506001,[Comet White] Realme 6 - 6GB|128GB X 1 - ,cod,none,18-5-2020,7893720029,7893720029, Realme
154927001xn61b,2020000028,Kumar Pavan,pavankumarkorivi143@gmail.com,16999,Waiting for approval,waiting for update,Komarole,Pullareddy palli Komarole 523373,Pullareddy palli Komarole 523373,Nokia 7.2 Charcoal 4GB|64GB X 1 - ,cod,none,18-5-2020,7026478559,7026478559, Nokia
154931001mk61b,2020000029,Mohan Kaja,kajamohan4243@gmail.com,18999,Canceled,waiting for update,N/A,Satyanarayan Swamy temple Street 3rd cross road old guntur Guntur 522001,N/A N/A N/A,[Lightning Orange] Realme 6 Pro - 6GB|128GB X 1 - ,none,pickup,18-5-2020,7569343901,7569343901, Realme
154932001lm61b,2020000030,Jay Pramod,pramodcena1092@gmail.com,19999,RNR,waiting for update,Hyderabad,AMARNATH  Hyderabad 500025,AMARNATH   DOOR NO:6-1-142/2  FLAT NO:302  KUMARAN RESIDENCY   SWATANTRA COLONY  PADMARAO NAGAR   Hyderabad   Telangana   pincode: 500025 Hyderabad 500025,[Blue] Realme X2 - 6GB|128GB X 1 - ,none,none,18-5-2020,7013490681,7013490681, Realme
154945001nu61b,2020000031,Shaik Thajoddin,skthajoddin786@gmail.com,7499,Canceled,waiting for update,N/A,Ry Suryapet 508213,N/A N/A N/A,Redmi 8A Dual Grey 2GB/32GB X 1 - ,cod,pickup,18-5-2020,9666720178,9666720178, Xiaomi
154952001ai61b,2020000032,Krishna Manohar,8555816108mk@gmail.com,15999,Canceled,waiting for update,Hyderabad,H no. 2-91/12  Suraram Colony  Sundar nagar Hyderabad 500055,Hno.2-91/12   Suraram Colony  Sundar nagar Hyderabad 500055,[Comet White] Realme 6 - 6GB|128GB X 1 - ,cod,none,18-5-2020,9182081309,9182081309, Realme
154955001ae61b,2020000033,Begum Roobena,saireddie1997@gmail.com,8490,Goods sent,waiting for update,Secundrebad,Hno-9-76/8 banjara village colony Risala bazar bolarum Secundrebad 500010,Hno-9-76/8 banjara village colony Risala bazar bolarum Secundrebad 500010,Vivo Y81i  Glod 4GB|64GB X 1 - ,paid #595518,none,18-5-2020,9502782026,9502782026, Vivo
154955002ae60b,2020000034,Kurra Nagaprasad,kurranagaprasad@gmail.com,31500,Canceled EMI RELATED,waiting for update,N/A,Samalanagar 11 line skylock R3 204 Guntur 522006,N/A N/A N/A,iPhone 7 Black 32GB X 1 - ,none,pickup,18-5-2020,8008487009,8008487009, Apple
154961001tg61b,2020000035,Gangajal Rao Ch,gangajalrao@gmail.com,13999,RNR,waiting for update,Hyderabad,Kphb  phase 2 Hyderabad 500089,Backside brand factory Hyderabad 500089,Realme 6 Blue 4GB|64GB X 1 - ,none,none,18-5-2020,9553913847,9553913847, Realme
154965001cj61b,2020000037,G Sai Balaji,saibalaji.g76@gmail.com,16999,Goods sent,waiting for update,Hyderabad,Flat no 203  Tulip Block  Manasa Ashita Enclave Hyderabad 500089,Flat no 203  Tulip Block  Manasa Ashita Enclave Hyderabad 500089,[Green] Redmi Note 8 Pro – 6GB|128GB X 1 - ,none,none,18-5-2020,9494445955,9494445955, Xiaomi
154986001ub61b,2020000039,Reddy Kavya,paivardha.kavya@gmail.com,16999,Canceled EMI RELATED,waiting for update,N/A,13-3-252 Bheemnagar jiaguda Hyderabad 500006,N/A N/A N/A,[Blue] Realme XT - 4GB|64GB X 1 - ,none,pickup,18-5-2020,7989692164,7989692164, Realme
154988002jg60b,2020000040,Asifuddin Mohammed,nassembegum.nlg@gmail.com,13999,Canceled COD ISSUES,waiting for update,Suryapet,Suryapet Suryapet 508213,Suryapet Suryapet 508213,Realme 6 Blue 4GB|64GB X 1 - ,cod,none,18-5-2020,9652517793,9652517793, Realme
154991001yn61b,2020000041,Goud Dhanunjaya,dhanundhanunjai@gmail.com,8990,Waiting for approval,waiting for update,Gadwal,Thappetlamorsu Gadwal 509127,Thappetlamorsu Gadwal 509127,[Black] Vivo Y91 - 3GB|32GB X 1 - ,cod,none,18-5-2020,7793900970,7793900970, Vivo
154994001hx61b,2020000042,Lakku Chandradhar,sreechecha@gmail.com,43999,Canceled COD ISSUE,waiting for update,Bengaluru,47  12th Main  3rd Block jayanagar Bengaluru 560011,47  12th Main  3rd Block jayanagar Bengaluru 560011,Samsung Galaxy Note 10 Lite Aura Red 8GB|128GB X 1 - ,none,none,18-5-2020,9900403111,9900403111, Samsung
155009001dp61b,2020000043,Attada Sateesh,sateeshkumar.attada@gmail.com,27998,Canceled,waiting for update,Hyderabad,1-6-202/8/A/2 Bapujinagar Parsigutta Hyderabad 500020,1-6-202/8/A/2 Bapujinagar Parsigutta Hyderabad 500020,Realme 6 Blue 4GB|64GB X 2 - ,none,none,18-5-2020,9177640749,9177640749, Realme
155044001xm61b,2020000044,Manikanta Sagarapu,sagarapumanikanta@gmail.com,18999,Canceled,waiting for update,N/A,Telangana Hyderabad 500081,N/A N/A N/A,[Lightning Blue] Realme 6 Pro - 6GB|128GB X 1 - ,none,pickup,18-5-2020,9550117772,9550117772, Realme
155047001df61b,2020000045,Chandra Bhuvan,bhuvanchandra.thikkala13@gmail.com,1500,Waiting for approval,waiting for update,N/A,Hno.1-185 Sri sai Durga nagar colony gurramguda Hyderabad 501510,N/A N/A N/A,[OnyxBlack] OnePlus 8 - 12GB|256GB X 1 - ,cod,pickup,18-5-2020,8341695869,8341695869, Oneplus
155051001tf61b,2020000046,G Shankar,shankar289104@gmail.com,19980,Waiting for approval,waiting for update,Hyderabad,Gandipet Hyderabad 500075,Gandipet Hyderabad 500075,Vivo Y11 Blue 3GB|32GB - 2019 X 2 - ,cod,none,18-5-2020,9014136774,9014136774, Vivo
155062001bt61b,2020000047,Reddy B Pavan Reddy,vikasreddykambam@gmail.com,39998,Canceled,waiting for update,N/A,Near vikas nagar Visakhapatnam 530013,N/A N/A N/A,[Blue] Realme X2 - 6GB|128GB X 2 - ,none,pickup,18-5-2020,7095733033,7095733033, Realme
155074001ff61b,2020000049,Goda Raveendra,sarbhas@gmail.com,13999,RNR,waiting for update,Visakhapatnam,Vagdevi Residency Narasimha Nagar  Near Raithu Bazaar Visakhapatnam 530024,Vagdevi Residency Narasimha Nagar  Near Raithu Bazaar Visakhapatnam 530024,Realme 6 Blue 4GB|64GB X 1 - ,none,none,18-5-2020,7799867722,7799867722, Realme
155119001kk61b,2020000050,Chandar Bhanu,bhanu25000@gmail.com,13999,Canceled COD ISSUE,waiting for update,Palamaner Chittoor district,Saraswati nagar Palamaner Chittoor district 517408,Saraswati nagar newpet Palamaner Chittoor district 518408,Realme 6 Blue 4GB|64GB X 1 - ,cod,none,18-5-2020,8142675756,8142675756, Realme
155148001pc61b,2020000055,SAI BHUVAN,anil.try1617@gmail.com,21990,Waiting for approval,waiting for update,ANANTAPUR,RAHAMATH NAGAR 13TH CROSS ANANTAPUR 515001,RAHAMATH NAGAR 13TH CROSS ANANTAPUR 515001,[Unicorn Black] Oppo F15 Black 8GB|128GB X 1 - ,none,none,18-5-2020,9951101617,9951101617, Oppo
155187001lh61b,2020000057,Gour Sanjay,sanjaypayal5226@gmail.com,99,Waiting for approval,waiting for update,N/A,Ranigung Secundrabad Ranigung,N/A N/A N/A,[Black] Zebronics Stereo Earphone With Mic - H-ME 800/900 X 1 - ,none,pickup,18-5-2020,8790904538,8790904538, Xiaomi
155187001rj61b,2020000058,Gour Sanjay,sanjaypayal5226@gmail.com,99,Waiting for approval,waiting for update,N/A,Ranigung Secundrabad Ranigung,N/A N/A N/A,[Black] Zebronics Stereo Earphone With Mic - H-ME 800/900 X 1 - ,none,pickup,18-5-2020,8790904538,8790904538, Xiaomi
155203001kd61b,2020000059,Yamarthi Raju,rajsunnys@gmail.com,17998,Waiting for approval,waiting for update,N/A,Khudusnagar Vijayawada 520004,N/A N/A N/A,[Blue] Redmi Y3 - 4GB/64GB X 2 - ,none,pickup,18-5-2020,9703443777,9703443777, Xiaomi
155211001fx61b,2020000060,Durga Prasad M K,durga.prasad9848.pm@gmail.com,13999,Waiting for approval,waiting for update,N/A,Dayalnagar query area Visakhapatnam 530044,N/A N/A N/A,Realme 6 Blue 4GB|64GB X 1 - ,none,pickup,18-5-2020,9700500975,9700500975, Realme
155215001ah61b,2020000061,Durga Prasad M K,durga.prasad9848@gmail.com,13999,Waiting for approval,waiting for update,N/A,Dayalnagar Visakhapatnam 530044,N/A N/A N/A,Realme 6 Blue 4GB|64GB X 1 - ,cod,pickup,18-5-2020,9700500975,9700500975, Realme
155275001yy61b,2020000063,Prakash Shiva,kshivaprakash1@gmail.com,16999,Waiting for approval,waiting for update,N/A,bk kurama colony hyderabad 500039,N/A N/A N/A,[Comet Blue] Realme 6 Blue 8GB|128GB X 1 - ,cod,pickup,18-5-2020,7013685107,7013685107, Realme
155279001ey61b,2020000066,Reddy Pranav,pranavreddy1434@gmail.com,16999,Waiting for approval,waiting for update,Tadepalligudem,Tadepalligudem  satayavathi nagar road no:-14 Tadepalligudem 534101,Tadepalligudem  satayavathi nagar road no:-14 Tadepalligudem 534101,[Comet Blue] Realme 6 Blue 8GB|128GB X 1 - ,none,none,18-5-2020,9573155405,9573155405, Realme
155288001ss61b,2020000067,Addapa Akhil,akhiladapa17@gmail.com,31990,RNR,waiting for update,Hyderabad,HNO:11-13-1131 Dwarakanagar RKPuram Saroornagar Mandal Rangareddy District. Hyderabad 500035,HNO:11-13-1131 Dwarakanagar RKPuram Saroornagar Mandal Rangareddy District. Hyderabad 500035,Oppo Reno 3 Pro Blue 8GB|128GB X 1 - ,cod,none,18-5-2020,9154103320,9154103320, Oppo
155319001cg61b,2020000072,Rakesh Perikala Rakesh,rakesh.perikala@gmail.com,19999,RNR,waiting for update,Warangal,2-349/1  Bank colony 7th street  Vidyaranyapuri  near KU 2nd gate  Hanamkonda Warangal Warangal 506001,2-349/1  Bank colony 7th street  Vidyaranyapuri  near KU 2nd gate  Hanamkonda Warangal Warangal 506001,[White] Realme X2 - 6GB|128GB X 1 - ,cod,none,18-5-2020,7893030270,7893030270, Realme
155489001kj61b,2020000077,Nimmagadda Abhinay,abhinaynimmagadda987@gmail.com,31999,RNR,waiting for update,Guntur,Palakaluru centre near jle theater Guntur 522005,Peda palakaluru Guntur 522005,[White] Realme X2 Pro - 8GB|128GB X 1 - ,cod,none,18-5-2020,9618722587,9618722587, Realme
155499001tr61b,2020000078,Nimmagadda Abhinay,abhinaynimmagadda987@gmail.com,63998,RNR,waiting for update,N/A,Gujjanagundla centre Guntur 522007,N/A N/A N/A,[White] Realme X2 Pro - 8GB|128GB X 2 - ,none,pickup,18-5-2020,9618722587,9618722587, Realme
155500001cj61b,2020000079,Nimmagadda Abhinay,abhinaynimmagadda987@gmail.com,31999,Waiting for approval,waiting for update,N/A,Gujjanagundla Guntur 522007,N/A N/A N/A,[Blue] Realme X2 Pro - 8GB|128GB X 1 - ,cod,pickup,18-5-2020,9618722587,9618722587, Realme
155643001ms61b,2020000081,Motani Tarun Varma,tarunvarmamotani666@gmail.com,7999,Waiting for approval,waiting for update,N/A,panchalavaram tenali 522325,N/A N/A N/A,Redmi 8A Dual Blue 3GB|32GB X 1 - ,cod,pickup,19-5-2020,9550910537,9550910537, Xiaomi
155680001ko61b,2020000082,Janardhan Madaka,janardhana.jm@gmail.com,42500,Canceled,waiting for update,VISAKHAPATNAM,Duvvada VISAKHAPATNAM 530046,Duvvada VISAKHAPATNAM 530046,iPhone SE 2020 Red 64GB X 1 - ,none,none,19-5-2020,8886823882,8886823882, Apple
155693001tr61b,2020000083,Nimmagadda Abhinay,abhinaynimmagadda987@gmail.com,31999,Waiting for approval,waiting for update,N/A,Gujjanagundla Guntur 522007,N/A N/A N/A,[White] Realme X2 Pro - 8GB|128GB X 1 - ,none,pickup,19-5-2020,9618722587,9618722587, Realme
155825001kt61b,2020000084,KIRAN VYAS Mukesh,chinnasunny736@gmail.com,34999,Canceled COLOR ISSUE,waiting for update,ANANTAPUR,7/260 ANANTAPUR 515001,7/260 ANANTAPUR 515001,[Grey] OnePlus 7 - 8GB|256GB X 1 - ,cod,none,19-5-2020,8978976107,8978976107, Oneplus
155835001ea61b,2020000086,Raghu Babu Ksv,raghu.22ksv@gmail.com,13999,Canceled COD ISSUE,waiting for update,N/A,1-3-72/2  Saradhi nagar Khammam 507003,N/A N/A N/A,Realme 6 Blue 4GB|64GB X 1 - ,cod,pickup,19-5-2020,7013312578,7013312578, Realme
155860001au61b,2020000088,Mohini Lakshmi O,mlakshmi.kalidinsi@gmail.com,13999,RNR,waiting for update,Khammam,Reception   sri abhaya hospitals  wyra road Khammam 507001,Reception   sri abhaya hospitals  wyra road Khammam 507001,Realme 6 White 4GB|64GB X 1 - ,cod,none,19-5-2020,9640834749,9640834749, Realme
155872001ft61b,2020000089,Goud Dhanunjaya,dhanundhanunjai@gmail.com,8990,Canceled COD ISSUE,waiting for update,Jogulamba gadwal,Thappetlamorsu Jogulamba gadwal 509129,Thappetlamorsu Jogulamba gadwal 509129,[Black] Vivo Y91 - 3GB|32GB X 1 - ,cod,none,19-5-2020,7793900970,7793900970, Vivo
155896001jy61b,2020000090,Nalla Rakesh,rakeshnalla967@gmail.com,19999,Goods sent,waiting for update,Hyderabad,Flat No 103 RangaReddy building Rehmat Gulshan colony Gachibowli Hyderabad 500032,Flat No 103 RangaReddy building Rehmat Gulshan colony Gachibowli Hyderabad 500032,[White] Realme X2 - 6GB|128GB X 1 - ,paid #596465,none,19-5-2020,8096937729,8096937729, Realme
155897001gt61b,2020000091,Edara Dattu,sridevipericherla7@gmail.com,13999,RNR,waiting for update,Kovvuru,Dharmavaram street Kovvuru Dommeru,Dharmavaram street Kovvuru Dommeru,Realme 6 Blue 4GB|64GB X 1 - ,cod,none,19-5-2020,9100447696,9100447696, Realme
155909001px61b,2020000092,Kantha Mani,manikanthajakka@gmail.com,13999,Canceled COD ISSUE,waiting for update,Pedana,Polavarapu peta Pedana 521366,Polavarapu peta Pedana 521366,Realme 6 Blue 4GB|64GB X 1 - ,cod,none,19-5-2020,8374427080,8374427080, Realme
155914002kn60b,2020000095,Ajay Kanithi,kanithiajay360@gmail.com,13999,Goods sent,waiting for update,Hyderabad,Road no 55 Majik medical solutions Aleap industrial estate pragati nagar JNTU Kukatpally Hyderabad Hyderabad Hyderabad,Road no 55 Majik medical solutions Aleap industrial estate pragati nagar Kukatpally Hyderabad Hyderabad Hyderabad,Realme 6 Blue 4GB|64GB X 1 - ,none,none,19-5-2020,7095245466,7095245466, Realme
155928001wp61b,2020000099,Jaanagani Sekhar,garugudamodar@gmail.com,13999,Canceled COD ISSUE,waiting for update,Dharmavaram,Near bus stand Dharmavaram 515671,Near bus stand Dharmavaram 515671,Realme 6 White 4GB|64GB X 1 - ,cod,none,19-5-2020,9393323332,9393323332, Realme
155943001ya61b,2020000102,Rao Bora Sundara,bsrao789@gmail.com,13999,Waiting for approval,waiting for update,Visakhapatnam,Likitha hall back side  coromandel gate  Sriharipuram:   vizag Visakhapatnam 530011,Likitha hall back side  coromandel gate  Sriharipuram:   vizag Visakhapatnam 530011,Realme 6 Blue 4GB|64GB X 1 - ,none,none,19-5-2020,9440850789,9440850789, Realme
155947001md61b,2020000103,Laxmiprasad R,raghavababu20@gmail.com,7999,Waiting for approval,waiting for update,Nandigama,Chinanna palem near hanuman temple Nandigama 521185,Chinanna palenm Nandigama 521185,Redmi 8A Dual Blue 3GB|32GB X 1 - ,cod,none,19-5-2020,9014400944,7382160551, Xiaomi
155953001wa61b,2020000104,Akki Akhil,aakki4014@gmail.com,31500,RNR,waiting for update,Hyderbad,101 Hyderbad 500053,101 Hyderbad 500053,iPhone 7 Black 32GB X 1 - ,none,none,19-5-2020,8142985622,8142985622, Apple
155964001yn61b,2020000107,Alla Ajith,ajith.v.alla0309@gmail.com,199,Waiting for approval,waiting for update,Vijayawada,Patamata Siva Sankar nagar Vijayawada 520010,Patamata Siva Sankar nagar Vijayawada 520010,FINGERS PowerSoniq Wired Earphones X 1 - ,cod,none,19-5-2020,8106169675,8106169675,
155974001ws61b,2020000108,Reddy Kishore,sr_munna@yahoo.com,73600,onhold,waiting for update,Uppal,H No 2-34/15/6 Uppal 500039,H No 2-34/15/6 Uppal 500039,iPhone 11 Purple 128GB X 1 - ,none,none,19-5-2020,9989123450,7658976194, Apple
155980001ns61b,2020000109,Nandu Shiva,mpshivashanker@gmail.com,21990,Canceled,waiting for update,Hyderabad,Mathrupuri colony Hyderabad 500094,Mathrupuri colony Hyderabad 500094,[Unicorn Black] Oppo F15 Black 8GB|128GB X 1 - ,cod,none,19-5-2020,8317514910,8317514910, Oppo
155988001wj61b,2020000110,Md MOHAMMADI,md7893390634@emal.com,7999,Waiting for approval,waiting for update,VIJAYAWADA,Bhavanipuram maseed street VIJAYAWADA 520012,Bhavanipuram maseed street VIJAYAWADA 520012,Redmi 8A Dual Grey 3GB|32GB X 1 - ,cod,none,19-5-2020,9000287462,9000287462, Xiaomi
155988001ft61b,2020000111,Battaru Akash,akash.battaru4444@gmail.com,1099,Waiting for approval,waiting for update,visakhapatnam,sarada nagar visakhapatnam 530047,sarada nagar visakhapatnam 530047,[black] 10000mAH MI POWER BANK X 1 - ,none,none,19-5-2020,8500780448,8500780448, Xiaomi
155992001jl61b,2020000113,Kolpek Geeta,kolpekgeeta@gmail.com,13999,Waiting for approval,waiting for update,Navi Mumbai,Shiv kalpatru 106/blg 2 sec 17 kamothe near sunrise multispeciality hospital Navi Mumbai Navi Mumbai 410206,Shiv kalpatru 106/blg 2 sec 17 kamothe near sunrise multispeciality hospital Navi Mumbai Navi Mumbai 410206,Realme 6 Blue 4GB|64GB X 1 - ,cod,none,19-5-2020,9146438121,9146438121, Realme
156001001km61b,2020000115,Y Pujitha,yadavallipujitha@gmail.com,13999,onhold,waiting for update,ANANTAPUR,3-332  NEAR RAKSHA HOSPITAL   TAPOVANAM ANANTAPUR 515004,3-332  NEAR RAKSHA HOSPITAL   TAPOVANAM ANANTAPUR 515004,Realme 6 Blue 4GB|64GB X 1 - ,cod,none,19-5-2020,9515441958,9515441958, Realme
156013001ca61b,2020000117,Kosuru Mahesh,maheshkosuru250@gmail.com,19999,Goods sent,waiting for update,Hyderabad,Sri Chakara Residency  G3  1st floor  Near Holistic Hospital  Allapur Housing Society  Nizampet x Road Hyderabad 500090,Sri Chakara Residency  G3  1st floor  Near Holistic Hospital  Allapur Housing Society  Nizampet x Road Hyderabad 500090,[White] Realme X2 - 6GB|128GB X 1 - ,cod,none,19-5-2020,9676211972,9676211972, Realme
156024001ha61b,2020000118,Reddy Shekar,chandrashekar14389@gmail.com,27998,Waiting for approval,waiting for update,hyderabad,4-101 narsingi rrdist hyderabad 500089,4-101 narsingi rrdist hyderabad 500089,Realme 6 White 4GB|64GB X 2 - ,cod,none,19-5-2020,9948404397,9948404397, Realme
156028001fw61b,2020000119,Prashanth Vishwas,yvishwas2001@gmail.com,13999,Waiting for approval,waiting for update,Hyderabad,11-4-627/4 nelofer hospital road Hyderabad 500004,11-4-627/4 nelofer hospital road Hyderabad 500004,[Black] Redmi Note 8 – 6GB/128GB X 1 - ,none,none,19-5-2020,9381504150,9381504150, Xiaomi
156032001af61b,2020000121,K Murali,kuram123@gmail.com,47800,RNR,waiting for update,TANUKU,Tanuku  bommala veedi near little paradise school TANUKU 534211,Tanuku  bommala veedi near little paradise school TANUKU 534211,iPhone SE 2020 Red 128GB X 1 - ,none,none,19-5-2020,9494343431,9494343431, Apple
156034001cf61b,2020000128,Yamarthi Raju,rajhusona@gmail.com,8999,Goods sent,waiting for update,vijayawada,18-11-28/11a  khudusnagar  near two water tanks vijayawada 520003,18-11-28/11a  khudusnagar  near two water tanks vijayawada 520003,[Blue] Redmi Y3 - 4GB/64GB X 1 - ,paid #596920,none,19-5-2020,9703443777,9703443777, Xiaomi
156035001pl61b,2020000129,Varma Sai,saivamsi99120@gmail.com,1500,Waiting for approval,waiting for update,Vishakapatnam,Sector-6 Vishakapatnam 530032,Sector-6 Vishakapatnam 530032,[OnyxBlack] OnePlus 8 Pro - 12GB|256GB X 1 - ,cod,none,19-5-2020,8340998938,8340998938, Oneplus
156039001wu61b,2020000131,Md Asifsiraz,fayaz.siraz@gmail.com,13999,Waiting for approval,waiting for update,ACHAMPET,20-21/2c ACHAMPET 509375,20-21/2c  venkateshwara colony ACHAMPET 509375,Realme 6 White 4GB|64GB X 1 - ,cod,none,19-5-2020,7396162351,7396162351, Realme
156045001ne61b,2020000132,K Vamsi,saivamsikanumuri@gmail.com,1500,Waiting for approval,waiting for update,Vishakapatnam,Sector-6  steel plant Vishakapatnam 530032,Sector-6  steel plant Vishakapatnam 530032,[OnyxBlack] OnePlus 8 Pro - 12GB|256GB X 1 - ,cod,none,19-5-2020,9912030690,9912030690, Oneplus
156046001pu61b,2020000135,Rao Bora Sundara,bsrao789@gmail.com,13999,Goods sent,waiting for update,Visakhapatnam,Ajantha colony  coramandal Visakhapatnam 530011,Ajantha colony   Coromandel gate   Sriharipuram Visakhapatnam 530011,Realme 6 White 4GB|64GB X 1 - ,paid #596965,none,19-5-2020,9440850789,9440850789, Realme
156050001mx61b,2020000136,Vipparla Joy,joyvipparla@gmail.com,21990,Waiting for approval,waiting for update,Guntur,Bharath peta 8th line amaravathi road Guntur 522002,Bharath peta 8th line amaravathi road Guntur 522002,[Unicorn Black] Oppo F15 Black 8GB|128GB X 1 - ,cod,none,19-5-2020,9398022414,9398022414, Oppo
156058001we61b,2020000137,Bhargav Podapati,bhargavchowdary21@gmail.com,21990,Waiting for approval,waiting for update,Hyderabad,Flat no:410  house no:146&147 mcr midhula appartment  opposite Hanuman statue vivekananda Nagar kukatpally  Hyderabad Hyderabad 500072,Flat no:410  house no:146&147 mcr midhula appartment  opposite Hanuman statue vivekananda Nagar kukatpally  Hyderabad Hyderabad 500072,[Unicorn Black] Oppo F15 Black 8GB|128GB X 1 - ,none,none,19-5-2020,8106848932,8106848932, Oppo
156067001je61b,2020000138,DEVARAPALLI JESWANTH,jeswanthdev@gmail.com,42999,Waiting for approval,waiting for update,N/A,Old harijanawada Vijayawada 521286,N/A N/A N/A,[Blue] OnePlus 7 Pro – 8GB|256GB X 1 - ,none,pickup,19-5-2020,9014434263,9014434263, Oneplus
156067001cu61b,2020000139,DEVARAPALLI JESWANTH,jeswanthdev@gmail.com,42999,Waiting for approval,waiting for update,N/A,Old harijanawada Vijayawada 521286,N/A N/A N/A,[Blue] OnePlus 7 Pro – 8GB|256GB X 1 - ,none,pickup,19-5-2020,9014434263,9014434263, Oneplus
156067002je60b,2020000140,DEVARAPALLI JESWANTH,jeswanthdev@gmail.com,42999,Waiting for approval,waiting for update,N/A,Old harijanawada Vijayawada 521286,N/A N/A N/A,[Blue] OnePlus 7 Pro – 8GB|256GB X 1 - ,none,pickup,19-5-2020,9014434263,9014434263, Oneplus
156073001ay61b,2020000141,Kumaar Viveck,ashokkumar747001@gmail.com,105489,Waiting for approval,waiting for update,jhansi,77 oppp elight choraha jhansi 284001,77 oppp elight choraha jhansi 284001,Oppo Reno 2Z White 8GB|256GB X 1 - [Grey] Samsung Galaxy S20+Grey 8GB|128GB X 1 - ,cod,none,19-5-2020,8009064739,8009064739, Oppo Samsung
156075001sa61b,2020000142,Ahmed Khasru,khsruahmed79@gmail.com,999,Waiting for approval,waiting for update,N/A,300/7 Hyderabad 500084,N/A N/A N/A,CONKET BOUNCE NECK BAND X 1 - ,cod,pickup,19-5-2020,9542968012,9542968012,
156080001cn61b,2020000143,Kumaar Viveck,ashokkumar747001@gmail.com,23980,Waiting for approval,waiting for update,jhansi,77 opp elight choraha jhansi 284001,77 opp elight choraha jhansi 284001,[Black] Vivo Y93 Black 4GB|32GB X 2 - ,none,none,19-5-2020,8009064739,8009064739, Vivo
156084001bw61b,2020000144,Kumaar Viveck,ashokkumar747001@gmail.com,131900,Waiting for approval,waiting for update,jhansi,77 opp sagar paark jhansi 284001,77 opp sagar paark jhansi 284001,[Gold] iPhone 11 Pro Max Glod 256GB X 1 - ,none,none,19-5-2020,8009064739,8009064739, Apple
156093001mf61b,2020000145,Dodda Navya,dnavyamn@gmail.com,14990,Waiting for approval,waiting for update,Manuguru,Adharsh nagar Manuguru 507117,Adharsh nagar h.no:5-1-263/1 Manuguru 507117,[White] Vivo Y19 White 4GB|128GB X 1 - ,none,none,19-5-2020,9603269784,9603269784, Vivo
156102001rj61b,2020000146,Gopu Sravan,sravan.gopu88@gmail.com,13999,Waiting for approval,waiting for update,Hyderabad,6-42/1/19  Telephone Colony  Chandanagar Hyderabad 500050,6-42/1/19  Telephone Colony  Chandanagar Hyderabad 500050,Realme 6 Blue 4GB|64GB X 1 - ,none,none,19-5-2020,9247181334,9247181334, Realme
156104001fo61b,2020000147,P Vihari,vihari.potru9@gmail.com,13999,Waiting for approval,waiting for update,N/A,near Chirec school Hyderabad 500084,N/A N/A N/A,Realme 6 Blue 4GB|64GB X 1 - ,cod,pickup,19-5-2020,9390039216,9390039216, Realme
156121001wj61b,2020000148,Asim Mohammed,shehreyar.monster@gmail.com,57800,Waiting for approval,waiting for update,Hyderabad,Bazar ghat Hyderabad 500004,Bazar ghat Hyderabad 500004,iPhone XR 128GB Black X 1 - ,none,none,19-5-2020,8639352610,8639352610, Apple
156128001rt61b,2020000149,Tagore Srish,srishtagore@gmail.com,42999,Waiting for approval,waiting for update,Tuni,Flat D2  Sri Surya Sai Residency  Park street  beside Swapna Lodge  Kothapeta  Tuni Tuni 533401,Flat D2  Sri Surya Sai Residency  Park street  beside Swapna Lodge  Kothapeta  Tuni Tuni 533401,[Blue] OnePlus 7 Pro – 8GB|256GB X 1 - ,none,none,19-5-2020,8143435314,8143435314, Oneplus
156145001ai61b,2020000150,Aatipamula Likith,likithnetha93@gmail.com,7999,Waiting for approval,waiting for update,HYDERABAD,TRT 215  TRT COLONY  SHIVAM ROAD HYDERABAD 500044,TRT 215  TRT COLONY  SHIVAM ROAD HYDERABAD 500044,Redmi 8A Dual White 3GB|32GB X 1 - ,paid #597275,none,19-5-2020,9700414354,9700414354, Xiaomi