Orderid,OrderNo,Name,Email,price,status,internalNote,CityName,BillingAddress,DeliveryAddress,Products,Paymentstatus,Ordertype,Date,DeliveryPhoneNum,PhoneNum,Brand
206153001wt61b,2020002084,V Venkatesh,vickymartin12313@gmail.com,8999,Accepted,warehouse delivery,Tirupati,6-1-64 A/19 varadaraja nagar (post office street) Tirupati 517501,6-1-64 A/19 varadaraja nagar (post office street) Tirupati 517501,Samsung Galaxy Black M01 3GB | 32GB X 1 - ,paid #PAYTM-20200623111212800110168203632744845,none,23-6-2020,9703572372,9703572372, Samsung
206154001ry61b,2020002085,Babu Basa,basaprasad9967@gmail.com,12999,Waiting for approval,waiting for update,N/A,Dno:54-2-5 4th cross road autonagar Vijayayawada 520007,N/A N/A N/A,Samsung Galaxy M11 Voilet 4GB|64GB X 1 - ,cod,pickup,23-6-2020,9491439967,9491439967, Samsung
206155001ms61b,2020002086,Sinha Deepak,deepakatgmrcv@gmail.com,7374,Accepted,warehouse delivery,N/A,Velankani  nagar Shamshabad 501218,N/A N/A N/A,Nokia 2.2 Black 3GB|32GB X 1 - ,cod,pickup,23-6-2020,9908575957,9908575957, Nokia
206163001in61b,2020002087,Khan Moin,mdmoinraza1319@gmail.com,31500,Waiting for approval,waiting for update,Ranchi,Shanti enclave flat no1c lalpur Ranchi 834001,Shanti enclave flat no1c lalpur Ranchi 834001,iPhone 7 Gold 32GB X 1 - ,none,none,23-6-2020,6200081387,6200081387, Apple
206197001jn61b,2020002088,Garaga Rohit,garaga36@gmail.com,3999,Hold,rnr,N/A,Pragathi nagar Hyderabad 500090,N/A N/A N/A,Realme Watch (Black) X 1 - ,cod,pickup,23-6-2020,8125303121,8125303121, Realme
206271001wc61b,2020002089,Bandi Surendra,surendrabandi26082015@gmail.com,10999,Cancel,cod issue,N/A,Main Road Puttaparthi 515134,N/A N/A N/A,SAMSUNG GALAXY Voilet M11 3GB|32GB X 1 - ,cod,pickup,23-6-2020,8555085557,8555085557, Samsung
206320001gp61b,2020002090,Naresh Satya,vsatyanaresh@gmail.com,3999,Waiting for approval,waiting for update,Kakinada,D. No 4-5-1/a  Yerusuvari Street   Ramakrishnarao Pet Kakinada 533001,D. No 4-5-1/a  Yerusuvari Street   Ramakrishnarao Pet Kakinada 533001,Realme Watch (Black) X 1 - ,none,none,23-6-2020,8641939999,8641939999, Realme
206328001my61b,2020002091,Katta Srinivas,kattasrinivas4@gmail.com,8999,Waiting for approval,waiting for update,Karimnagar,H.no.6-63/A/2 Laxmipur.Malkapur Road.Karimnagar Karimnagar 505451,H.no.6-63/A/2 Laxmipur.Malkapur Road.Karimnagar Karimnagar 505451,Samsung Galaxy Blue M01 3GB | 32GB X 1 - ,none,none,23-6-2020,9535746780,9535746780, Samsung
206347001ya61b,2020002092,Charan Ram,ram72685@gmail.com,8999,Cancel,cod issue,Shadnagar,Ram Nagar colony chatanpally Shadnagar 509216,Ram Nagar colony chatanpally Shadnagar 509216,Samsung Galaxy Black M01 3GB | 32GB X 1 - ,cod,none,23-6-2020,7981586625,7981586625, Samsung
206350001cf61b,2020002093,Ganesh Sindhu,sindhu369.alapati@gmail.com,3999,Waiting for approval,waiting for update,hyderabad,Mumbai Hwy  opp. BIG BAZAR  Balaji Nagar  Kukatpally  Hyderabad  Telangana 500072 hyderabad 500072,Mumbai Hwy  opp. BIG BAZAR  Balaji Nagar  Kukatpally  Hyderabad  Telangana 500072 hyderabad 500072,Realme Watch (Black) X 1 - ,none,none,23-6-2020,9492434009,9492434009, Realme
206370001la61b,2020002094,Lakshmi Chvv,vinayraj.jain@gmail.com,8999,Cancel,cod issue,Rajahamandry,Temple street Kakinada 533101,RTc complex Rajahamandry 533101,Samsung Galaxy Black M01 3GB | 32GB X 1 - ,cod,none,23-6-2020,7013471085,7013471085, Samsung
206375001uy61b,2020002095,Ganesh Sindhu,sindhu369.alapati@gmail.com,3999,Accepted,sarath mall delivery,hyderabad,Mumbai Hwy  opp. BIG BAZAR  Balaji Nagar  Kukatpally  Hyderabad  Telangana 500072 hyderabad 500072,Mumbai Hwy  opp. BIG BAZAR  Balaji Nagar  Kukatpally  Hyderabad  Telangana 500072 hyderabad 500072,Realme Watch (Black) X 1 - ,paid #PAYTM-20200623111212800110168714132732322,none,23-6-2020,9492434009,9492434009, Realme
206376001ih61b,2020002096,Datla Vijay,vtrdatla@yahoo.co.in,8999,Waiting for approval,waiting for update,Hyderabad,Flat E 604  Rainbow Vista Rock Garden Apartments Hyderabad 500018,Flat E 604  Rainbow Vista Rock Garden Apartments Hyderabad 500018,Samsung Galaxy Black M01 3GB | 32GB X 1 - ,none,none,23-6-2020,8008804413,8008804413, Samsung
206404001ur61b,2020002097,Rao Narsing,narsingraopadma@gmail.com,31990,Waiting for approval,waiting for update,N/A,21-8-25 Seethannapeta 520003,N/A N/A N/A,Oppo Reno 3 Pro White 8GB|128GB X 1 - ,none,pickup,23-6-2020,9133131078,9133131078, Oppo
206406001pj61b,2020002098,Yamini Tummoju,yamini.1414@gmail.com,8999,Cancel,cod issue,aswaraopet,h no 4 22 e1  b s nagar aswaraopet 507301,h no 4 22 e1  b s nagar aswaraopet 507301,Samsung Galaxy Red M01 3GB | 32GB X 1 - ,cod,none,23-6-2020,8985397479,8985397479, Samsung
206415001sw61b,2020002099,SENAPATI PRABIR,senapati.prabir@gmail.com,15803,Waiting for approval,waiting for update,Hyderabad,Veejay Villa  Flat No-104 HYDERABAD 500056,Veejay Villa  Flat No-104  Krupa complex Road   Neredmet Hyderabad 500056,"Samsung Galaxy M30s (Opal Black, 4GB | 128 GB ) X 1 - ",none,none,23-6-2020,7032997142,7032997142, Samsung
206421001mo61b,2020002100,Sambhana Durgaprasad,durgaprasadsambha800@gmail.com,3999,Cancel,dc emi related issue,N/A,Alkapur road no 1 hyderabad Alkapur,N/A N/A N/A,Realme Watch (Black) X 1 - ,none,pickup,23-6-2020,6301011773,6301011773, Realme
206429001jc61b,2020002101,Vicky Vicky,c9prince@gmail.com,26997,Cancel,gt vendor,N/A,grandhotel near busstand karimnagar karimnagar 505001,N/A N/A N/A,Samsung Galaxy Black M01 3GB | 32GB X 1 - Samsung Galaxy Red M01 3GB | 32GB X 1 - Samsung Galaxy Blue M01 3GB | 32GB X 1 - ,cod,pickup,23-6-2020,9949901136,9949901136, Samsung
206429001dw61b,2020002102,Vicky Vicky,c9prince@gmail.com,26997,Waiting for approval,waiting for update,N/A,grandhotel near busstand karimnagar karimnagar 505001,N/A N/A N/A,Samsung Galaxy Black M01 3GB | 32GB X 1 - Samsung Galaxy Red M01 3GB | 32GB X 1 - Samsung Galaxy Blue M01 3GB | 32GB X 1 - ,none,pickup,23-6-2020,9949901136,9949901136, Samsung
206429001gp61b,2020002103,Vicky Vicky,c9prince@gmail.com,26997,Waiting for approval,waiting for update,N/A,grandhotel near busstand karimnagar karimnagar 505001,N/A N/A N/A,Samsung Galaxy Black M01 3GB | 32GB X 1 - Samsung Galaxy Red M01 3GB | 32GB X 1 - Samsung Galaxy Blue M01 3GB | 32GB X 1 - ,none,pickup,23-6-2020,9949901136,9949901136, Samsung
206429002jc60b,2020002104,Vicky Vicky,c9prince@gmail.com,26997,Waiting for approval,waiting for update,N/A,grandhotel near busstand karimnagar karimnagar 505001,N/A N/A N/A,Samsung Galaxy Black M01 3GB | 32GB X 1 - Samsung Galaxy Red M01 3GB | 32GB X 1 - Samsung Galaxy Blue M01 3GB | 32GB X 1 - ,none,pickup,23-6-2020,9949901136,9949901136, Samsung
206446001ml61b,2020002105,Kota Sai,sai.kota10@gmail.com,12999,Waiting for approval,waiting for update,Hyderabad,Ankitha arcade  mg road kfc Hyderabad 500003,Ankitha arcade  mg road kfc Hyderabad 500003,Samsung Galaxy M11 Voilet 4GB|64GB X 1 - ,none,none,23-6-2020,8179187221,8179187221, Samsung
206457001ta61b,2020002106,Kumar Suman,sumankumar649@gmail.com,10999,Waiting for approval,waiting for update,Hyderabad,Institute of hotel management f row  d d colony  vidyanagar Hyderabad 500007,Institute of hotel management f row  d d colony  vidyanagar Hyderabad 500007,SAMSUNG GALAXY Voilet M11 3GB|32GB X 1 - ,none,none,23-6-2020,7989493179,7989493179, Samsung
206486001pg61b,2020002107,Deepak Kishlte,kdeepakkishore@yahoo.co.in,8999,Waiting for approval,waiting for update,N/A,Satya Visakhapatnam 530007,N/A N/A N/A,Samsung Galaxy Blue M01 3GB | 32GB X 1 - ,none,pickup,23-6-2020,9246678066,9246678066, Samsung
206496001iw61b,2020002108,Gollapalli Mukesh,mukeshmonu4232@gmail.com,8999,Waiting for approval,waiting for update,Paloncha,22-1-85/9 Ayyappanagar Paloncha 507115,22-1-85/9 Ayyappanagar Paloncha 507115,Samsung Galaxy Black M01 3GB | 32GB X 1 - ,cod,none,23-6-2020,6302599711,6302599711, Samsung
206520001si61b,2020002109,Manoj Kumar Pallipattu,pallipattumanoj@gmail.com,8999,Waiting for approval,waiting for update,Pichatur Mandal,Rajanagaram Pichatur Mandal 517587,Rajanagaram Pichatur Mandal 517587,Samsung Galaxy Black M01 3GB | 32GB X 1 - ,none,none,23-6-2020,9390161067,9390161067, Samsung
206520001ro61b,2020002110,Manoj Kumar Pallipattu,pallipattumanoj@gmail.com,8999,Waiting for approval,waiting for update,Pichatur Mandal,Rajanagaram Pichatur Mandal 517587,Rajanagaram Pichatur Mandal 517587,Samsung Galaxy Black M01 3GB | 32GB X 1 - ,none,none,23-6-2020,9390161067,9390161067, Samsung
206520001fe61b,2020002111,Manoj Kumar Pallipattu,pallipattumanoj@gmail.com,8999,Waiting for approval,waiting for update,Pichatur Mandal,Rajanagaram Pichatur Mandal 517587,Rajanagaram Pichatur Mandal 517587,Samsung Galaxy Black M01 3GB | 32GB X 1 - ,none,none,23-6-2020,9390161067,9390161067, Samsung
206521001go61b,2020002112,Manoj Kumar Pallipattu,pallipattumanoj@gmail.com,8999,Waiting for approval,waiting for update,Pichatur Mandal,Rajanagaram Pichatur Mandal 517587,Rajanagaram Pichatur Mandal 517587,Samsung Galaxy Black M01 3GB | 32GB X 1 - ,none,none,23-6-2020,9390161067,9390161067, Samsung
206521001ja61b,2020002113,Manoj Kumar Pallipattu,pallipattumanoj@gmail.com,8999,Waiting for approval,waiting for update,Pichatur Mandal,Rajanagaram Pichatur Mandal 517587,Rajanagaram Pichatur Mandal 517587,Samsung Galaxy Black M01 3GB | 32GB X 1 - ,none,none,23-6-2020,9390161067,9390161067, Samsung
206521002go60b,2020002114,Manoj Kumar Pallipattu,pallipattumanoj@gmail.com,8999,Hold,rnr,Pichatur Mandal,Rajanagaram Pichatur Mandal 517587,Rajanagaram Pichatur Mandal 517587,Samsung Galaxy Black M01 3GB | 32GB X 1 - ,cod,none,23-6-2020,9390161067,9390161067, Samsung
206521001ka61b,2020002115,Manoj Kumar Pallipattu,pallipattumanoj@gmail.com,8999,Waiting for approval,waiting for update,Pichatur Mandal,Rajanagaram Pichatur Mandal 517587,Rajanagaram Pichatur Mandal 517587,Samsung Galaxy Black M01 3GB | 32GB X 1 - ,none,none,23-6-2020,9390161067,9390161067, Samsung
206521001ja61b,2020002116,Manoj Kumar Pallipattu,pallipattumanoj@gmail.com,8999,Waiting for approval,waiting for update,Pichatur Mandal,Rajanagaram Pichatur Mandal 517587,Rajanagaram Pichatur Mandal 517587,Samsung Galaxy Black M01 3GB | 32GB X 1 - ,none,none,23-6-2020,9390161067,9390161067, Samsung
206533001wg61b,2020002117,Gangapuri Prudhviraj,prudhvirajgangapuri@gmail.com,3999,Cancel,cod issue,N/A,22-3-91 nehrunagar Paloncha 507115,N/A N/A N/A,Realme Watch (Black) X 1 - ,cod,pickup,23-6-2020,7032329790,7032329790, Realme
206533002wg60b,2020002118,Gangapuri Prudhviraj,prudhvirajgangapuri@gmail.com,3999,Waiting for approval,waiting for update,N/A,22-3-91 nehrunagar Paloncha 507115,N/A N/A N/A,Realme Watch (Black) X 1 - ,none,pickup,23-6-2020,7032329790,7032329790, Realme
206533001ok61b,2020002119,Gangapuri Prudhviraj,prudhvirajgangapuri@gmail.com,3999,Waiting for approval,waiting for update,N/A,22-3-91 nehrunagar Paloncha 507115,N/A N/A N/A,Realme Watch (Black) X 1 - ,none,pickup,23-6-2020,7032329790,7032329790, Realme
206569001il61b,2020002120,Kumar Suman,sumankumar649@gmail.com,10999,Accepted,warehouse delivery,Hyderabad,Institute of hotel management f row  d d colony  vidyanagar Hyderabad 500007,Ramshankar nagar lane 1 srinivaspurm ramanthapur Hyderabad 500013,SAMSUNG GALAXY Voilet M11 3GB|32GB X 1 - ,cod,none,23-6-2020,7989493179,7667058622, Samsung
206576002ft60b,2020002121,Vardhan Adithya,adithyavardhan89@gmail.com,3999,Accepted,warehouse delivery,Vijayawada,Ashoknagar Vijayawada 520007,Ashoknagar Vijayawada 520007,Realme Watch (Black) X 1 - ,cod,none,23-6-2020,6305901941,6305901941, Realme
206626001yj61b,2020002122,Bevara Viswanath,sandeep.sandy91221@gmail.com,8999,Accepted,warehouse delivery,VIJAYAWADA,D.No: 4-1/4-1A  Bangaraiah Shop Line  near Chittinagar VIJAYAWADA 520001,D.No: 4-1/4-1A  Bangaraiah Shop Line VIJAYAWADA 520001,Samsung Galaxy Red M01 3GB | 32GB X 1 - ,paid #PAYTM-20200623111212800110168299633312523,none,23-6-2020,9014350194,9014350194, Samsung
206630001ci61b,2020002123,Khan Uzair,uzairak@ymail.com,8999,Accepted,warehouse delivery,N/A,6-2-294  AC Guards Hyderabad 500004,N/A N/A N/A,Samsung Galaxy Blue M01 3GB | 32GB X 1 - ,cod,pickup,23-6-2020,8500246842,8500246842, Samsung
206674001pa61b,2020002124,Reddy Sagar,modemsagar@gmail.com,11499,Waiting for approval,waiting for update,Hyderabad,99 Hyderabad 500072,99 Hyderabad 500072,Nokia 7.1 - 4GB|64GB X 1 - ,none,none,23-6-2020,9700879796,9700879796, Nokia
206688001ds61b,2020002125,Kumar Jaya,srimounikavipprathi@gmail.com,9481,Cancel,enquiry,N/A,Konthamuru Rajahmundry Kubaera avenues,N/A N/A N/A,Nokia 3.2 Black 3GB|32GB X 1 - ,cod,pickup,23-6-2020,8121410335,8121410335, Nokia
206690001dh61b,2020002126,Vel Thanigai,rk.thaniga@gmail.com,73600,Waiting for approval,waiting for update,Kanchipuram,No 106 vanigar st Kanchipuram 631051,No 106 vanigar st Kanchipuram 631051,iPhone 11 Green 128GB X 1 - ,none,none,23-6-2020,9952547281,9952547281, Apple
206694001mb61b,2020002127,Kumar Venkatesh,venkat777@gmail.com,23998,Accepted,warehouse delivery,Secundrabad,Plot no 10/e chandragiri  colony tirmulgherry Secundrabad 500010,Plot no 10/e chandragIrish cology tirmulgherry Secundrabad 500010,Samsung Galaxy M11 Black 3GB|32GB X 1 - Samsung Galaxy M11 Black 4GB|64GB X 1 - ,cod,none,23-6-2020,7097979358,7097979358, Samsung
206695001xs61b,2020002128,Kumar Jaya,srimounikavipprathi@gmail.com,9481,Cancel,enquiry,Rajahmundry,Official colony Rajahmundry 15-300 kubaera avenue konthamuru,Official colony Rajahmundry 15-300 kubaera avenue konthamuru,Nokia 3.2 Black 3GB|32GB X 1 - ,cod,none,23-6-2020,8121410335,8121410335, Nokia
206699001lc61b,2020002129,B Nithesh,nithesh883@gmail.com,31999,Hold,need wifi tab,N/A,Hyderabad Hyderabad 500050,N/A N/A N/A,"Samung Galaxy Tab S6Lite -LTE  (Oxford Grey, 64GB ) X 1 - ",none,pickup,23-6-2020,7032770921,7032770921,
206704002xs60b,2020002130,Halder Soumit,soumitharika1920@gmail.com,23998,Accepted,warehouse delivery,Secundrabad,Plot no 78 axis bank chand ra giri colong tirmulgherry Secundrabad 500010,Plot no 78 axis bank chand ra giri colong tirmulgherry Secundrabad 500010,Samsung Galaxy M11 Black 4GB|64GB X 1 - SAMSUNG GALAXY Voilet M11 3GB|32GB X 1 - ,cod,none,23-6-2020,8885379686,8885379686, Samsung
206739001jj61b,2020002131,Muntode Vijay,vikascvb@gmail.com,8999,Waiting for approval,waiting for update,Kolhar kh,Kolhar kh nagar manmad road Kolhar kh 413710,Kolhar kh nagar manmad road Kolhar kh 413710,Samsung Galaxy Black M01 3GB | 32GB X 1 - ,none,none,23-6-2020,8796505267,8796505267, Samsung
206768001kb61b,2020002132,Prasad Pedireddy,prasadpedireddy123@gmail.com,8999,Waiting for approval,waiting for update,gollala mamidada,kotipalli street gollala mamidada 533344,kotipalli street gollala mamidada 534201,Samsung Galaxy Blue M01 3GB | 32GB X 1 - ,none,none,23-6-2020,9502634366,9502634366, Samsung
206769001fh61b,2020002133,Khan Sohail,sohailkhan3039@gmail.com,52500,Waiting for approval,waiting for update,Nimbahera,Raja colony Nimbahera 312601,Raja colony Nimbahera 312601,iPhone XR Coral 64GB X 1 - ,none,none,23-6-2020,7240287063,7240287063, Apple
206771001pi61b,2020002134,Muntode Vijay,vijaymuntode007@gmail.com,17998,Waiting for approval,waiting for update,Kolhar,Kolhar  Kh nagar manmad road Kolhar 413710,Kolhar  Kh nagar manmad road Kolhar 413710,Samsung Galaxy Black M01 3GB | 32GB X 2 - ,none,none,23-6-2020,8796505267,8796505267, Samsung
206774001sr61b,2020002135,Muntode Vijay,vijaymuntode007@gmail.com,8999,Waiting for approval,waiting for update,Kolhar,Kolhar  kh nagar manmad road Kolhar 413710,Kolhar  kh nagar manmad road Kolhar 413710,Samsung Galaxy Black M01 3GB | 32GB X 1 - ,cod,none,23-6-2020,8796505267,8796505267, Samsung
206820001fe61b,2020002136,Gupta Parexel C/o Varun,varun8085@gmail.com,8999,Waiting for approval,waiting for update,Ludhiana,6 Sood Enclave Dugri Dhandra Road Ludhiana 141013,6 Sood Enclave Dugri Dhandra Road Ludhiana 141013,Samsung Galaxy Black M01 3GB | 32GB X 1 - ,cod,none,23-6-2020,9872893661,9872893661, Samsung
206822001yl61b,2020002137,Kishore Mopur,mopurkishore@gmail.com,11499,Waiting for approval,waiting for update,bangalore,flat no 303 Shubhash Pg Ashwathnagar Near maremma temple Marathahalli Bangalore 560037,flat no 303 Shubhash Pg Ashwathnagar Near maremma temple Marathahalli bangalore 560037,Nokia 7.1 - 4GB|64GB X 1 - ,cod,none,23-6-2020,9493130093,9493130093, Nokia
206826001ls61b,2020002138,Gubbala Koteswara Rao,koti.gubbala@gmail.com,15999,Waiting for approval,waiting for update,Malikipuram Mandal,Gurrajugari Veedhi  Lakkavaram Village Malikipuram Mandal 533254,Gurrajugari Veedhi  Lakkavaram Village Malikipuram Mandal 533254,Samsung Galaxy A30s Black 4GB|64GB X 1 - ,none,none,23-6-2020,9959264698,9959264698, Samsung
206838001jf61b,2020002139,Rsmunaidu Varri,vrnaidu570@gmail.com,10999,Cancel,cod issue,N/A,Ramalayam Visakhapatnam 535183,N/A N/A N/A,SAMSUNG GALAXY Voilet M11 3GB|32GB X 1 - ,none,pickup,23-6-2020,7780622302,7780622302, Samsung
206847001uh61b,2020002140,Ramunaidu Varri,vrnaidu570@gmail.com,10999,Cancel,cod issue,N/A,Rsmalayam Visakhapatnsm 535183,N/A N/A N/A,SAMSUNG GALAXY Voilet M11 3GB|32GB X 1 - ,cod,pickup,23-6-2020,7780622302,7780622302, Samsung
206858001rn61b,2020002141,Kumar Santosh,santosh.mukkara102@gmail.com,3999,Waiting for approval,waiting for update,Chilakaluripet,Srinivas colony Chilakaluripet 522616,St.charles em school  srinivas colony Chilakaluripet 522616,Realme Watch (Black) X 1 - ,none,none,23-6-2020,9550732721,9550732721, Realme
206864001jf61b,2020002142,Yanala Mouli,satyakiranmouli@gmail.com,8999,Cancel,cod issue,Nellore,2nd line  Near Ramalayam   Haranathapuram Nellore 524004,2nd line  Near Ramalayam   Haranathapuram Nellore 524004,Samsung Galaxy Blue M01 3GB | 32GB X 1 - ,cod,none,23-6-2020,9030123356,9030123356, Samsung
206873001pu61b,2020002143,Ch Sudheer,sudheer.pcr@gmail.com,8999,Cancel,cod issue,N/A,Gujjanagundla Guntur 522006,N/A N/A N/A,Samsung Galaxy Black M01 3GB | 32GB X 1 - ,cod,pickup,23-6-2020,8340045000,8340045000, Samsung
206882001cg61b,2020002144,Thamada Prasad,prasadtpadma22@gmail.com,8999,Cancel,cod issue,Vishakhapatnam,BAPUJI STREET Vishakhapatnam 530016,BAPUJI STREET Vishakhapatnam 530016,Samsung Galaxy Red M01 3GB | 32GB X 1 - ,cod,none,23-6-2020,9573571889,9573571889, Samsung
206891001px61b,2020002145,Santhosh Boddu,aviva.santhu@gmail.com,17998,Cancel,cod issue,N/A,Karimnagar Karimnagar 505001,N/A N/A N/A,Samsung Galaxy Black M01 3GB | 32GB X 2 - ,cod,pickup,23-6-2020,9704823465,9704823465, Samsung
206891002px60b,2020002146,Santhosh Boddu,aviva.santhu@gmail.com,17998,Waiting for approval,waiting for update,N/A,Karimnagar Karimnagar 505001,N/A N/A N/A,Samsung Galaxy Black M01 3GB | 32GB X 2 - ,none,pickup,23-6-2020,9704823465,9704823465, Samsung
206903001mp61b,2020002147,Siva Laxman,bhargavalaxman97@gmail.com,8999,Waiting for approval,waiting for update,Rajahmahendravaram,Ganesh nagar Rajahmahendravaram 533107,Ganesh nagar Rajahmahendravaram 533107,Samsung Galaxy Black M01 3GB | 32GB X 1 - ,none,none,23-6-2020,7013031889,7013031889, Samsung
206906001mw61b,2020002148,Srinivasachary Kandukuri,skandukuri709@gmail.com,7999,Waiting for approval,waiting for update,Karimnagar,10-5-270/1 Kisannagar karimnagar Telanga Karimnagar 505001,10-5-270/1 Kisannagar karimnagar Telanga Karimnagar 505001,Redmi 8A Dual Blue 2GB/32GB X 1 - ,cod,none,23-6-2020,9849573709,9849573709, Xiaomi
206914001pw61b,2020002149,Being Social,contact@sphonestore.com,73600,Waiting for approval,waiting for update,Bly,Vill nd post Bly 443322,Vill nd post Bly 443322,iPhone 11 Red 128GB X 1 - ,none,none,23-6-2020,8630941443,8630941443, Apple
206928001gb61b,2020002150,Narendar YELLENI,narenderyelleni@gmail.com,8999,Cancel,cod issue,"Kodad, Suryapet",Gudibanda Road Kodad 508206,"Myhome Constructions PVT LTD  Gudibanda Road Kodad Kodad, Suryapet 508206",Samsung Galaxy Black M01 3GB | 32GB X 1 - ,cod,none,23-6-2020,8499943603,9440196196, Samsung
206954001hm61b,2020002151,Kota Kumar,ragamayikumar26@gmail.com,23997,Waiting for approval,waiting for update,N/A,Plot no 24 (first floor) Road no 6  Sector 1 lotus landmark Ayodhyanagar Vijayawada 520003,N/A N/A N/A,Redmi 8A Dual Blue 2GB/32GB X 3 - ,cod,pickup,23-6-2020,8688888000,8688888000, Xiaomi
206962001gn61b,2020002152,Challa Saikrishnareddy,challa7238@gmail.com,42500,Waiting for approval,waiting for update,Bhongir,New collectarate complex Bhongir 500816,New collectarate complex Bhongir 500816,iPhone SE 2020 Black 64GB X 1 - ,none,none,23-6-2020,8186859467,8186859467, Apple
206967001fd61b,2020002153,Prasad Pedireddy,prasadpedireddy123@gmail.com,8999,Waiting for approval,waiting for update,bhimavaram,chekkavari street near railway station road bhimavaram 534201,chekkavari street near railway station road bhimavaram 534201,Samsung Galaxy Blue M01 3GB | 32GB X 1 - ,cod,none,23-6-2020,9502634366,9502634366, Samsung
206989001kn61b,2020002154,Reddy Pavan,reddymulli1980@icloud.com,52500,Waiting for approval,waiting for update,pune,ghorpadi gaon pune 411001,ghorpadi gaon pune 411001,iPhone XR Blue 64GB X 1 - ,none,none,23-6-2020,7666248772,7666248772, Apple