Orderid,OrderNo,Name,Email,price,status,internalNote,CityName,BillingAddress,DeliveryAddress,Products,Paymentstatus,Ordertype,Date,DeliveryPhoneNum,PhoneNum,Brand
187368001rd61b,2020001410,Kokala Keerthi,keerthikokala@gmail.com,25250,Waiting for approval,waiting for update,N/A,Ram nagar Anantapur 515005,N/A N/A N/A,Samsung Galaxy A51 Blue 6GB|128GB X 1 - ,none,pickup,10-6-2020,9246148968,9246148968, Samsung
187433001dn61b,2020001411,Gujjar Sahil,mrsahil277@gmail.com,80599,Waiting for approval,waiting for update,Bawal,13741 pondview circle Naples 123501,Nangal teju Bawal 123501,iPhone X Silver 256GB X 1 - ,none,none,10-6-2020,9729232595,9729232595, Apple
187439001hg61b,2020001412,Gujjar Sahil,mrsahil277@gmail.com,80599,Waiting for approval,waiting for update,Bawal,Greenwich park street 5314 Ladson 123501,Nangal teju Bawal 123501,iPhone X Silver 256GB X 1 - ,none,none,10-6-2020,9729232595,9729232595, Apple
187450001rg61b,2020001413,Chinna Karthik,karthikchinna360@gmail.com,16999,Hold,cod issue,Rajahmundry,Seethanagaram Rajahmundry 533287,Seethanagaram Rajahmundry 533287,Realme X Blue 4GB|128GB X 1 - ,cod,none,10-6-2020,9491437360,9491437360, Realme
187460001tc61b,2020001414,Beejlani Ronak,ronakghs1000@gmail.com,58300,Waiting for approval,waiting for update,Hyderabad,1-3-520/1 kavadiguda besides masjid lane Hyderabad 500080,1-3-520/1 kavadiguda besides masjid lane Hyderabad 500080,iPhone SE 2020 Red 256GB X 1 - ,none,none,10-6-2020,9951777925,9951777925, Apple
187480001wc61b,2020001415,Beejlani Ronak,ronakghs1000@gmail.com,42500,Waiting for approval,waiting for update,Hyderabad,1-3-520/1 kavadiguda besides masjid lane Hyderabad 500080,1-3-520/1 kavadiguda besides masjid lane Hyderabad 500080,iPhone SE 2020 Red 64GB X 1 - ,none,none,10-6-2020,9951777925,9951777925, Apple
187515001an61b,2020001416,Velagapudi Velagapudi Jyothi Prasad,jpvelagapudi@gmail.com,10990,Waiting for approval,waiting for update,Kanchikacherla,Kanchikacherla Kanchikacherla 521180,Kanchikacherla Kanchikacherla 521180,Vivo Y12 Red 3GB|64GB X 1 - ,cod,none,10-6-2020,8142219343,8142219343, Vivo
187537001ab61b,2020001417,Nandha Kumar Chowdary Sai,ksnkan1111@gmail.com,2199,Waiting for approval,waiting for update,Hyderabad,13-11-73/2/A Pragati Nagar p t colony Dlishuknagar Hyderabad Hyderabad 500060,13-11-73/2/A Pragati Nagar p t colony Dlishuknagar Hyderabad Hyderabad 500060,One Plus Bullet Wireless z X 1 - ,cod,none,10-6-2020,8186947494,8186947494,
187537001sy61b,2020001418,Vogeti Ramgopal,vramgopal5@gmail.com,58300,Hold,rnr,Rajahmundry,Sasi school street Rajahmundry 533196,Sasi school street  revenue colony  Bhaskar nagar lalacheruvu Rajahmundry 533101,iPhone SE 2020 White 256GB X 1 - ,none,none,10-6-2020,9963384185,9963384185, Apple
187610001wx61b,2020001419,Venkata Sai Rayavarapu,sunhopes.ca@gmail.com,7399,Accepted,warehouse delivery,N/A,House no. RZF478/5  third floor  gali no. 45  shadnagar palam New Delhi 110045,N/A N/A N/A,Gionee M7 Power - 4 GB RAM | 64 GB ROM X 1 - ,paid #PINE-669748,pickup,10-6-2020,9573595253,9573595253,
187671001ll61b,2020001420,Chaitanya Krishna,bunny.krish@gmail.com,49999,Waiting for approval,waiting for update,N/A,D.no5-153/4/4 flat no gf4 hemanth sai nilayam  near DAV school virat nagar chinamushidiwada pendurthy Visakhapatnam andhra pradesh visakhapatnam 530051,N/A N/A N/A,OnePlus 8 Glacial Green 12GB|256GB X 1 - ,none,pickup,10-6-2020,8919740649,8919740649, Oneplus
187754001cd61b,2020001421,Mohammad Hameeda,ismailzabi26731@gmail.com,12999,Hold,no stock,Vuyyuru,7-156  besides shiridi sai apartment road  Kunapareddy Nagar  thotlavalluru road  vuyyuru Vuyyuru 521165,7-156  besides shiridi sai apartment road  Kunapareddy Nagar  thotlavalluru road  vuyyuru Vuyyuru 521165,Realme 5 Pro - 4GB|64GB X 1 - ,cod,none,10-6-2020,9553871185,9553871185, Realme
187771001lp61b,2020001422,M SANTOSH,malothsanthosh9@gmail.com,10990,Waiting for approval,waiting for update,Hyderabad,edu network private limited. Q City road Hyderabad 500032,edu network private limited. Q City road Hyderabad 500032,Vivo Y12 Red 3GB|64GB X 1 - ,none,none,10-6-2020,9959564142,9959564142, Vivo
187788001uu61b,2020001423,KRISHNA Test,saikrishn64@gmail.com,18999,Canceled,waiting for update,N/A,57656 Khammam 931,N/A N/A N/A,Redmi Note 8 Pro Black 8GB|128GB X 1 - ,cod,pickup,10-6-2020,7975769651,7975769651, Xiaomi
187793001iu61b,2020001424,K Anurag,kk.anurag.chintu14@gmail.com,20980,Waiting for approval,waiting for update,Secunderabad,Pioneer bazar Secunderabad 500010,Pioneer bazar Secunderabad 500010,Vivo Y11 Red 3GB|32GB - 2019 X 1 - Vivo Y12 Blue 3GB|64GB X 1 - ,none,none,10-6-2020,9949159856,9949159856, Vivo
187798001hl61b,2020001425,K Anurag,kk.anurag.chintu14@gmail.com,20980,Waiting for approval,waiting for update,Secunderabad,Pioneer bazar Secunderabad 500010,Pioneer bazar Secunderabad 500010,Vivo Y12 Blue 3GB|64GB X 1 - Vivo Y11 Red 3GB|32GB - 2019 X 1 - ,cod,none,10-6-2020,9949159856,9949159856, Vivo
187844001mm61b,2020001426,Tippani Amar,orders@happimobiles.com,24990,Waiting for approval,waiting for update,hyderabad,1303 ayyapa society  1303  2nd Floor hyderabad 500081,1303 ayyapa society  1303  2nd Floor hyderabad 500081,Vivo V17 Black 8GB|128GB X 1 - ,none,none,10-6-2020,9652483334,9652483334, Vivo
187862001pa61b,2020001427,Vishnumolakala Gopinadh,gopinadhv009@gmail.com,13999,Accepted,warehouse delivery,Vijayawada,41-27-22 FLAT NO 502  Aadi Deva Enclave  Krishna Lanka Vijayawada 520013,SREI Equipment Finance Limited  # 59-14-5  1st Floor  BSR Plaza  Opp: Maris Stella College  Ramachandra Nagar Vijayawada 520008,Redmi Note 7 Pro – 6GB/128GB X 1 - ,paid #PAYTM-20200610111212800110168653531457243,none,10-6-2020,9908292345,9908292345, Xiaomi
187898001sw61b,2020001428,Sai Pavan,pavansaimannava001@gmail.com,12490,Waiting for approval,waiting for update,Guntur,F1 A block balaji apartment ashoknagar 3rd line  lakshmipuram  near baker's fun. Guntur 522007,F1 A block balaji apartment ashoknagar 3rd line  lakshmipuram  near baker's fun. Guntur 522007,Oppo A31 White 4GB|64GB X 1 - ,none,none,10-6-2020,9491329377,9491329377, Oppo
188041001sk61b,2020001429,Kalvas Surya,surya.kalvas@gmail.com,12999,Waiting for approval,waiting for update,N/A,Raja Street Atmakur 518422,N/A N/A N/A,Redmi Note 7 Pro – 6GB/64GB X 1 - ,cod,pickup,10-6-2020,9492945330,9492945330, Xiaomi
188042001xi61b,2020001430,Chadalavada Chandra Sekhar,drsekhar93@gmail.com,7990,Accepted,warehouse delivery,N/A,Flat no 202 serenes pride apartment Guntur 522034,N/A N/A N/A,Oppo A1K Black 2GB|32GB X 1 - ,paid #PAYTM-20200610111212800110168222231513280,pickup,10-6-2020,9704619339,9704619339, Oppo
188091001ye61b,2020001431,Pavan Krishna,pavan@happimobiles.com,2255,Waiting for approval,waiting for update,hyderabad,indu fortune fields  villa no 240  kphb 7   hyderabad 500082,indu fortune fields  villa no 240  kphb 7   hyderabad 500082,Nokia - 150 X 1 - ,none,none,10-6-2020,9966744440,9966744440, Nokia
188161001nr61b,2020001432,Reddy Yashwanth Reddy,reddyyashwanth88@gmail.com,16999,Waiting for approval,waiting for update,Anantapur,D.no 1-1362 adccbank colony ANANTAPUR 515001,D.no 1-1362 adccbank colony  Adcc bank colony rudrempetabypass anantapur Anantapur 515001,Redmi Note 8 Pro – 6GB|128GB X 1 - ,none,none,10-6-2020,9398371895,9398371885, Xiaomi
188255001gx61b,2020001433,Ivory Test,prasanthi@iipl.work,1,Waiting for approval,waiting for update,Hyderabad,Film Nagar Hyderabad 500033,Film Nagar Hyderabad 500033,test projector X 1 - ,none,none,10-6-2020,8686836269,8686836269,
188270001gt61b,2020001434,Ivory Test,prasanthi@iipl.work,1,Waiting for approval,waiting for update,Hyderabad,Film Nagar Hyderabad 500033,Film Nagar Hyderabad 500033,test projector X 1 - ,none,none,10-6-2020,8686836269,8686836269,
188290001do61b,2020001435,Ivory Test,prasanthi@iipl.work,1,Waiting for approval,waiting for update,N/A,Film Nagar Hyderabad 500033,N/A N/A N/A,test projector X 1 - ,none,pickup,10-6-2020,8686836269,8686836269,
188323001yd61b,2020001436,Sriram Rajesh,rajesh.sriram009@gmail.com,89900,Hold,gt vendor,N/A,Vidhyadharapuram Vijayawada 520012,N/A N/A N/A,Samsung Galaxy A10s Black 2GB|32GB X 10 - ,cod,pickup,10-6-2020,7780222713,7780222713, Samsung
188327001pw61b,2020001437,Sriram Rajesh,rajesh.sriram009@gmail.com,117400,Hold,gt vendor,N/A,Vidhyadharapuram Vijayawada 520012,N/A N/A N/A,Vivo Y12 Red 3GB|64GB X 5 - Oppo A31 Black 4GB|64GB X 5 - ,cod,pickup,10-6-2020,7780222713,7780222713, Oppo Vivo
188450001pe61b,2020001438,Chawla Hitesh,manish008498@gmail.com,27990,Waiting for approval,waiting for update,Dhamtari,Chawla bhawan Dhamtari 493772,Chawla bhawan Dhamtari 493772,"Vivo V19 (Mystic Silver, 128GB) (8GB RAM) X 1 - ",none,none,10-6-2020,7987946774,7987946774, Vivo
188893001li61b,2020001439,Venkata Prasad Kolasani,mediaworldprasad@gmail.com,27999,Hold,pre booking,N/A,005 Sri Viswapriya Apartment beside Oxford school  chandramouli Nagar  Guntur 522007,N/A N/A N/A,"Samung Galaxy S6 Tab Lite - Wi-Fi (Angora Blue, 64GB ) X 1 - ",cod,pickup,11-6-2020,9848913065,9848913065,
188976001su61b,2020001440,Veda Vyas Ryali Devi,vyasveda55@gmail.com,22499,Waiting for approval,waiting for update,N/A,Mallaihpeta durganagar 1st street Rajahmundry 533105,N/A N/A N/A,Redmi K20 – 6GB/64GB X 1 - ,none,pickup,11-6-2020,7075233510,7075233510, Xiaomi
188984001ei61b,2020001441,REDDY G.YASHWANTH,reddyyashwanth88@gmail.com,16999,Waiting for approval,waiting for update,ANANTAPUR,D.no 1-1362 adccbank colony ANANTAPUR 515004,D.no 1-1362 adccbank colony  Adcc bank colony rudrempetabypass anantapur ANANTAPUR 515001,Redmi Note 8 Pro – 6GB|128GB X 1 - ,none,none,11-6-2020,9398371895,9398371895, Xiaomi
189001001me61b,2020001442,Arjun Mallik,mallik424@gmail.com,21980,Hold,gt vendor,N/A,Kothapet Guntur 522001,N/A N/A N/A,Vivo Y12 Red 3GB|64GB X 2 - ,cod,pickup,11-6-2020,9985671956,9985671956, Vivo
189006001hd61b,2020001443,T Arjun,mallikfriends95@gmail.com,21980,Hold,gt vendor,N/A,Nagarampalem Guntur 522001,N/A N/A N/A,Vivo Y12 Red 3GB|64GB X 2 - ,cod,pickup,11-6-2020,7981595532,7981595532, Vivo
189126001ta61b,2020001444,Maduguri Omkar,omkarmaduguri000@gmail.com,31999,Waiting for approval,waiting for update,Secunderabad,Main road Venkatapuram 507136,Flat no:G-5  samskruthi prangan apartments baba nagar  nacharam Secunderabad 500076,"Samung Galaxy Tab S6Lite -LTE  (Oxford Grey, 64GB ) X 1 - ",none,none,11-6-2020,7995252299,7995252299,
189129001jp61b,2020001445,KARUNAKAR KESAVA,jfm@happimobiles.com,20900,Waiting for approval,waiting for update,N/A,Ayyapa socity Hyderabad 500081,N/A N/A N/A,Apple Watch Series 3 GPS - 38mm Space Grey Aluminium Case with Black Sport Band X 1 - ,none,pickup,11-6-2020,7702465675,7702465675, Xiaomi
189224001bg61b,2020001446,Varre Naga Venkateswararao,nagavarre@gmail.com,12999,Waiting for approval,waiting for update,Vijayawada,Plotno47c ，teachers colony Vijayawada 520008,Plotno 47c，teachers colony Vijayawada 520008,Redmi Note 7 Pro – 6GB/64GB X 1 - ,cod,none,11-6-2020,8978006115,8978006115, Xiaomi
189255001jk61b,2020001447,Varre Naga Venkateswararao,nagavarre@gmail.com,12999,Waiting for approval,waiting for update,Vijayawada,Plotno 47 teachers colony Vijayawada 520008,Plotno 47c teachers colony Vijayawada 520008,Redmi Note 7 Pro – 6GB/64GB X 1 - ,cod,none,11-6-2020,8978006115,8978006115, Xiaomi
189281001ko61b,2020001448,Vaghela Nirav,nirav43@gmail.com,16999,Waiting for approval,waiting for update,N/A,D 412 Patel's green Park Yapral Hyderabad 500089,N/A N/A N/A,Redmi Note 8 Pro – 6GB|128GB X 1 - ,none,pickup,11-6-2020,9701611844,9701611844, Xiaomi
189301001at61b,2020001449,Pathlavath Ramesh,ramesh.944p@gmail.com,20990,Waiting for approval,waiting for update,N/A,Hitech City Road Hyderabad 500018,N/A N/A N/A,Vivo S1 Pro Black 8GB|128GB X 1 - ,none,pickup,11-6-2020,9908030944,9908030944, Vivo
189311001lf61b,2020001450,Nagulapalli Satyanarayana,satyadurga1502@yahoo.in,10690,Waiting for approval,waiting for update,Visakapatnam,Vbm compound Visakapatnam 530003,Timpany scjool Visakapatnam 530003,Oppo A5 Blue 4GB|64GB X 1 - ,none,none,11-6-2020,7032521520,9059622998, Oppo
189324001ss61b,2020001451,Arif Mirza Akif Mohammad,akifmirzap@gmail.com,16999,Accepted,warehouse delivery,HYDERABAD,2-3-662/2  Azadnagar  Amberpet HYDERABAD 500013,2-3-662/2  Azadnagar  Amberpet HYDERABAD 500013,Redmi Note 8 Pro – 6GB|128GB X 1 - ,cod,none,11-6-2020,9700629569,9700629569, Xiaomi
189330001ck61b,2020001452,Kumar Harish,harish.mech86@gmail.com,10999,Accepted,warehouse delivery,N/A,1-52/255  Bhavani Puram Colony Hyderabad 502032,N/A N/A N/A,Samsung Galaxy Metalic Blue M11 3GB|32GB X 1 - ,paid #PINE-674629,pickup,11-6-2020,7842266263,7842266263, Samsung
189340001nu61b,2020001453,Sri Murali,baswasrimurali96@gmail.com,7990,Waiting for approval,waiting for update,N/A,K. Savaram Tanuku Westgodavari,N/A N/A N/A,Oppo A1K Red 2GB|32GB X 1 - ,cod,pickup,11-6-2020,8074384130,8074384130, Oppo
189358001hx61b,2020001454,Reddy Mannem Pradeep Reddy,pradeepstime@gmail.com,17999,Waiting for approval,waiting for update,"Kandukoor(mandal) ,nedunoor(post) ,manyaguda(village )","near shivalayam temple  Kandukoor mandal ,nedunoor (post) ,manyaguda(village ) 501359","near shivalayam temple manyaguda(village ) Kandukoor(mandal) ,nedunoor(post) ,manyaguda(village ) 501359",Realme XT White 6GB|64GB X 1 - ,none,none,11-6-2020,9515171049,9515171049, Realme
189361001ms61b,2020001455,Reddy Mannem Pradeep,mannempradeepreddy@gmail.com,17999,Waiting for approval,waiting for update,Kandukoor(mandal),Shivalayam(street)  manyaguda(village)  nedunoor(post)  kandukoor(mandal) Kandukoor(mandal) 501359,Shivalayam(street)  manyaguda(village)  nedunoor(post)  kandukoor(mandal) Kandukoor(mandal) 501359,Realme XT White 6GB|64GB X 1 - ,none,none,11-6-2020,8328318934,8328318934, Realme
189371001ci61b,2020001456,Reddy Mannem Pradeep Reddy,mannempradeepreddy@gmail.com,17999,Hold,no stock,Kandukoor (mandal),Shivalayam street kandukoor(mandal)  nedunoor(village ) Kandukoor (mandal) 501359,Shivalayam street kandukoor(mandal)  nedunoor(village ) Kandukoor (mandal) 501359,Realme XT White 6GB|64GB X 1 - ,cod,none,11-6-2020,8328318934,8328318934, Realme
189396001ot61b,2020001457,Majji Durgaprasad,dpsmart333@gmail.com,16999,Waiting for approval,waiting for update,Vijayawada,One town Vijayawada 520001,One town Vijayawada 520001,Realme X White 4GB|128GB X 1 - ,none,none,11-6-2020,8143536333,8143536333, Realme
189421001km61b,2020001458,Ommi Amarnath,ovsamarnath@gmail.com,47800,Waiting for approval,waiting for update,N/A,Sheela Nagar Visakhapatnam 530027,N/A N/A N/A,iPhone SE 2020 128GB Black X 1 - ,none,pickup,11-6-2020,9989478006,9989478006, Apple
189426001cn61b,2020001459,Reddy Mannem Pradeep Reddy,pradeepstime@gmail.com,17999,Waiting for approval,waiting for update,N/A,near shivalayam temple  kandukoor (mandal)  nedunoor (post)  manyaguda(village) Kandukoor mandal 501359,N/A N/A N/A,Realme XT White 6GB|64GB X 1 - ,none,pickup,11-6-2020,9515171049,9515171049, Realme
189429001nr61b,2020001460,Reddy Mannem Pradeep Reddy,pradeepstime@gmail.com,17999,onhold,waiting for update,N/A,"near shivalayam temple manyaguda(village) kandukoor(mandal) Kandukoor (mandal) ,R.R(dist) , 501359",N/A N/A N/A,Realme XT White 6GB|64GB X 1 - ,cod,pickup,11-6-2020,8328318934,8328318934, Realme
189431001up61b,2020001461,Paladi Prudhvi,prudhvimammu@gmail.com,3499,Hold,rnr,Hyderabad,Subashnagar Hyderabad 500055,Subashnagar Hyderabad 500055,Mi Box X 1 - ,cod,none,11-6-2020,7097052970,7097052970, Xiaomi
189431001ho61b,2020001462,Paladi Prudhvi,prudhvimammu@gmail.com,3499,Waiting for approval,waiting for update,Hyderabad,Subashnagar Hyderabad 500055,Subashnagar Hyderabad 500055,Mi Box X 1 - ,none,none,11-6-2020,7097052970,7097052970, Xiaomi
189431001bs61b,2020001463,Paladi Prudhvi,prudhvimammu@gmail.com,3499,Waiting for approval,waiting for update,Hyderabad,Subashnagar Hyderabad 500055,Subashnagar Hyderabad 500055,Mi Box X 1 - ,none,none,11-6-2020,7097052970,7097052970, Xiaomi
189431001ff61b,2020001464,Paladi Prudhvi,prudhvimammu@gmail.com,3499,Waiting for approval,waiting for update,Hyderabad,Subashnagar Hyderabad 500055,Subashnagar Hyderabad 500055,Mi Box X 1 - ,none,none,11-6-2020,7097052970,7097052970, Xiaomi
189431001gy61b,2020001465,Paladi Prudhvi,prudhvimammu@gmail.com,3499,Waiting for approval,waiting for update,Hyderabad,Subashnagar Hyderabad 500055,Subashnagar Hyderabad 500055,Mi Box X 1 - ,none,none,11-6-2020,7097052970,7097052970, Xiaomi
189456001lm61b,2020001466,Saikumar Vilasagaram,vilasagaramsaikumar3@email.com,74999,Waiting for approval,waiting for update,N/A,Himmathraopet Kodimiyal Jagtiyal 505501,N/A N/A N/A,iPhone XS Max Silver 64GB X 1 - ,cod,pickup,11-6-2020,9381145703,9381145703, Apple
189483001ma61b,2020001467,Patnala Ramakrishna,rk1979rt@gmail.com,13799,Waiting for approval,waiting for update,Alamuru,5-125/2 M R O OFFICE Road Alamuru Alamuru 533233,5-125/2 M R O OFFICE Road Alamuru Alamuru 533233,Moto X4 - 4 GB RAM | 64 GB ROM X 1 - ,none,none,11-6-2020,7013521981,7013521981,
189485001fw61b,2020001468,Sai Harshit,saiharsha2001@gmail.com,27999,Finished,not interested to pre book,Khammam,Vasavi nagar 507003 507003,Vasavi nagar Khammam 507003,"Samung Galaxy Tab S6Lite - Wi-Fi (Angora Blue, 64GB ) X 1 - ",cod,none,11-6-2020,8688436997,8688436997,
189735001te61b,2020001469,Gurram Bhaskar Reddy,gurrambhaskar6@gmail.com,8999,Accepted,warehouse delivery,N/A,5-5-113 Hyderabad 500030,N/A N/A N/A,Samsung Galaxy Black M01 3GB | 32GB X 1 - ,paid #PINE-675848,pickup,11-6-2020,9200898989,9200898989, Samsung
189739001cl61b,2020001470,Villuri Mahalakshmi Naidu,pavan.villuri11194@gmail.com,24900,Waiting for approval,waiting for update,N/A,Vvr nagar konda koppaka anakapalle Vizag 531001,N/A N/A N/A,AirPods Pro X 1 - ,none,pickup,11-6-2020,9885888850,9885888850,
189787001io61b,2020001471,Basha Mohammad Vali,mohammadvali630@gmail.com,7999,Accepted,warehouse delivery,Kadapa,Koti reddy circle Kadapa 516002,Koti reddy circle Kadapa 516002,Nokia 2.3 Green 2GB|32GB X 1 - ,paid #PAYTM-20200611111212800110168567130983088,none,11-6-2020,6302626168,9885539529, Nokia
189795001oo61b,2020001472,Basha Mohammad Vali,mohammadvali630@gmail.com,7399,Accepted,warehouse delivery,Kadapa,Koti reddy circle Kadapa 516001,Koti reddy circle Kadapa 516001,Gionee M7 Power - 4 GB RAM | 64 GB ROM X 1 - ,paid #PAYTM-20200611111212800110168075731438415,none,11-6-2020,9885539529,9885539529,
189831001ww61b,2020001473,Lalwani Harish,rajcaree@gmail.com,5499,Accepted,warehouse delivery,Hyderabad,Parsigutta Hyderabad 500061,Parsigutta Hyderabad 500061,LG K9 -  2 GB RAM | 16 GB ROM X 1 - ,paid #PAYTM-20200612111212800110168662731076499,none,11-6-2020,8328378907,8328378907, LG
189882001ir61b,2020001474,Test Test,testa@gmail.co,47997,Waiting for approval,waiting for update,N/A,Dccx Kha Dxcc,N/A N/A N/A,Redmi Note 8 Pro – 6GB|64GB X 3 - ,none,pickup,11-6-2020,7975769653,7975769653, Xiaomi
189887001fe61b,2020001475,Arjun Nani,mallik123@gmail.com,104900,onhold,waiting for update,N/A,Kothapet Guntur 522001,N/A N/A N/A,Vivo Y12 Red 3GB|64GB X 5 - Vivo Y11 Red 3GB|32GB - 2019 X 5 - ,cod,pickup,11-6-2020,7981595532,7981595532, Vivo