[
    {
        "linker": "ring/shop-by-style",
        "name": "Ring / Shop By Style"
    },
    {
        "linker": "ring/shop-by-occasion",
        "name": "Ring / Shop By Occasion"
    },
    {
        "linker": "ring/shop-by-metal",
        "name": "Ring / Shop By Metal"
    },
    {
        "linker": "earrings/shop-by-style",
        "name": "Earrings / Shop By Style"
    },
    {
        "linker": "earrings/wearing-type",
        "name": "Earrings / Wearing Type"
    },
    {
        "linker": "earrings/shop-by-metal",
        "name": "Earrings / Shop By Metal"
    },
    {
        "linker": "pendants/shop-by-style",
        "name": "Pendants / Shop By Style"
    },
    {
        "linker": "pendants/wearing-type",
        "name": "Pendants / Wearing Type"
    },
    {
        "linker": "pendants/shop-by-metal",
        "name": "Pendants / Shop By Metal"
    },
    {
        "linker": "chain/shop-by-style",
        "name": "Chain / Shop By Style"
    },
    {
        "linker": "chain/wearing-type",
        "name": "Chain / Wearing Type"
    },
    {
        "linker": "chain/shop-by-metal",
        "name": "Chain / Shop By Metal"
    },
    {
        "linker": "necklace/shop-by-style",
        "name": "Necklace / Shop By Style"
    },
    {
        "linker": "necklace/wearing-type",
        "name": "Necklace / Wearing Type"
    },
    {
        "linker": "necklace/shop-by-metal",
        "name": "Necklace / Shop By Metal"
    },
    {
        "linker": "bracelet/shop-by-style",
        "name": "Bracelet / Shop By Style"
    },
    {
        "linker": "bracelet/wearing-type",
        "name": "Bracelet / Wearing Type"
    },
    {
        "linker": "bracelet/shop-by-metal",
        "name": "Bracelet / Shop By Metal"
    },
    {
        "linker": "collection/shop-by-collection",
        "name": "Collection / Shop By Collection"
    }
]